ScanPlot_x_0	ScanPlot_y_0	ScanPlot_v_0	ScanPlot_var_0	ScanPlot_n_0
255.454	0	0		1
255.464	0	0		1
255.474	0	0		1
255.484	0	0		1
255.494	0	0		1
255.504	0	0		1
255.514	0	0		1
255.524	0.00516795879229903	0.00129198969807476		1
255.534	0	0		1
255.544	0.0126262623816729	0.00126262626145035		1
255.554	0.0291005298495293	0.00132275128271431		1
255.564	0.194444447755814	0.0631313100457191		1
255.574	0.0963541641831398	0.00260416674427688		1
255.584	0.0620155036449432	0.00129198969807476		1
255.594	0.02638522349298	0.000222862538066693		1
255.604	0.00255754473619163	7.78210160206072e-05		1
255.614	0	0		1
255.624	0	3.48357730217685e-06		1
255.634	0.0129198962822556	0.000159684001118876		1
255.644	0	0		1
255.654	0	0		1
255.664	0	0		1
255.674	0.00261096609756351	8.0485173384659e-05		1
255.684	0.00524934381246567	0.000102112571767066		1
255.694	0	0		1
255.704	0	0		1
255.714	0.00263157906010747	7.44211283745244e-05		1
255.724	0.00257731950841844	0.00128865975420922		1
255.734	0.00268096523359418	7.48136953916401e-05		1
255.744	0	0		1
255.754	0.00527704507112503	0.00010014112922363		1
255.764	0.00261780107393861	0.0013089005369693		1
255.774	0.00261096609756351	6.79357763146982e-05		1
255.784	0	0		1
255.794	0.00263852253556252	6.90039887558669e-05		1
255.804	0.00263852253556252	6.76808922435157e-05		1
255.814	0	0		1
255.824	0.00259740254841745	7.97279644757509e-05		1
255.834	0.00259067350998521	7.26534490240738e-05		1
255.844	0.00263852253556252	0.00131926126778126		1
255.854	0	0		1
255.864	0.00263157906010747	6.63492683088407e-05		1
255.874	0	0		1
255.884	0.00522193219512701	0.000107124607893638		1
255.894	0.00789473671466112	0.000127412829897366		1
255.904	0.00261780107393861	7.96263630036265e-05		1
255.914	0.00261780107393861	6.7944849433843e-05		1
255.924	0.0105540901422501	0.000129957174067385		1
255.934	0.0181818176060915	0.0038961039390415		1
255.944	0.00789473671466112	0.000134862551931292		1
255.954	0	0		1
255.964	0	0		1
255.974	0.0051948050968349	0.000100245444627944		1
255.984	0.00523560214787722	7.72021157899871e-05		1
255.994	0	0		1
256.004	0.00791556760668755	0.000123581048683263		1
256.013999999999	0.0105263162404299	0.000154528446728364		1
256.023999999999	0.0105540901422501	0.000129606953123584		1
256.033999999999	0	0		1
256.043999999999	0.0105820102617145	0.00132275128271431		1
256.053999999999	0.0184210520237684	0.00131578953005373		1
256.063999999999	0.0205128211528063	0.00256410264410079		1
256.073999999999	0.00516795879229903	0.000111444132926408		1
256.083999999999	0.00779220787808299	0.00259740254841745		1
256.093999999999	0.0154639175161719	0.000201031580218114		1
256.103999999999	0.0157894734293222	0.000184395437827334		1
256.113999999999	0.0179948583245277	0.00257069407962263		1
256.123999999999	0.00777202052995563	0.000138244256959297		1
256.133999999999	0.0103896101936698	0.00129870127420872		1
256.143999999999	0.0343915335834026	0.00132275128271431		1
256.153999999999	0.0530503988265991	0.000282183173112571		1
256.163999999999	0.0130208330228925	0.0001543925027363		1
256.173999999999	0.020887728780508	0.000198398673092015		1
256.183999999999	0.0641711205244064	0.000279219908406958		1
256.193999999999	0.142480209469795	0.000415151909692213		1
256.203999999999	0.0936708897352219	0.0101265823468566		1
256.213999999999	0.0213333331048489	0.00133333331905305		1
256.223999999999	0.0732984319329262	0.0013089005369693		1
256.233999999999	0.414141416549683	0.0113636367022991		1
256.243999999999	0.773299753665924	0.00251889158971608		1
256.253999999999	0.964999973773956	0.00124999997206032		1
256.263999999999	0.787341773509979	0.00253164558671415		1
256.273999999999	0.412499994039536	0.0087500000372529		1
256.283999999999	0.0697674453258514	0.0103359175845981		1
256.293999999999	0.159793809056282	0.0412371121346951		1
256.303999999999	0.0954773873090744	0.00376884429715574		1
256.313999999999	0.11139240860939	0.00253164558671415		1
256.323999999999	0.0736040621995926	0.00126903550699353		1
256.333999999999	0.00251256278716028	0.00251256278716028		1
256.343999999999	0.00257731950841844	7.30406318325549e-05		1
256.353999999999	0.0416666679084301	0.000247042102273554		1
256.363999999999	0.0413436703383923	0.000250269571552053		1
256.373999999999	0.00520833348855376	8.71427764650434e-05		1
256.383999999999	0.00793650839477777	0.000126904036733322		1
256.393999999999	0.0238095242530107	0.00021390340407379		1
256.403999999999	0.0359897166490555	0.000235045430599712		1
256.413999999999	0.0156657956540585	0.00130548304878175		1
256.423999999999	0.00785340275615454	0.0013089005369693		1
256.433999999999	0.0077519379556179	0.000107145628135186		1
256.443999999999	0.0291005298495293	0.00132275128271431		1
256.453999999999	0.015625	0.00130208337213844		1
256.463999999999	0.0051948050968349	9.888868953567e-05		1
256.473999999999	0.00783289782702923	0.00130548304878175		1
256.483999999999	0.0102827763184905	0.000137638184241951		1
256.493999999999	0.00789473671466112	0.00131578953005373		1
256.503999999999	0.0078740157186985	0.00131233595311642		1
256.513999999999	0.00263852253556252	0.00131926126778126		1
256.523999999999	0.00262467190623283	7.37587906769477e-05		1
256.533999999999	0.0106100793927908	0.00132625992409885		1
256.543999999999	0.00259067350998521	0.0012953367549926		1
256.553999999999	0.00524934381246567	0.00131233595311642		1
256.563999999999	0	0		1
256.573999999999	0.0132275130599737	0.000170025814441033		1
256.583999999999	0.0078125	0.000109051077743061		1
256.593999999999	0.00789473671466112	0.000126170969451778		1
256.603999999999	0	0		1
256.613999999999	0	0		1
256.623999999999	0.00264550256542861	6.78158903610893e-05		1
256.633999999999	0	0		1
256.643999999999	0	0		1
256.653999999999	0.00264550256542861	8.16255196696147e-05		1
256.663999999999	0.00265957438386977	7.42461998015642e-05		1
256.673999999999	0.00260416674427688	0.00130208337213844		1
256.683999999999	0	0		1
256.693999999999	0.00260416674427688	7.41706535336562e-05		1
256.703999999999	0.00516795879229903	8.02951180958189e-05		1
256.713999999999	0.00514138815924525	9.97347669908777e-05		1
256.723999999999	0.00255754473619163	7.92568680481054e-05		1
256.733999999999	0	0		1
256.743999999999	0	0		1
256.753999999999	0.0051948050968349	9.31109243538231e-05		1
256.763999999999	0.00258397939614952	7.17415969120339e-05		1
256.773999999999	0.00255102035589516	0.00127551017794758		1
256.783999999999	0.00514138815924525	8.83892134879716e-05		1
256.793999999999	0.00514138815924525	0.00128534703981131		1
256.803999999999	0	0		1
256.813999999999	0	0		1
256.823999999999	0	0		1
256.833999999999	0	0		1
256.843999999999	0	0		1
256.853999999999	0	0		1
256.863999999999	0.00518134701997042	8.98838698049076e-05		1
256.873999999999	0.0205128211528063	0.00256410264410079		1
256.883999999999	0.00763358781114221	0.00013094897440169		1
256.893999999999	0	0		1
256.903999999999	0.00257069407962263	6.9607856858056e-05		1
256.913999999999	0.0179487187415361	0.00384615384973586		1
256.923999999999	0.0490956082940102	0.00258397939614952		1
256.933999999999	0.0585241727530956	0.000267132476437837		1
256.943999999999	0.0714285746216774	0.00382653065025806		1
256.953999999999	0.0514138825237751	0.00257069407962263		1
256.963999999999	0.0439276471734047	0.000253635836998001		1
256.973999999999	0.00257731950841844	7.97003885963932e-05		1
256.983999999999	0.00254452927038074	0.00127226463519037		1
256.993999999999	0.00514138815924525	0.000107747509900946		1
257.003999999999	0.00769230769947171	0.000143312383443117		1
257.013999999999	0	9.42128952630128e-09		1
257.023999999999	0.00255754473619163	0.00127877236809582		1
257.033999999999	0	0		1
257.043999999999	0.00255102035589516	6.66361738694832e-05		1
257.053999999999	0.00253807101398706	0.00126903550699353		1
255.454	0	1.48999404814276e-07		1
255.464	0.00255754473619163	6.66374908178113e-05		1
255.474	0	0		1
255.484	0	0		1
255.494	0.00253164558671415	6.60098157823086e-05		1
255.504	0	0		1
255.514	0.0051948050968349	8.75070472829975e-05		1
255.524	0.00255754473619163	7.93723520473577e-05		1
255.534	0.00256410264410079	0.00256410264410079		1
255.544	0.020460357889533	0.00383631722070277		1
255.554	0.0206718351691961	0.00129198969807476		1
255.564	0.0623376630246639	0.00129870127420872		1
255.574	0.0958549231290817	0.00259067350998521		1
255.584	0.0616966597735882	0.000282561173662543		1
255.594	0.0310077518224716	0.00258397939614952		1
255.604	0.00257069407962263	8.12851430964656e-05		1
255.614	0.00769230769947171	0.00641025649383664		1
255.624	0.00516795879229903	0.00129198969807476		1
255.634	0.0103626940399408	0.00647668400779366		1
255.644	0	0.00254452927038074		1
255.654	0	0		1
255.664	0	0		1
255.674	0	6.69408746034605e-06		1
255.684	0	0		1
255.694	0.00253807101398706	7.91556012700312e-05		1
255.704	0	0		1
255.714	0	0		1
255.724	0.00261780107393861	0.0013089005369693		1
255.734	0.00262467190623283	7.46458972571418e-05		1
255.744	0	0		1
255.754	0	0		1
255.764	0	3.56160762748914e-06		1
255.774	0	0		1
255.784	0	0		1
255.794	0.00257069407962263	7.85759038990363e-05		1
255.804	0.121518984436989	0.0405063293874264		1
255.814	0.00515463901683688	0.00128865975420922		1
255.824	0.00258397939614952	0.00129198969807476		1
255.834	0.00255754473619163	6.67484709993005e-05		1
255.844	0	0		1
255.854	0	0		1
255.864	0	0		1
255.874	0.00256410264410079	0.00256410264410079		1
255.884	0	8.11201687156426e-07		1
255.894	0.00515463901683688	0.00128865975420922		1
255.904	0	0		1
255.914	0	0		1
255.924	0	0		1
255.934	0	0		1
255.944	0.00767263444140553	0.00012517420691438		1
255.954	0.00514138815924525	0.000112901652755681		1
255.964	0.00264550256542861	7.28654777049087e-05		1
255.974	0.00765306130051613	0.000136225979076698		1
255.984	0.00769230769947171	0.000125498292618431		1
255.994	0	0		1
256.004	0.00255754473619163	7.94068837421946e-05		1
256.013999999999	0.0103092780336738	0.000122708253911696		1
256.023999999999	0.0152284260839224	0.00253807101398706		1
256.033999999999	0.00522193219512701	0.000108095380710438		1
256.043999999999	0.00779220787808299	0.00012694307952188		1
256.053999999999	0.00777202052995563	0.0012953367549926		1
256.063999999999	0.0365535244345665	0.00023481524840463		1
256.073999999999	0.010443864390254	0.000148375329445116		1
256.083999999999	0.00515463901683688	0.00010746756743174		1
256.093999999999	0.00263852253556252	7.86055607022718e-05		1
256.103999999999	0.0340314134955406	0.0013089005369693		1
256.113999999999	0.00777202052995563	0.000127379127661698		1
256.123999999999	0.00263852253556252	7.36367073841393e-05		1
256.133999999999	0.0130548300221562	0.00130548304878175		1
256.143999999999	0.057591624557972	0.000277833663858473		1
256.153999999999	0.0415584407746792	0.000243041184148751		1
256.163999999999	0.0104166669771075	0.00260416674427688		1
256.173999999999	0.0078125	0.000121563520224299		1
256.183999999999	0.0490956082940102	0.00258397939614952		1
256.193999999999	0.105398461222649	0.00385604123584926		1
256.203999999999	0.0757180154323578	0.00130548304878175		1
256.213999999999	0.0308483298867941	0.00021308456780389		1
256.223999999999	0.0815789476037025	0.00131578953005373		1
256.233999999999	0.419847339391708	0.000447066209744662		1
256.243999999999	0.781954884529114	0.000376286683604121		1
256.253999999999	0.957499980926514	0.00625000009313226		1
256.263999999999	0.793450891971588	0.00125944579485804		1
256.273999999999	0.394329905509949	0.00128865975420922		1
256.283999999999	0.0880829021334648	0.000341124687111005		1
256.293999999999	0.0279898215085268	0.000215687570744194		1
256.303999999999	0.0788804069161415	0.000316651363391429		1
256.313999999999	0.123076923191547	0.000406694220146164		1
256.323999999999	0.077519379556179	0.00129198969807476		1
256.333999999999	0.0131233595311642	0.000201313843717799		1
256.343999999999	0.00767263444140553	0.000137145587359555		1
256.353999999999	0.0368421040475368	0.00131578953005373		1
256.363999999999	0.0410256423056126	0.00256410264410079		1
256.373999999999	0.0154639175161719	0.00128865975420922		1
256.383999999999	0.00261096609756351	7.96595923020504e-05		1
256.393999999999	0.00529100513085723	0.000108106061816216		1
256.403999999999	0.026041666045785	0.00020399440836627		1
256.413999999999	0.00515463901683688	0.000111984962131828		1
256.423999999999	0.0050632911734283	0.00253164558671415		1
256.433999999999	0.00773195875808597	0.000108896143501624		1
256.443999999999	0.00518134701997042	0.0012953367549926		1
256.453999999999	0.00537634408101439	8.3412385720294e-05		1
256.463999999999	0.00789473671466112	0.000133915644255467		1
256.473999999999	0.0127551024779677	0.00637755123898387		1
256.483999999999	0.015625	0.00130208337213844		1
256.493999999999	0.0051948050968349	0.000106434425106272		1
256.503999999999	0.0078740157186985	0.00012524587509688		1
256.513999999999	0.0078125	0.00130208337213844		1
256.523999999999	0.00791556760668755	0.00131926126778126		1
256.533999999999	0.00529100513085723	0.00132275128271431		1
256.543999999999	0.0078740157186985	9.13066251087002e-05		1
256.553999999999	0	0		1
256.563999999999	0.00263852253556252	6.74130933475681e-05		1
256.573999999999	0.00259067350998521	7.27636215742677e-05		1
256.583999999999	0.00537634408101439	0.000108001826447435		1
256.593999999999	0.00522193219512701	8.87239002622664e-05		1
256.603999999999	0.0026525198481977	6.96217102813534e-05		1
256.613999999999	0.00527704507112503	7.58625246817246e-05		1
256.623999999999	0.0077519379556179	0.00129198969807476		1
256.633999999999	0	0		1
256.643999999999	0	0		1
256.653999999999	0.00259067350998521	0.00777202052995563		1
256.663999999999	0.0051948050968349	9.23317275010049e-05		1
256.673999999999	0.00518134701997042	8.78070204635151e-05		1
256.683999999999	0	0		1
256.693999999999	0	0		1
256.703999999999	0.00263157906010747	7.44527715141885e-05		1
256.713999999999	0	4.29683222336052e-09		1
256.723999999999	0	0		1
256.733999999999	0	0		1
256.743999999999	0.00518134701997042	0.0012953367549926		1
256.753999999999	0.00261096609756351	7.51361149013974e-05		1
256.763999999999	0	0		1
256.773999999999	0.00261780107393861	0.00261780107393861		1
256.783999999999	0.00263852253556252	8.13382866908796e-05		1
256.793999999999	0	0		1
256.803999999999	0	0		1
256.813999999999	0	0		1
256.823999999999	0	0		1
256.833999999999	0.00259067350998521	7.9804623965174e-05		1
256.843999999999	0.00258397939614952	8.11991558293812e-05		1
256.853999999999	0	0		1
256.863999999999	0.00256410264410079	0.00128205132205039		1
256.873999999999	0.0025252525229007	0.00126262626145035		1
256.883999999999	0.00511508947238326	7.53019558032975e-05		1
256.893999999999	0	0		1
256.903999999999	0.00510204071179032	0.00127551017794758		1
256.913999999999	0.0233766231685877	0.00129870127420872		1
256.923999999999	0.0391644909977913	0.000244579918216914		1
256.933999999999	0.073107048869133	0.00130548304878175		1
256.943999999999	0.0820512846112251	0.00128205132205039		1
256.953999999999	0.0433673486113548	0.00023658356803935		1
256.963999999999	0.0356234088540077	0.000232288977713324		1
256.973999999999	0.00255102035589516	0.00127551017794758		1
256.983999999999	0	7.30819976979546e-07		1
256.993999999999	0.00773195875808597	0.000125187332741916		1
257.003999999999	0.00514138815924525	9.96203962131403e-05		1
257.013999999999	0	0		1
257.023999999999	0	0		1
257.033999999999	0	0		1
257.043999999999	0	0		1
257.053999999999	0	0		1
255.454	0.00508905854076147	0.000111389337689616		1
255.464	0.00254452927038074	0.00127226463519037		1
255.474	0.00255754473619163	7.71089398767799e-05		1
255.484	0	0		1
255.494	0.00254452927038074	0.00127226463519037		1
255.504	0.0101522840559483	0.000168978294823319		1
255.514	0.00510204071179032	0.000104190410638694		1
255.524	0.00514138815924525	9.8986376542598e-05		1
255.534	0	0		1
255.544	0.0227272734045982	0.00378787890076637		1
255.554	0.051020409911871	0.00382653065025806		1
255.564	0.0644329860806465	0.00386597937904298		1
255.574	0.0757575780153275	0.0025252525229007		1
255.584	0.0858585834503174	0.000325796427205205		1
255.594	0.0254452917724848	0.00254452927038074		1
255.604	0	0		1
255.614	0	0		1
255.624	0	0		1
255.634	0.00515463901683688	9.31329777813517e-05		1
255.644	0	5.94555240240879e-06		1
255.654	0	0.00128865975420922		1
255.664	0	0		1
255.674	0.00261096609756351	6.76507406751625e-05		1
255.684	0	0		1
255.694	0	0		1
255.704	0.00262467190623283	0.00131233595311642		1
255.714	0.00511508947238326	0.00127877236809582		1
255.724	0	0		1
255.734	0	0		1
255.744	0	0		1
255.754	0	8.2727374319802e-06		1
255.764	0.00771208247169852	0.00128534703981131		1
255.774	0	0		1
255.784	0	0.00128205132205039		1
255.794	0.00253807101398706	7.39303577574901e-05		1
255.804	0	0		1
255.814	0	0		1
255.824	0	1.35462059347446e-08		1
255.834	0	5.89897588554322e-08		1
255.844	0.0025252525229007	0.00126262626145035		1
255.854	0	0		1
255.864	0	0		1
255.874	0	0		1
255.884	0.00255754473619163	0.00255754473619163		1
255.894	0	5.55700762561173e-06		1
255.904	0	3.86536066798726e-06		1
255.914	0.00251889158971608	0.00125944579485804		1
255.924	0.0153452688828111	0.00127877236809582		1
255.934	0.0025252525229007	7.23618140909821e-05		1
255.944	0.00253164558671415	0.00126582279335707		1
255.954	0.00507614202797413	9.95540540316142e-05		1
255.964	0.0051948050968349	9.98165996861644e-05		1
255.974	0.00507614202797413	0.000109732747660019		1
255.984	0.0104986876249313	0.000167932361364365		1
255.994	0	0.00127551017794758		1
256.004	0.00761421304196119	0.000124540325487033		1
256.013999999999	0.00507614202797413	9.73432179307565e-05		1
256.023999999999	0.00769230769947171	0.00512820528820157		1
256.033999999999	0	0		1
256.043999999999	0.00510204071179032	0.00127551017794758		1
256.053999999999	0.0125944586470723	0.00125944579485804		1
256.063999999999	0.0203562341630459	0.00254452927038074		1
256.073999999999	0.00507614202797413	9.93745561572723e-05		1
256.083999999999	0.00516795879229903	0.00129198969807476		1
256.093999999999	0.0102040814235806	0.000162790471222252		1
256.103999999999	0.0125944586470723	0.00125944579485804		1
256.113999999999	0.0126262623816729	0.000170393715961836		1
256.123999999999	0	4.28440262112417e-06		1
256.133999999999	0.0251256283372641	0.0213567838072777		1
256.143999999999	0.0305343512445688	0.00127226463519037		1
256.153999999999	0.045569621026516	0.00632911408320069		1
256.163999999999	0.00757575780153275	0.000140700998599641		1
256.173999999999	0.00765306130051613	0.00127551017794758		1
256.183999999999	0.0583756342530251	0.000271626428002492		1
256.193999999999	0.0946291536092758	0.000340056518325582		1
256.203999999999	0.0559796430170536	0.00254452927038074		1
256.213999999999	0.0206185560673475	0.00128865975420922		1
256.223999999999	0.086075946688652	0.00126582279335707		1
256.233999999999	0.367500007152557	0.00249999994412065		1
256.243999999999	0.80303031206131	0.00126262626145035		1
256.253999999999	0.975000023841858	0.00124999997206032		1
256.263999999999	0.773869335651398	0.00125628139358014		1
256.273999999999	0.347826093435287	0.00127877236809582		1
256.283999999999	0.0918367356061935	0.00127551017794758		1
256.293999999999	0.00515463901683688	7.54112406866625e-05		1
256.303999999999	0.0763358771800995	0.00636132294312119		1
256.313999999999	0.101010099053383	0.000345367996487767		1
256.323999999999	0.085492230951786	0.00033325984259136		1
256.333999999999	0.0102564105764031	0.00128205132205039		1
256.343999999999	0.0206718351691961	0.00129198969807476		1
256.353999999999	0.038659792393446	0.00257731950841844		1
256.363999999999	0.0280612241476774	0.000223337672650814		1
256.373999999999	0.0103092780336738	0.00128865975420922		1
256.383999999999	0.00757575780153275	0.000140667951200157		1
256.393999999999	0.0151898730546236	0.0037974682636559		1
256.403999999999	0.0202020201832056	0.000213366627576761		1
256.413999999999	0.0281329918652773	0.00127877236809582		1
256.423999999999	0	0		1
256.433999999999	0.0050505050458014	0.000109556523966603		1
256.443999999999	0.0151898730546236	0.000189696162124164		1
256.453999999999	0.0126582281664014	0.0050632911734283		1
256.463999999999	0.00516795879229903	0.00129198969807476		1
256.473999999999	0.0102301789447665	0.000156597408931702		1
256.483999999999	0.0103896101936698	0.000139810552354902		1
256.493999999999	0.00257731950841844	7.8796103480272e-05		1
256.503999999999	0.00520833348855376	0.000111964873212855		1
256.513999999999	0.00257731950841844	7.92875871411525e-05		1
256.523999999999	0.0129198962822556	0.000149920204421505		1
256.533999999999	0.0127551024779677	0.000162796975928359		1
256.543999999999	0.00512820528820157	8.67799244588241e-05		1
256.553999999999	0.00507614202797413	8.18732660263777e-05		1
256.563999999999	0.00256410264410079	7.17283255653456e-05		1
256.573999999999	0.00257731950841844	0.00128865975420922		1
256.583999999999	0.00258397939614952	8.05759191280231e-05		1
256.593999999999	0.00769230769947171	0.000121931036119349		1
256.603999999999	0.00257731950841844	7.39012248232029e-05		1
256.613999999999	0.00258397939614952	8.01455025793985e-05		1
256.623999999999	0.00510204071179032	0.00255102035589516		1
256.633999999999	0.00516795879229903	0.00129198969807476		1
256.643999999999	0	0.0037974682636559		1
256.653999999999	0	0		1
256.663999999999	0	0.00127551017794758		1
256.673999999999	0.00255754473619163	7.9254386946559e-05		1
256.683999999999	0	0		1
256.693999999999	0	0		1
256.703999999999	0.00257731950841844	7.1570866566617e-05		1
256.713999999999	0	0		1
256.723999999999	0	0		1
256.733999999999	0	0		1
256.743999999999	0.00257069407962263	6.67707354295999e-05		1
256.753999999999	0	1.44090421372312e-07		1
256.763999999999	0	0		1
256.773999999999	0.00256410264410079	0.00128205132205039		1
256.783999999999	0	0		1
256.793999999999	0	0		1
256.803999999999	0	0		1
256.813999999999	0	0		1
256.823999999999	0	0		1
256.833999999999	0.00503778317943215	0.00125944579485804		1
256.843999999999	0	0		1
256.853999999999	0	0.00129198969807476		1
256.863999999999	0.00253164558671415	7.07821018295363e-05		1
256.873999999999	0.00256410264410079	7.28414379409514e-05		1
256.883999999999	0.00767263444140553	0.000136598362587392		1
256.893999999999	0.00261780107393861	0.0013089005369693		1
256.903999999999	0.0127226458862424	0.000174176282598637		1
256.913999999999	0.0306905377656221	0.00127877236809582		1
256.923999999999	0.0716112554073334	0.000298533792374656		1
256.933999999999	0.0717948749661446	0.000304227811284363		1
256.943999999999	0.0931989923119545	0.00125944579485804		1
256.953999999999	0.0355329960584641	0.00507614202797413		1
256.963999999999	0.0183246079832315	0.000198161593289115		1
256.973999999999	0.00256410264410079	0.00128205132205039		1
256.983999999999	0.00257069407962263	6.80894881952554e-05		1
256.993999999999	0.00510204071179032	0.000104296464996878		1
257.003999999999	0.00508905854076147	9.39607052714564e-05		1
257.013999999999	0.00259740254841745	0.00129870127420872		1
257.023999999999	0	0		1
257.033999999999	0	9.33023557081469e-07		1
257.043999999999	0.00254452927038074	0.00127226463519037		1
257.053999999999	0	0		1
