<?xml version="1.0" encoding="UTF-8" standalone="no"?>
<!-- Created with Inkscape (http://www.inkscape.org/) -->

<svg
   xmlns:ns0="http://www.iki.fi/pav/software/textext/"
   xmlns:dc="http://purl.org/dc/elements/1.1/"
   xmlns:cc="http://creativecommons.org/ns#"
   xmlns:rdf="http://www.w3.org/1999/02/22-rdf-syntax-ns#"
   xmlns:svg="http://www.w3.org/2000/svg"
   xmlns="http://www.w3.org/2000/svg"
   xmlns:xlink="http://www.w3.org/1999/xlink"
   xmlns:sodipodi="http://sodipodi.sourceforge.net/DTD/sodipodi-0.dtd"
   xmlns:inkscape="http://www.inkscape.org/namespaces/inkscape"
   width="198"
   height="225"
   id="svg7396"
   version="1.1"
   inkscape:version="0.48.4 r9939"
   sodipodi:docname="figure42.svg">
  <sodipodi:namedview
     id="base"
     pagecolor="#ffffff"
     bordercolor="#666666"
     borderopacity="1.0"
     inkscape:pageopacity="0.0"
     inkscape:pageshadow="2"
     inkscape:zoom="1"
     inkscape:cx="88.925393"
     inkscape:cy="-74.027187"
     inkscape:document-units="px"
     inkscape:current-layer="layer1"
     showgrid="false"
     inkscape:window-width="1280"
     inkscape:window-height="967"
     inkscape:window-x="0"
     inkscape:window-y="27"
     inkscape:window-maximized="1"
     units="in" />
  <defs
     id="defs7398">
    <marker
       style="overflow:visible"
       id="Arrow1Mstart"
       refX="0"
       refY="0"
       orient="auto"
       inkscape:stockid="Arrow1Mstart">
      <path
         inkscape:connector-curvature="0"
         transform="matrix(0.4,0,0,0.4,4,0)"
         style="fill-rule:evenodd;stroke:#000000;stroke-width:1pt"
         d="M 0,0 5,-5 -12.5,0 5,5 0,0 z"
         id="path8284" />
    </marker>
    <marker
       style="overflow:visible"
       id="Arrow1Mend"
       refX="0"
       refY="0"
       orient="auto"
       inkscape:stockid="Arrow1Mend">
      <path
         inkscape:connector-curvature="0"
         transform="matrix(-0.4,0,0,-0.4,-4,0)"
         style="fill-rule:evenodd;stroke:#000000;stroke-width:1pt"
         d="M 0,0 5,-5 -12.5,0 5,5 0,0 z"
         id="path8287" />
    </marker>
    <marker
       style="overflow:visible"
       id="Arrow1Mend-1"
       refX="0"
       refY="0"
       orient="auto"
       inkscape:stockid="Arrow1Mend">
      <path
         transform="matrix(-0.4,0,0,-0.4,-4,0)"
         style="fill-rule:evenodd;stroke:#000000;stroke-width:1pt"
         d="M 0,0 5,-5 -12.5,0 5,5 0,0 z"
         id="path8287-9"
         inkscape:connector-curvature="0" />
    </marker>
    <marker
       style="overflow:visible"
       id="marker9409"
       refX="0"
       refY="0"
       orient="auto"
       inkscape:stockid="Arrow1Mend">
      <path
         transform="matrix(-0.4,0,0,-0.4,-4,0)"
         style="fill-rule:evenodd;stroke:#000000;stroke-width:1pt"
         d="M 0,0 5,-5 -12.5,0 5,5 0,0 z"
         id="path9411"
         inkscape:connector-curvature="0" />
    </marker>
    <marker
       style="overflow:visible"
       id="marker9413"
       refX="0"
       refY="0"
       orient="auto"
       inkscape:stockid="Arrow1Mend">
      <path
         transform="matrix(-0.4,0,0,-0.4,-4,0)"
         style="fill-rule:evenodd;stroke:#000000;stroke-width:1pt"
         d="M 0,0 5,-5 -12.5,0 5,5 0,0 z"
         id="path9415"
         inkscape:connector-curvature="0" />
    </marker>
    <marker
       style="overflow:visible"
       id="Arrow1Mend-3"
       refX="0"
       refY="0"
       orient="auto"
       inkscape:stockid="Arrow1Mend">
      <path
         transform="matrix(-0.4,0,0,-0.4,-4,0)"
         style="fill-rule:evenodd;stroke:#000000;stroke-width:1pt"
         d="M 0,0 5,-5 -12.5,0 5,5 0,0 z"
         id="path8287-8"
         inkscape:connector-curvature="0" />
    </marker>
    <marker
       style="overflow:visible"
       id="Arrow1Mend-8"
       refX="0"
       refY="0"
       orient="auto"
       inkscape:stockid="Arrow1Mend">
      <path
         transform="matrix(-0.4,0,0,-0.4,-4,0)"
         style="fill-rule:evenodd;stroke:#000000;stroke-width:1pt"
         d="M 0,0 5,-5 -12.5,0 5,5 0,0 z"
         id="path8287-0"
         inkscape:connector-curvature="0" />
    </marker>
    <marker
       style="overflow:visible"
       id="Arrow1Mend-5"
       refX="0"
       refY="0"
       orient="auto"
       inkscape:stockid="Arrow1Mend">
      <path
         transform="matrix(-0.4,0,0,-0.4,-4,0)"
         style="fill-rule:evenodd;stroke:#000000;stroke-width:1pt"
         d="M 0,0 5,-5 -12.5,0 5,5 0,0 z"
         id="path8287-88"
         inkscape:connector-curvature="0" />
    </marker>
    <marker
       style="overflow:visible"
       id="Arrow1Mend-2"
       refX="0"
       refY="0"
       orient="auto"
       inkscape:stockid="Arrow1Mend">
      <path
         transform="matrix(-0.4,0,0,-0.4,-4,0)"
         style="fill-rule:evenodd;stroke:#000000;stroke-width:1pt"
         d="M 0,0 5,-5 -12.5,0 5,5 0,0 z"
         id="path8287-06"
         inkscape:connector-curvature="0" />
    </marker>
    <marker
       style="overflow:visible"
       id="Arrow1Mend-4"
       refX="0"
       refY="0"
       orient="auto"
       inkscape:stockid="Arrow1Mend">
      <path
         transform="matrix(-0.4,0,0,-0.4,-4,0)"
         style="fill-rule:evenodd;stroke:#000000;stroke-width:1pt"
         d="M 0,0 5,-5 -12.5,0 5,5 0,0 z"
         id="path8287-1"
         inkscape:connector-curvature="0" />
    </marker>
    <marker
       style="overflow:visible"
       id="Arrow1Mend-88"
       refX="0"
       refY="0"
       orient="auto"
       inkscape:stockid="Arrow1Mend">
      <path
         transform="matrix(-0.4,0,0,-0.4,-4,0)"
         style="fill-rule:evenodd;stroke:#000000;stroke-width:1pt"
         d="M 0,0 5,-5 -12.5,0 5,5 0,0 z"
         id="path8287-4"
         inkscape:connector-curvature="0" />
    </marker>
    <marker
       style="overflow:visible"
       id="Arrow1Mend-6"
       refX="0"
       refY="0"
       orient="auto"
       inkscape:stockid="Arrow1Mend">
      <path
         transform="matrix(-0.4,0,0,-0.4,-4,0)"
         style="fill-rule:evenodd;stroke:#000000;stroke-width:1pt"
         d="M 0,0 5,-5 -12.5,0 5,5 0,0 z"
         id="path8287-17"
         inkscape:connector-curvature="0" />
    </marker>
    <marker
       style="overflow:visible"
       id="Arrow1Mend-57"
       refX="0"
       refY="0"
       orient="auto"
       inkscape:stockid="Arrow1Mend">
      <path
         transform="matrix(-0.4,0,0,-0.4,-4,0)"
         style="fill-rule:evenodd;stroke:#000000;stroke-width:1pt"
         d="M 0,0 5,-5 -12.5,0 5,5 0,0 z"
         id="path8287-2"
         inkscape:connector-curvature="0" />
    </marker>
    <marker
       style="overflow:visible"
       id="Arrow1Mend-52"
       refX="0"
       refY="0"
       orient="auto"
       inkscape:stockid="Arrow1Mend">
      <path
         transform="matrix(-0.4,0,0,-0.4,-4,0)"
         style="fill-rule:evenodd;stroke:#000000;stroke-width:1pt"
         d="M 0,0 5,-5 -12.5,0 5,5 0,0 z"
         id="path8287-5"
         inkscape:connector-curvature="0" />
    </marker>
    <marker
       style="overflow:visible"
       id="Arrow1Mstartq"
       refX="0"
       refY="0"
       orient="auto"
       inkscape:stockid="Arrow1Mstartq">
      <path
         inkscape:connector-curvature="0"
         transform="matrix(0.4,0,0,0.4,4,0)"
         style="stroke:#fe0000;stroke-width:1pt;fill:#fe0000;fill-rule:evenodd"
         d="M 0,0 5,-5 -12.5,0 5,5 0,0 z"
         id="path16999" />
    </marker>
    <marker
       style="overflow:visible"
       id="Arrow1Mstart2"
       refX="0"
       refY="0"
       orient="auto"
       inkscape:stockid="Arrow1Mstart2">
      <path
         inkscape:connector-curvature="0"
         transform="matrix(0.4,0,0,0.4,4,0)"
         style="stroke:#fe0000;stroke-width:1pt;fill:#fe0000;fill-rule:evenodd"
         d="M 0,0 5,-5 -12.5,0 5,5 0,0 z"
         id="path17002" />
    </marker>
    <marker
       style="overflow:visible"
       id="Arrow1Mend-52B"
       refX="0"
       refY="0"
       orient="auto"
       inkscape:stockid="Arrow1Mend-52B">
      <path
         transform="matrix(-0.4,0,0,-0.4,-4,0)"
         style="stroke:#fe0000;stroke-width:1pt;fill:#fe0000;fill-rule:evenodd"
         d="M 0,0 5,-5 -12.5,0 5,5 0,0 z"
         id="path17005"
         inkscape:connector-curvature="0" />
    </marker>
    <marker
       style="overflow:visible"
       id="Arrow1Mstartv"
       refX="0"
       refY="0"
       orient="auto"
       inkscape:stockid="Arrow1Mstartv">
      <path
         inkscape:connector-curvature="0"
         transform="matrix(0.4,0,0,0.4,4,0)"
         style="stroke:#fe0000;stroke-width:1pt;fill:#fe0000;fill-rule:evenodd"
         d="M 0,0 5,-5 -12.5,0 5,5 0,0 z"
         id="path17008" />
    </marker>
    <marker
       style="overflow:visible"
       id="Arrow1Mend-52d"
       refX="0"
       refY="0"
       orient="auto"
       inkscape:stockid="Arrow1Mend-52d">
      <path
         transform="matrix(-0.4,0,0,-0.4,-4,0)"
         style="stroke:#fe0000;stroke-width:1pt;fill:#fe0000;fill-rule:evenodd"
         d="M 0,0 5,-5 -12.5,0 5,5 0,0 z"
         id="path17011"
         inkscape:connector-curvature="0" />
    </marker>
    <marker
       style="overflow:visible"
       id="Arrow1Mstart1"
       refX="0"
       refY="0"
       orient="auto"
       inkscape:stockid="Arrow1Mstart1">
      <path
         inkscape:connector-curvature="0"
         transform="matrix(0.4,0,0,0.4,4,0)"
         style="stroke:#fe0000;stroke-width:1pt;fill:#fe0000;fill-rule:evenodd"
         d="M 0,0 5,-5 -12.5,0 5,5 0,0 z"
         id="path17014" />
    </marker>
    <marker
       style="overflow:visible"
       id="Arrow1Mend-52S"
       refX="0"
       refY="0"
       orient="auto"
       inkscape:stockid="Arrow1Mend-52S">
      <path
         transform="matrix(-0.4,0,0,-0.4,-4,0)"
         style="stroke:#fe0000;stroke-width:1pt;fill:#fe0000;fill-rule:evenodd"
         d="M 0,0 5,-5 -12.5,0 5,5 0,0 z"
         id="path17017"
         inkscape:connector-curvature="0" />
    </marker>
    <marker
       style="overflow:visible"
       id="Arrow1MstartH"
       refX="0"
       refY="0"
       orient="auto"
       inkscape:stockid="Arrow1MstartH">
      <path
         inkscape:connector-curvature="0"
         transform="matrix(0.4,0,0,0.4,4,0)"
         style="stroke:#fe0000;stroke-width:1pt;fill:#fe0000;fill-rule:evenodd"
         d="M 0,0 5,-5 -12.5,0 5,5 0,0 z"
         id="path17020" />
    </marker>
    <marker
       style="overflow:visible"
       id="Arrow1Mend-52J"
       refX="0"
       refY="0"
       orient="auto"
       inkscape:stockid="Arrow1Mend-52J">
      <path
         transform="matrix(-0.4,0,0,-0.4,-4,0)"
         style="stroke:#fe0000;stroke-width:1pt;fill:#fe0000;fill-rule:evenodd"
         d="M 0,0 5,-5 -12.5,0 5,5 0,0 z"
         id="path17023"
         inkscape:connector-curvature="0" />
    </marker>
    <marker
       style="overflow:visible"
       id="Arrow1Mendi"
       refX="0"
       refY="0"
       orient="auto"
       inkscape:stockid="Arrow1Mendi">
      <path
         inkscape:connector-curvature="0"
         transform="matrix(-0.4,0,0,-0.4,-4,0)"
         style="stroke:#00274f;stroke-width:1pt;fill:#00274f;fill-rule:evenodd"
         d="M 0,0 5,-5 -12.5,0 5,5 0,0 z"
         id="path18225" />
    </marker>
    <marker
       style="overflow:visible"
       id="Arrow1MendH"
       refX="0"
       refY="0"
       orient="auto"
       inkscape:stockid="Arrow1MendH">
      <path
         inkscape:connector-curvature="0"
         transform="matrix(-0.4,0,0,-0.4,-4,0)"
         style="stroke:#00274f;stroke-width:1pt;fill:#00274f;fill-rule:evenodd"
         d="M 0,0 5,-5 -12.5,0 5,5 0,0 z"
         id="path18228" />
    </marker>
    <marker
       style="overflow:visible"
       id="Arrow1Mend3"
       refX="0"
       refY="0"
       orient="auto"
       inkscape:stockid="Arrow1Mend3">
      <path
         inkscape:connector-curvature="0"
         transform="matrix(-0.4,0,0,-0.4,-4,0)"
         style="stroke:#00274f;stroke-width:1pt;fill:#00274f;fill-rule:evenodd"
         d="M 0,0 5,-5 -12.5,0 5,5 0,0 z"
         id="path18231" />
    </marker>
    <marker
       style="overflow:visible"
       id="Arrow1Mendi3"
       refX="0"
       refY="0"
       orient="auto"
       inkscape:stockid="Arrow1Mendi3">
      <path
         inkscape:connector-curvature="0"
         transform="matrix(-0.4,0,0,-0.4,-4,0)"
         style="fill-rule:evenodd;stroke:#ffffff;stroke-width:1pt;fill:#ffffff"
         d="M 0,0 5,-5 -12.5,0 5,5 0,0 z"
         id="path4161" />
    </marker>
    <marker
       style="overflow:visible"
       id="Arrow1MendHX"
       refX="0"
       refY="0"
       orient="auto"
       inkscape:stockid="Arrow1MendHX">
      <path
         inkscape:connector-curvature="0"
         transform="matrix(-0.4,0,0,-0.4,-4,0)"
         style="fill-rule:evenodd;stroke:#ffffff;stroke-width:1pt;fill:#ffffff"
         d="M 0,0 5,-5 -12.5,0 5,5 0,0 z"
         id="path4164" />
    </marker>
    <marker
       style="overflow:visible"
       id="Arrow1Mend3K"
       refX="0"
       refY="0"
       orient="auto"
       inkscape:stockid="Arrow1Mend3K">
      <path
         inkscape:connector-curvature="0"
         transform="matrix(-0.4,0,0,-0.4,-4,0)"
         style="fill-rule:evenodd;stroke:#ffffff;stroke-width:1pt;fill:#ffffff"
         d="M 0,0 5,-5 -12.5,0 5,5 0,0 z"
         id="path4167" />
    </marker>
  </defs>
  <metadata
     id="metadata7401">
    <rdf:RDF>
      <cc:Work
         rdf:about="">
        <dc:format>image/svg+xml</dc:format>
        <dc:type
           rdf:resource="http://purl.org/dc/dcmitype/StillImage" />
        <dc:title></dc:title>
      </cc:Work>
    </rdf:RDF>
  </metadata>
  <g
     transform="translate(0,-827.35975)"
     inkscape:label="Layer 1"
     inkscape:groupmode="layer"
     id="layer1">
    <g
       transform="matrix(1.7373373,0,0,1.7373373,-500.24552,16.71978)"
       id="g9594"
       style="fill:#ffffff">
      <path
         inkscape:connector-curvature="0"
         id="path482-4"
         style="stroke-linejoin:round;marker-end:url(#Arrow1Mend3K);stroke-opacity:0;stroke:#ffffff;stroke-linecap:butt;stroke-miterlimit:4;stroke-dasharray:none;stroke-width:0.83499997999999986;fill:#ffffff"
         d="m 343.02501,525.38985 40.45491,-23.38996" />
      <path
         inkscape:connector-curvature="0"
         id="path490-4"
         style="stroke-linejoin:round;marker-end:url(#Arrow1Mendi3);stroke-opacity:0;stroke:#ffffff;stroke-linecap:butt;stroke-miterlimit:4;stroke-dasharray:none;stroke-width:0.83499997999999986;fill:#ffffff"
         d="M 343.10847,525.39568 342.9595,571.9437" />
      <path
         inkscape:connector-curvature="0"
         id="path498-5"
         style="stroke-linejoin:round;marker-end:url(#Arrow1MendHX);stroke-opacity:0;stroke:#ffffff;stroke-linecap:butt;stroke-miterlimit:4;stroke-dasharray:none;stroke-width:0.83499997999999986;fill:#ffffff"
         d="m 343.02501,525.38985 -40.25719,-23.2425" />
      <g
         style="stroke-width:0.49505072999999999;stroke-miterlimit:4;stroke-dasharray:none;fill:#ffffff"
         transform="matrix(1.3410861,0,0,1.3410861,326.62745,-879.08257)"
         id="g10631" />
      <g
         style="stroke:#00274f;stroke-opacity:1;fill:#ffffff;fill-opacity:1"
         transform="translate(160.17678,364.44195)"
         ns0:text="$\\vec{e}_{1y}$"
         ns0:preamble="/home/true/Repositories/thesis/thesis/lib/preamble.tex"
         id="g12163">
        <defs
           id="defs12165">
          <g
             id="g12167">
            <symbol
               style="overflow:visible"
               overflow="visible"
               id="textext-384e0768-0">
              <path
                 inkscape:connector-curvature="0"
                 style="stroke:none"
                 d="m 4.609375,-2.171875 c 0.21875,0 0.3125,0 0.3125,-0.265625 0,-0.3125 -0.0625,-1.046875 -0.5625,-1.546875 C 4,-4.34375 3.46875,-4.515625 2.78125,-4.515625 c -1.59375,0 -2.46875,1.03125 -2.46875,2.265625 0,1.34375 1,2.3125 2.609375,2.3125 1.578125,0 2,-1.0625 2,-1.234375 0,-0.171875 -0.1875,-0.171875 -0.234375,-0.171875 -0.171875,0 -0.1875,0.046875 -0.25,0.203125 -0.203125,0.484375 -0.78125,0.796875 -1.421875,0.796875 -1.40625,0 -1.421875,-1.328125 -1.421875,-1.828125 z M 1.59375,-2.5 C 1.609375,-2.890625 1.625,-3.3125 1.828125,-3.640625 2.09375,-4.03125 2.5,-4.15625 2.78125,-4.15625 c 1.171875,0 1.1875,1.3125 1.203125,1.65625 z m 0,0"
                 id="path12170" />
            </symbol>
            <symbol
               style="overflow:visible"
               overflow="visible"
               id="textext-384e0768-1">
              <path
                 inkscape:connector-curvature="0"
                 style="stroke:none"
                 d="m 2.328125,-4.4375 c 0,-0.1875 0,-0.1875 -0.203125,-0.1875 -0.453125,0.4375 -1.078125,0.4375 -1.359375,0.4375 l 0,0.25 c 0.15625,0 0.625,0 1,-0.1875 l 0,3.546875 c 0,0.234375 0,0.328125 -0.6875,0.328125 l -0.265625,0 0,0.25 c 0.125,0 0.984375,-0.03125 1.234375,-0.03125 0.21875,0 1.09375,0.03125 1.25,0.03125 l 0,-0.25 -0.265625,0 c -0.703125,0 -0.703125,-0.09375 -0.703125,-0.328125 z m 0,0"
                 id="path12173" />
            </symbol>
            <symbol
               style="overflow:visible"
               overflow="visible"
               id="textext-384e0768-2">
              <path
                 inkscape:connector-curvature="0"
                 style="stroke:none"
                 d="M 3.875,-2.625 C 3.90625,-2.71875 3.90625,-2.734375 3.90625,-2.78125 3.90625,-2.921875 3.796875,-3 3.671875,-3 3.59375,-3 3.46875,-2.96875 3.390625,-2.84375 3.359375,-2.796875 3.3125,-2.578125 3.28125,-2.4375 L 3.125,-1.859375 c -0.03125,0.171875 -0.25,1.046875 -0.28125,1.125 0,0 -0.3125,0.609375 -0.84375,0.609375 -0.484375,0 -0.484375,-0.453125 -0.484375,-0.578125 0,-0.375 0.15625,-0.8125 0.375,-1.359375 C 1.96875,-2.28125 2,-2.359375 2,-2.484375 2,-2.8125 1.71875,-3.078125 1.34375,-3.078125 0.640625,-3.078125 0.328125,-2.125 0.328125,-2 c 0,0.078125 0.09375,0.078125 0.125,0.078125 0.09375,0 0.09375,-0.03125 0.125,-0.109375 C 0.75,-2.609375 1.046875,-2.875 1.328125,-2.875 1.4375,-2.875 1.5,-2.796875 1.5,-2.640625 c 0,0.171875 -0.0625,0.3125 -0.09375,0.40625 C 1.0625,-1.375 1,-1.125 1,-0.8125 1,-0.703125 1,-0.375 1.265625,-0.140625 1.484375,0.03125 1.78125,0.0625 1.96875,0.0625 2.25,0.0625 2.5,-0.03125 2.71875,-0.25 2.640625,0.140625 2.5625,0.4375 2.265625,0.78125 2.078125,1 1.796875,1.21875 1.421875,1.21875 c -0.046875,0 -0.375,0 -0.515625,-0.21875 0.375,-0.046875 0.375,-0.375 0.375,-0.390625 0,-0.21875 -0.203125,-0.265625 -0.265625,-0.265625 -0.171875,0 -0.40625,0.140625 -0.40625,0.46875 0,0.34375 0.328125,0.609375 0.828125,0.609375 C 2.140625,1.421875 3,0.875 3.21875,0 z m 0,0"
                 id="path12176" />
            </symbol>
          </g>
        </defs>
        <g
           style="stroke:#00274f;stroke-opacity:1;fill:#ffffff;fill-opacity:1"
           id="textext-384e0768-3">
          <g
             style="fill:#ffffff;fill-opacity:1;stroke:#00274f;stroke-opacity:1"
             id="g12179">
            <use
               style="stroke:#00274f;stroke-opacity:1;fill:#ffffff;fill-opacity:1"
               height="1052.3622"
               width="744.09448"
               xlink:href="#textext-384e0768-0"
               x="223.43201"
               y="134.765"
               id="use12181" />
          </g>
          <g
             style="fill:#ffffff;fill-opacity:1;stroke:#00274f;stroke-opacity:1"
             id="g12183">
            <use
               style="stroke:#00274f;stroke-opacity:1;fill:#ffffff;fill-opacity:1"
               height="1052.3622"
               width="744.09448"
               xlink:href="#textext-384e0768-1"
               x="228.683"
               y="136.259"
               id="use12185" />
          </g>
          <g
             style="fill:#ffffff;fill-opacity:1;stroke:#00274f;stroke-opacity:1"
             id="g12187">
            <use
               style="stroke:#00274f;stroke-opacity:1;fill:#ffffff;fill-opacity:1"
               height="1052.3622"
               width="744.09448"
               xlink:href="#textext-384e0768-2"
               x="232.65401"
               y="136.259"
               id="use12189" />
          </g>
        </g>
      </g>
      <g
         style="fill:#ffffff;fill-opacity:1;stroke:#00274f;stroke-opacity:1"
         id="g12610"
         transform="translate(66.050634,364.37868)"
         ns0:preamble="/home/true/Repositories/thesis/thesis/lib/preamble.tex"
         ns0:text="$\\vec{e}_{1z}$">
        <defs
           id="defs12612">
          <g
             id="g12614">
            <symbol
               style="overflow:visible"
               id="textext-dccc9730-0"
               overflow="visible">
              <path
                 inkscape:connector-curvature="0"
                 id="path12617"
                 d="m 4.609375,-2.171875 c 0.21875,0 0.3125,0 0.3125,-0.265625 0,-0.3125 -0.0625,-1.046875 -0.5625,-1.546875 C 4,-4.34375 3.46875,-4.515625 2.78125,-4.515625 c -1.59375,0 -2.46875,1.03125 -2.46875,2.265625 0,1.34375 1,2.3125 2.609375,2.3125 1.578125,0 2,-1.0625 2,-1.234375 0,-0.171875 -0.1875,-0.171875 -0.234375,-0.171875 -0.171875,0 -0.1875,0.046875 -0.25,0.203125 -0.203125,0.484375 -0.78125,0.796875 -1.421875,0.796875 -1.40625,0 -1.421875,-1.328125 -1.421875,-1.828125 z M 1.59375,-2.5 C 1.609375,-2.890625 1.625,-3.3125 1.828125,-3.640625 2.09375,-4.03125 2.5,-4.15625 2.78125,-4.15625 c 1.171875,0 1.1875,1.3125 1.203125,1.65625 z m 0,0"
                 style="stroke:none" />
            </symbol>
            <symbol
               style="overflow:visible"
               id="textext-dccc9730-1"
               overflow="visible">
              <path
                 inkscape:connector-curvature="0"
                 id="path12620"
                 d="m 2.328125,-4.4375 c 0,-0.1875 0,-0.1875 -0.203125,-0.1875 -0.453125,0.4375 -1.078125,0.4375 -1.359375,0.4375 l 0,0.25 c 0.15625,0 0.625,0 1,-0.1875 l 0,3.546875 c 0,0.234375 0,0.328125 -0.6875,0.328125 l -0.265625,0 0,0.25 c 0.125,0 0.984375,-0.03125 1.234375,-0.03125 0.21875,0 1.09375,0.03125 1.25,0.03125 l 0,-0.25 -0.265625,0 c -0.703125,0 -0.703125,-0.09375 -0.703125,-0.328125 z m 0,0"
                 style="stroke:none" />
            </symbol>
            <symbol
               style="overflow:visible"
               id="textext-dccc9730-2"
               overflow="visible">
              <path
                 inkscape:connector-curvature="0"
                 id="path12623"
                 d="m 1.171875,-0.609375 c 0.1875,-0.1875 0.3125,-0.3125 0.890625,-0.796875 0.15625,-0.109375 0.671875,-0.53125 0.875,-0.71875 0.421875,-0.421875 0.6875,-0.78125 0.6875,-0.859375 0,-0.09375 -0.078125,-0.09375 -0.109375,-0.09375 -0.0625,0 -0.09375,0.015625 -0.125,0.078125 -0.21875,0.3125 -0.359375,0.421875 -0.53125,0.421875 -0.078125,0 -0.1875,0 -0.390625,-0.203125 -0.234375,-0.25 -0.390625,-0.296875 -0.546875,-0.296875 -0.5625,0 -0.9375,0.609375 -0.9375,0.8125 0,0.078125 0.0625,0.09375 0.109375,0.09375 0.09375,0 0.109375,-0.015625 0.125,-0.09375 0.109375,-0.25 0.5,-0.265625 0.609375,-0.265625 0.171875,0 0.34375,0.046875 0.4375,0.0625 0.390625,0.078125 0.4375,0.078125 0.609375,0.078125 -0.171875,0.203125 -0.296875,0.328125 -0.96875,0.84375 -0.546875,0.4375 -0.734375,0.609375 -0.859375,0.75 -0.421875,0.40625 -0.625,0.71875 -0.625,0.78125 0,0.078125 0.09375,0.078125 0.125,0.078125 0.0625,0 0.078125,0 0.109375,-0.0625 0.1875,-0.265625 0.40625,-0.421875 0.640625,-0.421875 0.09375,0 0.1875,0 0.375,0.171875 0.21875,0.21875 0.359375,0.3125 0.59375,0.3125 C 3,0.0625 3.46875,-0.78125 3.46875,-1.015625 3.46875,-1.09375 3.390625,-1.09375 3.359375,-1.09375 3.265625,-1.09375 3.25,-1.0625 3.21875,-0.984375 3.09375,-0.640625 2.6875,-0.46875 2.34375,-0.46875 2.1875,-0.46875 2,-0.515625 1.828125,-0.546875 1.515625,-0.625 1.453125,-0.625 1.328125,-0.625 c -0.015625,0 -0.109375,0 -0.15625,0.015625 z m 0,0"
                 style="stroke:none" />
            </symbol>
          </g>
        </defs>
        <g
           style="fill:#ffffff;fill-opacity:1;stroke:#00274f;stroke-opacity:1"
           id="textext-dccc9730-3">
          <g
             id="g12626"
             style="fill:#ffffff;fill-opacity:1;stroke:#00274f;stroke-opacity:1">
            <use
               style="fill:#ffffff;fill-opacity:1;stroke:#00274f;stroke-opacity:1"
               height="1052.3622"
               width="744.09448"
               id="use12628"
               y="134.765"
               x="223.43201"
               xlink:href="#textext-dccc9730-0" />
          </g>
          <g
             id="g12630"
             style="fill:#ffffff;fill-opacity:1;stroke:#00274f;stroke-opacity:1">
            <use
               style="fill:#ffffff;fill-opacity:1;stroke:#00274f;stroke-opacity:1"
               height="1052.3622"
               width="744.09448"
               id="use12632"
               y="136.259"
               x="228.683"
               xlink:href="#textext-dccc9730-1" />
          </g>
          <g
             id="g12634"
             style="fill:#ffffff;fill-opacity:1;stroke:#00274f;stroke-opacity:1">
            <use
               style="fill:#ffffff;fill-opacity:1;stroke:#00274f;stroke-opacity:1"
               height="1052.3622"
               width="744.09448"
               id="use12636"
               y="136.259"
               x="232.65401"
               xlink:href="#textext-dccc9730-2" />
          </g>
        </g>
      </g>
      <g
         style="stroke:#00274f;stroke-opacity:1;fill:#ffffff;fill-opacity:1"
         ns0:text="$\\vec{e}_{1x}$"
         ns0:preamble="/home/true/Repositories/thesis/thesis/lib/preamble.tex"
         transform="translate(113.38658,444.43641)"
         id="g13050">
        <defs
           id="defs13052">
          <g
             id="g13054">
            <symbol
               style="overflow:visible"
               overflow="visible"
               id="textext-3dfcc35e-0">
              <path
                 inkscape:connector-curvature="0"
                 style="stroke:none"
                 d="m 4.609375,-2.171875 c 0.21875,0 0.3125,0 0.3125,-0.265625 0,-0.3125 -0.0625,-1.046875 -0.5625,-1.546875 C 4,-4.34375 3.46875,-4.515625 2.78125,-4.515625 c -1.59375,0 -2.46875,1.03125 -2.46875,2.265625 0,1.34375 1,2.3125 2.609375,2.3125 1.578125,0 2,-1.0625 2,-1.234375 0,-0.171875 -0.1875,-0.171875 -0.234375,-0.171875 -0.171875,0 -0.1875,0.046875 -0.25,0.203125 -0.203125,0.484375 -0.78125,0.796875 -1.421875,0.796875 -1.40625,0 -1.421875,-1.328125 -1.421875,-1.828125 z M 1.59375,-2.5 C 1.609375,-2.890625 1.625,-3.3125 1.828125,-3.640625 2.09375,-4.03125 2.5,-4.15625 2.78125,-4.15625 c 1.171875,0 1.1875,1.3125 1.203125,1.65625 z m 0,0"
                 id="path13057" />
            </symbol>
            <symbol
               style="overflow:visible"
               overflow="visible"
               id="textext-3dfcc35e-1">
              <path
                 inkscape:connector-curvature="0"
                 style="stroke:none"
                 d="m 2.328125,-4.4375 c 0,-0.1875 0,-0.1875 -0.203125,-0.1875 -0.453125,0.4375 -1.078125,0.4375 -1.359375,0.4375 l 0,0.25 c 0.15625,0 0.625,0 1,-0.1875 l 0,3.546875 c 0,0.234375 0,0.328125 -0.6875,0.328125 l -0.265625,0 0,0.25 c 0.125,0 0.984375,-0.03125 1.234375,-0.03125 0.21875,0 1.09375,0.03125 1.25,0.03125 l 0,-0.25 -0.265625,0 c -0.703125,0 -0.703125,-0.09375 -0.703125,-0.328125 z m 0,0"
                 id="path13060" />
            </symbol>
            <symbol
               style="overflow:visible"
               overflow="visible"
               id="textext-3dfcc35e-2">
              <path
                 inkscape:connector-curvature="0"
                 style="stroke:none"
                 d="M 1.734375,-0.734375 C 1.671875,-0.5 1.4375,-0.125 1.078125,-0.125 c -0.015625,0 -0.234375,0 -0.375,-0.09375 0.28125,-0.09375 0.3125,-0.34375 0.3125,-0.390625 0,-0.15625 -0.125,-0.25 -0.28125,-0.25 -0.203125,0 -0.40625,0.15625 -0.40625,0.421875 0,0.34375 0.390625,0.5 0.734375,0.5 0.328125,0 0.609375,-0.1875 0.78125,-0.484375 C 2.015625,-0.0625 2.390625,0.0625 2.671875,0.0625 c 0.8125,0 1.234375,-0.859375 1.234375,-1.0625 0,-0.09375 -0.09375,-0.09375 -0.109375,-0.09375 -0.109375,0 -0.109375,0.046875 -0.140625,0.125 -0.140625,0.484375 -0.5625,0.84375 -0.953125,0.84375 -0.28125,0 -0.421875,-0.1875 -0.421875,-0.453125 0,-0.1875 0.171875,-0.8125 0.359375,-1.59375 C 2.78125,-2.703125 3.09375,-2.875 3.328125,-2.875 c 0.015625,0 0.21875,0 0.375,0.09375 -0.21875,0.0625 -0.3125,0.265625 -0.3125,0.390625 0,0.140625 0.125,0.25 0.28125,0.25 0.15625,0 0.390625,-0.125 0.390625,-0.421875 0,-0.390625 -0.453125,-0.515625 -0.71875,-0.515625 -0.359375,0 -0.640625,0.234375 -0.78125,0.5 -0.125,-0.28125 -0.453125,-0.5 -0.84375,-0.5 C 0.9375,-3.078125 0.5,-2.21875 0.5,-2 c 0,0.078125 0.09375,0.078125 0.109375,0.078125 0.09375,0 0.09375,-0.015625 0.140625,-0.109375 C 0.921875,-2.578125 1.359375,-2.875 1.703125,-2.875 1.9375,-2.875 2.125,-2.75 2.125,-2.421875 2.125,-2.28125 2.03125,-1.9375 1.96875,-1.6875 z m 0,0"
                 id="path13063" />
            </symbol>
          </g>
        </defs>
        <g
           style="stroke:#00274f;stroke-opacity:1;fill:#ffffff;fill-opacity:1"
           id="textext-3dfcc35e-3">
          <g
             style="fill:#ffffff;fill-opacity:1;stroke:#00274f;stroke-opacity:1"
             id="g13066">
            <use
               style="stroke:#00274f;stroke-opacity:1;fill:#ffffff;fill-opacity:1"
               height="1052.3622"
               width="744.09448"
               xlink:href="#textext-3dfcc35e-0"
               x="223.43201"
               y="134.765"
               id="use13068" />
          </g>
          <g
             style="fill:#ffffff;fill-opacity:1;stroke:#00274f;stroke-opacity:1"
             id="g13070">
            <use
               style="stroke:#00274f;stroke-opacity:1;fill:#ffffff;fill-opacity:1"
               height="1052.3622"
               width="744.09448"
               xlink:href="#textext-3dfcc35e-1"
               x="228.683"
               y="136.259"
               id="use13072" />
          </g>
          <g
             style="fill:#ffffff;fill-opacity:1;stroke:#00274f;stroke-opacity:1"
             id="g13074">
            <use
               style="stroke:#00274f;stroke-opacity:1;fill:#ffffff;fill-opacity:1"
               height="1052.3622"
               width="744.09448"
               xlink:href="#textext-3dfcc35e-2"
               x="232.65401"
               y="136.259"
               id="use13076" />
          </g>
        </g>
      </g>
    </g>
    <path
       d="m 95.824987,929.22499 70.333933,40.54948"
       style="fill:none;stroke:#000000;stroke-width:1.45067656;stroke-linecap:butt;stroke-linejoin:round;stroke-miterlimit:4;stroke-opacity:1;stroke-dasharray:none;marker-end:url(#Arrow1Mend)"
       id="path482"
       inkscape:connector-curvature="0" />
    <path
       d="m 95.888713,929.35564 -70.164538,40.2107"
       style="fill:none;stroke:#000000;stroke-width:1.45067656;stroke-linecap:butt;stroke-linejoin:round;stroke-miterlimit:4;stroke-opacity:1;stroke-dasharray:none;marker-end:url(#Arrow1Mend)"
       id="path490"
       inkscape:connector-curvature="0" />
    <path
       d="m 95.824987,929.22499 0,-80.76012"
       style="fill:none;stroke:#000000;stroke-width:1.45067656;stroke-linecap:butt;stroke-linejoin:round;stroke-miterlimit:4;stroke-opacity:1;stroke-dasharray:none;marker-end:url(#Arrow1Mend)"
       id="path498"
       inkscape:connector-curvature="0" />
    <g
       ns0:text="$\\vec{e}_{x1}$"
       ns0:preamble="/home/true/Repositories/thesis/thesis/lib/preamble.tex"
       transform="matrix(1.7373373,0,0,1.7373373,-382.96574,743.86432)"
       id="g8920">
      <defs
         id="defs8922">
        <g
           id="g8924">
          <symbol
             style="overflow:visible"
             overflow="visible"
             id="textext-9860d93d-0">
            <path
               inkscape:connector-curvature="0"
               style="stroke:none"
               d="m 4.609375,-2.171875 c 0.21875,0 0.3125,0 0.3125,-0.265625 0,-0.3125 -0.0625,-1.046875 -0.5625,-1.546875 C 4,-4.34375 3.46875,-4.515625 2.78125,-4.515625 c -1.59375,0 -2.46875,1.03125 -2.46875,2.265625 0,1.34375 1,2.3125 2.609375,2.3125 1.578125,0 2,-1.0625 2,-1.234375 0,-0.171875 -0.1875,-0.171875 -0.234375,-0.171875 -0.171875,0 -0.1875,0.046875 -0.25,0.203125 -0.203125,0.484375 -0.78125,0.796875 -1.421875,0.796875 -1.40625,0 -1.421875,-1.328125 -1.421875,-1.828125 z M 1.59375,-2.5 C 1.609375,-2.890625 1.625,-3.3125 1.828125,-3.640625 2.09375,-4.03125 2.5,-4.15625 2.78125,-4.15625 c 1.171875,0 1.1875,1.3125 1.203125,1.65625 z m 0,0"
               id="path8927" />
          </symbol>
          <symbol
             style="overflow:visible"
             overflow="visible"
             id="textext-9860d93d-1">
            <path
               inkscape:connector-curvature="0"
               style="stroke:none"
               d="M 1.734375,-0.734375 C 1.671875,-0.5 1.4375,-0.125 1.078125,-0.125 c -0.015625,0 -0.234375,0 -0.375,-0.09375 0.28125,-0.09375 0.3125,-0.34375 0.3125,-0.390625 0,-0.15625 -0.125,-0.25 -0.28125,-0.25 -0.203125,0 -0.40625,0.15625 -0.40625,0.421875 0,0.34375 0.390625,0.5 0.734375,0.5 0.328125,0 0.609375,-0.1875 0.78125,-0.484375 C 2.015625,-0.0625 2.390625,0.0625 2.671875,0.0625 c 0.8125,0 1.234375,-0.859375 1.234375,-1.0625 0,-0.09375 -0.09375,-0.09375 -0.109375,-0.09375 -0.109375,0 -0.109375,0.046875 -0.140625,0.125 -0.140625,0.484375 -0.5625,0.84375 -0.953125,0.84375 -0.28125,0 -0.421875,-0.1875 -0.421875,-0.453125 0,-0.1875 0.171875,-0.8125 0.359375,-1.59375 C 2.78125,-2.703125 3.09375,-2.875 3.328125,-2.875 c 0.015625,0 0.21875,0 0.375,0.09375 -0.21875,0.0625 -0.3125,0.265625 -0.3125,0.390625 0,0.140625 0.125,0.25 0.28125,0.25 0.15625,0 0.390625,-0.125 0.390625,-0.421875 0,-0.390625 -0.453125,-0.515625 -0.71875,-0.515625 -0.359375,0 -0.640625,0.234375 -0.78125,0.5 -0.125,-0.28125 -0.453125,-0.5 -0.84375,-0.5 C 0.9375,-3.078125 0.5,-2.21875 0.5,-2 c 0,0.078125 0.09375,0.078125 0.109375,0.078125 0.09375,0 0.09375,-0.015625 0.140625,-0.109375 C 0.921875,-2.578125 1.359375,-2.875 1.703125,-2.875 1.9375,-2.875 2.125,-2.75 2.125,-2.421875 2.125,-2.28125 2.03125,-1.9375 1.96875,-1.6875 z m 0,0"
               id="path8930" />
          </symbol>
          <symbol
             style="overflow:visible"
             overflow="visible"
             id="textext-9860d93d-2">
            <path
               inkscape:connector-curvature="0"
               style="stroke:none"
               d="m 2.328125,-4.4375 c 0,-0.1875 0,-0.1875 -0.203125,-0.1875 -0.453125,0.4375 -1.078125,0.4375 -1.359375,0.4375 l 0,0.25 c 0.15625,0 0.625,0 1,-0.1875 l 0,3.546875 c 0,0.234375 0,0.328125 -0.6875,0.328125 l -0.265625,0 0,0.25 c 0.125,0 0.984375,-0.03125 1.234375,-0.03125 0.21875,0 1.09375,0.03125 1.25,0.03125 l 0,-0.25 -0.265625,0 c -0.703125,0 -0.703125,-0.09375 -0.703125,-0.328125 z m 0,0"
               id="path8933" />
          </symbol>
        </g>
      </defs>
      <g
         id="textext-9860d93d-3">
        <g
           style="fill:#000000;fill-opacity:1"
           id="g8936">
          <use
             height="1052.3622"
             width="744.09448"
             xlink:href="#textext-9860d93d-0"
             x="223.43201"
             y="134.765"
             id="use8938" />
        </g>
        <g
           style="fill:#000000;fill-opacity:1"
           id="g8940">
          <use
             height="1052.3622"
             width="744.09448"
             xlink:href="#textext-9860d93d-1"
             x="228.683"
             y="136.259"
             id="use8942" />
        </g>
        <g
           style="fill:#000000;fill-opacity:1"
           id="g8944">
          <use
             height="1052.3622"
             width="744.09448"
             xlink:href="#textext-9860d93d-2"
             x="233.201"
             y="136.259"
             id="use8946" />
        </g>
      </g>
    </g>
    <g
       id="g9103"
       transform="matrix(1.7373373,0,0,1.7373373,-218.8351,742.96351)"
       ns0:preamble="/home/true/Repositories/thesis/thesis/lib/preamble.tex"
       ns0:text="$\\vec{e}_{y1}$">
      <defs
         id="defs9105">
        <g
           id="g9107">
          <symbol
             style="overflow:visible"
             id="textext-a2a1d715-0"
             overflow="visible">
            <path
               inkscape:connector-curvature="0"
               id="path9110"
               d="m 4.609375,-2.171875 c 0.21875,0 0.3125,0 0.3125,-0.265625 0,-0.3125 -0.0625,-1.046875 -0.5625,-1.546875 C 4,-4.34375 3.46875,-4.515625 2.78125,-4.515625 c -1.59375,0 -2.46875,1.03125 -2.46875,2.265625 0,1.34375 1,2.3125 2.609375,2.3125 1.578125,0 2,-1.0625 2,-1.234375 0,-0.171875 -0.1875,-0.171875 -0.234375,-0.171875 -0.171875,0 -0.1875,0.046875 -0.25,0.203125 -0.203125,0.484375 -0.78125,0.796875 -1.421875,0.796875 -1.40625,0 -1.421875,-1.328125 -1.421875,-1.828125 z M 1.59375,-2.5 C 1.609375,-2.890625 1.625,-3.3125 1.828125,-3.640625 2.09375,-4.03125 2.5,-4.15625 2.78125,-4.15625 c 1.171875,0 1.1875,1.3125 1.203125,1.65625 z m 0,0"
               style="stroke:none" />
          </symbol>
          <symbol
             style="overflow:visible"
             id="textext-a2a1d715-1"
             overflow="visible">
            <path
               inkscape:connector-curvature="0"
               id="path9113"
               d="M 3.875,-2.625 C 3.90625,-2.71875 3.90625,-2.734375 3.90625,-2.78125 3.90625,-2.921875 3.796875,-3 3.671875,-3 3.59375,-3 3.46875,-2.96875 3.390625,-2.84375 3.359375,-2.796875 3.3125,-2.578125 3.28125,-2.4375 L 3.125,-1.859375 c -0.03125,0.171875 -0.25,1.046875 -0.28125,1.125 0,0 -0.3125,0.609375 -0.84375,0.609375 -0.484375,0 -0.484375,-0.453125 -0.484375,-0.578125 0,-0.375 0.15625,-0.8125 0.375,-1.359375 C 1.96875,-2.28125 2,-2.359375 2,-2.484375 2,-2.8125 1.71875,-3.078125 1.34375,-3.078125 0.640625,-3.078125 0.328125,-2.125 0.328125,-2 c 0,0.078125 0.09375,0.078125 0.125,0.078125 0.09375,0 0.09375,-0.03125 0.125,-0.109375 C 0.75,-2.609375 1.046875,-2.875 1.328125,-2.875 1.4375,-2.875 1.5,-2.796875 1.5,-2.640625 c 0,0.171875 -0.0625,0.3125 -0.09375,0.40625 C 1.0625,-1.375 1,-1.125 1,-0.8125 1,-0.703125 1,-0.375 1.265625,-0.140625 1.484375,0.03125 1.78125,0.0625 1.96875,0.0625 2.25,0.0625 2.5,-0.03125 2.71875,-0.25 2.640625,0.140625 2.5625,0.4375 2.265625,0.78125 2.078125,1 1.796875,1.21875 1.421875,1.21875 c -0.046875,0 -0.375,0 -0.515625,-0.21875 0.375,-0.046875 0.375,-0.375 0.375,-0.390625 0,-0.21875 -0.203125,-0.265625 -0.265625,-0.265625 -0.171875,0 -0.40625,0.140625 -0.40625,0.46875 0,0.34375 0.328125,0.609375 0.828125,0.609375 C 2.140625,1.421875 3,0.875 3.21875,0 z m 0,0"
               style="stroke:none" />
          </symbol>
          <symbol
             style="overflow:visible"
             id="textext-a2a1d715-2"
             overflow="visible">
            <path
               inkscape:connector-curvature="0"
               id="path9116"
               d="m 2.328125,-4.4375 c 0,-0.1875 0,-0.1875 -0.203125,-0.1875 -0.453125,0.4375 -1.078125,0.4375 -1.359375,0.4375 l 0,0.25 c 0.15625,0 0.625,0 1,-0.1875 l 0,3.546875 c 0,0.234375 0,0.328125 -0.6875,0.328125 l -0.265625,0 0,0.25 c 0.125,0 0.984375,-0.03125 1.234375,-0.03125 0.21875,0 1.09375,0.03125 1.25,0.03125 l 0,-0.25 -0.265625,0 c -0.703125,0 -0.703125,-0.09375 -0.703125,-0.328125 z m 0,0"
               style="stroke:none" />
          </symbol>
        </g>
      </defs>
      <g
         id="textext-a2a1d715-3">
        <g
           id="g9119"
           style="fill:#000000;fill-opacity:1">
          <use
             height="1052.3622"
             width="744.09448"
             id="use9121"
             y="134.765"
             x="223.43201"
             xlink:href="#textext-a2a1d715-0" />
        </g>
        <g
           id="g9123"
           style="fill:#000000;fill-opacity:1">
          <use
             height="1052.3622"
             width="744.09448"
             id="use9125"
             y="136.259"
             x="228.683"
             xlink:href="#textext-a2a1d715-1" />
        </g>
        <g
           id="g9127"
           style="fill:#000000;fill-opacity:1">
          <use
             height="1052.3622"
             width="744.09448"
             id="use9129"
             y="136.259"
             x="232.974"
             xlink:href="#textext-a2a1d715-2" />
        </g>
      </g>
    </g>
    <g
       ns0:text="$\\vec{e}_{z1}$"
       ns0:preamble="/home/true/Repositories/thesis/thesis/lib/preamble.tex"
       transform="matrix(1.7373373,0,0,1.7373373,-303.93832,603.92983)"
       id="g9292">
      <defs
         id="defs9294">
        <g
           id="g9296">
          <symbol
             style="overflow:visible"
             overflow="visible"
             id="textext-3916aeb9-0">
            <path
               inkscape:connector-curvature="0"
               style="stroke:none"
               d="m 4.609375,-2.171875 c 0.21875,0 0.3125,0 0.3125,-0.265625 0,-0.3125 -0.0625,-1.046875 -0.5625,-1.546875 C 4,-4.34375 3.46875,-4.515625 2.78125,-4.515625 c -1.59375,0 -2.46875,1.03125 -2.46875,2.265625 0,1.34375 1,2.3125 2.609375,2.3125 1.578125,0 2,-1.0625 2,-1.234375 0,-0.171875 -0.1875,-0.171875 -0.234375,-0.171875 -0.171875,0 -0.1875,0.046875 -0.25,0.203125 -0.203125,0.484375 -0.78125,0.796875 -1.421875,0.796875 -1.40625,0 -1.421875,-1.328125 -1.421875,-1.828125 z M 1.59375,-2.5 C 1.609375,-2.890625 1.625,-3.3125 1.828125,-3.640625 2.09375,-4.03125 2.5,-4.15625 2.78125,-4.15625 c 1.171875,0 1.1875,1.3125 1.203125,1.65625 z m 0,0"
               id="path9299" />
          </symbol>
          <symbol
             style="overflow:visible"
             overflow="visible"
             id="textext-3916aeb9-1">
            <path
               inkscape:connector-curvature="0"
               style="stroke:none"
               d="m 1.171875,-0.609375 c 0.1875,-0.1875 0.3125,-0.3125 0.890625,-0.796875 0.15625,-0.109375 0.671875,-0.53125 0.875,-0.71875 0.421875,-0.421875 0.6875,-0.78125 0.6875,-0.859375 0,-0.09375 -0.078125,-0.09375 -0.109375,-0.09375 -0.0625,0 -0.09375,0.015625 -0.125,0.078125 -0.21875,0.3125 -0.359375,0.421875 -0.53125,0.421875 -0.078125,0 -0.1875,0 -0.390625,-0.203125 -0.234375,-0.25 -0.390625,-0.296875 -0.546875,-0.296875 -0.5625,0 -0.9375,0.609375 -0.9375,0.8125 0,0.078125 0.0625,0.09375 0.109375,0.09375 0.09375,0 0.109375,-0.015625 0.125,-0.09375 0.109375,-0.25 0.5,-0.265625 0.609375,-0.265625 0.171875,0 0.34375,0.046875 0.4375,0.0625 0.390625,0.078125 0.4375,0.078125 0.609375,0.078125 -0.171875,0.203125 -0.296875,0.328125 -0.96875,0.84375 -0.546875,0.4375 -0.734375,0.609375 -0.859375,0.75 -0.421875,0.40625 -0.625,0.71875 -0.625,0.78125 0,0.078125 0.09375,0.078125 0.125,0.078125 0.0625,0 0.078125,0 0.109375,-0.0625 0.1875,-0.265625 0.40625,-0.421875 0.640625,-0.421875 0.09375,0 0.1875,0 0.375,0.171875 0.21875,0.21875 0.359375,0.3125 0.59375,0.3125 C 3,0.0625 3.46875,-0.78125 3.46875,-1.015625 3.46875,-1.09375 3.390625,-1.09375 3.359375,-1.09375 3.265625,-1.09375 3.25,-1.0625 3.21875,-0.984375 3.09375,-0.640625 2.6875,-0.46875 2.34375,-0.46875 2.1875,-0.46875 2,-0.515625 1.828125,-0.546875 1.515625,-0.625 1.453125,-0.625 1.328125,-0.625 c -0.015625,0 -0.109375,0 -0.15625,0.015625 z m 0,0"
               id="path9302" />
          </symbol>
          <symbol
             style="overflow:visible"
             overflow="visible"
             id="textext-3916aeb9-2">
            <path
               inkscape:connector-curvature="0"
               style="stroke:none"
               d="m 2.328125,-4.4375 c 0,-0.1875 0,-0.1875 -0.203125,-0.1875 -0.453125,0.4375 -1.078125,0.4375 -1.359375,0.4375 l 0,0.25 c 0.15625,0 0.625,0 1,-0.1875 l 0,3.546875 c 0,0.234375 0,0.328125 -0.6875,0.328125 l -0.265625,0 0,0.25 c 0.125,0 0.984375,-0.03125 1.234375,-0.03125 0.21875,0 1.09375,0.03125 1.25,0.03125 l 0,-0.25 -0.265625,0 c -0.703125,0 -0.703125,-0.09375 -0.703125,-0.328125 z m 0,0"
               id="path9305" />
          </symbol>
        </g>
      </defs>
      <g
         id="textext-3916aeb9-3">
        <g
           style="fill:#000000;fill-opacity:1"
           id="g9308">
          <use
             height="1052.3622"
             width="744.09448"
             xlink:href="#textext-3916aeb9-0"
             x="223.43201"
             y="134.765"
             id="use9310" />
        </g>
        <g
           style="fill:#000000;fill-opacity:1"
           id="g9312">
          <use
             height="1052.3622"
             width="744.09448"
             xlink:href="#textext-3916aeb9-1"
             x="228.683"
             y="136.259"
             id="use9314" />
        </g>
        <g
           style="fill:#000000;fill-opacity:1"
           id="g9316">
          <use
             height="1052.3622"
             width="744.09448"
             xlink:href="#textext-3916aeb9-2"
             x="232.776"
             y="136.259"
             id="use9318" />
        </g>
      </g>
      <g
         transform="matrix(0.65064632,0,0,0.65064632,87.36778,64.902498)"
         id="textext-3916aeb9-3-9" />
      <g
         style="fill:#ff0000;fill-opacity:1"
         id="g16830" />
    </g>
    <g
       id="g9103-1"
       transform="translate(160.23057,362.45982)"
       ns0:preamble="/home/true/Repositories/thesis/thesis/lib/preamble.tex"
       ns0:text="$\\vec{e}_{y1}$">
      <defs
         id="defs9105-6">
        <g
           id="g9107-4">
          <symbol
             id="textext-a2a1d715-0-0"
             overflow="visible"
             style="overflow:visible">
            <path
               id="path9110-7"
               d="m 4.609375,-2.171875 c 0.21875,0 0.3125,0 0.3125,-0.265625 0,-0.3125 -0.0625,-1.046875 -0.5625,-1.546875 C 4,-4.34375 3.46875,-4.515625 2.78125,-4.515625 c -1.59375,0 -2.46875,1.03125 -2.46875,2.265625 0,1.34375 1,2.3125 2.609375,2.3125 1.578125,0 2,-1.0625 2,-1.234375 0,-0.171875 -0.1875,-0.171875 -0.234375,-0.171875 -0.171875,0 -0.1875,0.046875 -0.25,0.203125 -0.203125,0.484375 -0.78125,0.796875 -1.421875,0.796875 -1.40625,0 -1.421875,-1.328125 -1.421875,-1.828125 z M 1.59375,-2.5 C 1.609375,-2.890625 1.625,-3.3125 1.828125,-3.640625 2.09375,-4.03125 2.5,-4.15625 2.78125,-4.15625 c 1.171875,0 1.1875,1.3125 1.203125,1.65625 z m 0,0"
               style="stroke:none"
               inkscape:connector-curvature="0" />
          </symbol>
          <symbol
             id="textext-a2a1d715-1-2"
             overflow="visible"
             style="overflow:visible">
            <path
               id="path9113-1"
               d="M 3.875,-2.625 C 3.90625,-2.71875 3.90625,-2.734375 3.90625,-2.78125 3.90625,-2.921875 3.796875,-3 3.671875,-3 3.59375,-3 3.46875,-2.96875 3.390625,-2.84375 3.359375,-2.796875 3.3125,-2.578125 3.28125,-2.4375 L 3.125,-1.859375 c -0.03125,0.171875 -0.25,1.046875 -0.28125,1.125 0,0 -0.3125,0.609375 -0.84375,0.609375 -0.484375,0 -0.484375,-0.453125 -0.484375,-0.578125 0,-0.375 0.15625,-0.8125 0.375,-1.359375 C 1.96875,-2.28125 2,-2.359375 2,-2.484375 2,-2.8125 1.71875,-3.078125 1.34375,-3.078125 0.640625,-3.078125 0.328125,-2.125 0.328125,-2 c 0,0.078125 0.09375,0.078125 0.125,0.078125 0.09375,0 0.09375,-0.03125 0.125,-0.109375 C 0.75,-2.609375 1.046875,-2.875 1.328125,-2.875 1.4375,-2.875 1.5,-2.796875 1.5,-2.640625 c 0,0.171875 -0.0625,0.3125 -0.09375,0.40625 C 1.0625,-1.375 1,-1.125 1,-0.8125 1,-0.703125 1,-0.375 1.265625,-0.140625 1.484375,0.03125 1.78125,0.0625 1.96875,0.0625 2.25,0.0625 2.5,-0.03125 2.71875,-0.25 2.640625,0.140625 2.5625,0.4375 2.265625,0.78125 2.078125,1 1.796875,1.21875 1.421875,1.21875 c -0.046875,0 -0.375,0 -0.515625,-0.21875 0.375,-0.046875 0.375,-0.375 0.375,-0.390625 0,-0.21875 -0.203125,-0.265625 -0.265625,-0.265625 -0.171875,0 -0.40625,0.140625 -0.40625,0.46875 0,0.34375 0.328125,0.609375 0.828125,0.609375 C 2.140625,1.421875 3,0.875 3.21875,0 z m 0,0"
               style="stroke:none"
               inkscape:connector-curvature="0" />
          </symbol>
          <symbol
             id="textext-a2a1d715-2-7"
             overflow="visible"
             style="overflow:visible">
            <path
               id="path9116-1"
               d="m 2.328125,-4.4375 c 0,-0.1875 0,-0.1875 -0.203125,-0.1875 -0.453125,0.4375 -1.078125,0.4375 -1.359375,0.4375 l 0,0.25 c 0.15625,0 0.625,0 1,-0.1875 l 0,3.546875 c 0,0.234375 0,0.328125 -0.6875,0.328125 l -0.265625,0 0,0.25 c 0.125,0 0.984375,-0.03125 1.234375,-0.03125 0.21875,0 1.09375,0.03125 1.25,0.03125 l 0,-0.25 -0.265625,0 c -0.703125,0 -0.703125,-0.09375 -0.703125,-0.328125 z m 0,0"
               style="stroke:none"
               inkscape:connector-curvature="0" />
          </symbol>
        </g>
      </defs>
    </g>
    <g
       style="fill:none"
       id="g19124"
       transform="matrix(1.7373373,0,0,1.7373373,-341.94949,811.84009)"
       ns0:preamble="/home/true/Repositories/thesis/thesis/lib/preamble.tex"
       ns0:text="$\\algb{su}(2) \\oplus \\algb{su}(2)$">
      <defs
         id="defs19126">
        <g
           id="g19128">
          <symbol
             id="textext-911af63a-0"
             overflow="visible"
             style="overflow:visible">
            <path
               id="path19131"
               d="M 1.90625,-2.4375 C 1.859375,-2.40625 1.796875,-2.40625 1.75,-2.40625 c -0.25,0 -0.328125,-0.609375 -0.328125,-0.9375 0,-0.234375 0,-0.609375 0.203125,-0.796875 0.265625,0.25 0.796875,0.484375 1.515625,0.515625 L 4.0625,-4.390625 4,-4.5625 C 3.734375,-4.390625 3.515625,-4.25 3.28125,-4.25 3.1875,-4.25 3.09375,-4.28125 3.015625,-4.3125 L 2.21875,-4.78125 0.703125,-3.765625 c -0.0625,0.453125 -0.0625,0.9375 -0.0625,1.421875 C 0.75,-2.125 0.921875,-1.859375 1.0625,-1.671875 L 2.078125,-2.25 c 0.125,-0.078125 0.21875,-0.109375 0.359375,-0.109375 0.25,0 0.515625,0.203125 0.515625,0.96875 0,0.3125 -0.03125,1.046875 -0.265625,1.046875 -0.015625,0 -0.03125,0 -0.03125,0 L 1.84375,-0.890625 C 1.625,-1.03125 1.375,-1.109375 1.125,-1.109375 c -0.609375,0 -1.0625,0.625 -1.40625,0.984375 l 0.09375,0.09375 c 0.3125,-0.28125 0.59375,-0.4375 0.890625,-0.4375 0.40625,0 0.9375,0.4375 1.265625,0.765625 0.515625,-0.3125 1.0625,-0.5625 1.59375,-0.796875 0.125,-0.4375 0.171875,-0.890625 0.171875,-1.34375 0,-0.25 -0.015625,-0.515625 -0.03125,-0.765625 -0.171875,-0.15625 -0.34375,-0.3125 -0.5625,-0.375 z m 0,0"
               style="stroke:none"
               inkscape:connector-curvature="0" />
          </symbol>
          <symbol
             id="textext-911af63a-1"
             overflow="visible"
             style="overflow:visible">
            <path
               id="path19134"
               d="m 4.203125,-4.671875 -0.859375,0.4375 C 3.375,-3.671875 3.375,-3.15625 3.375,-2.625 c 0,0.484375 0,0.984375 -0.03125,1.484375 L 2.46875,-0.5625 1.453125,-1.03125 C 1.6875,-1.859375 1.71875,-2.6875 1.71875,-3.546875 c 0,-0.21875 -0.015625,-0.4375 -0.015625,-0.65625 C 1.5,-4.34375 1.34375,-4.53125 1.1875,-4.71875 l -1.109375,0.875 0.15625,0.09375 0.375,-0.203125 c 0.359375,0.3125 0.359375,0.875 0.359375,1.328125 0,0.71875 -0.125,1.625 -0.421875,2.140625 0.375,0.125 0.984375,0.578125 1.25,0.75 0,0 0.84375,-0.6875 1.515625,-1.140625 0.125,0.359375 0.328125,0.71875 0.515625,1.03125 L 3.90625,0.171875 C 4.296875,-0.1875 4.703125,-0.53125 5.125,-0.875 L 5.0625,-1.03125 C 4.96875,-0.984375 4.640625,-0.828125 4.53125,-0.828125 4.125,-0.828125 4.140625,-1.75 4.140625,-2.25 c 0,-0.78125 0.03125,-1.5625 0.125,-2.359375 z m 0,0"
               style="stroke:none"
               inkscape:connector-curvature="0" />
          </symbol>
          <symbol
             id="textext-911af63a-2"
             overflow="visible"
             style="overflow:visible">
            <path
               id="path19137"
               d="m 3.296875,2.390625 c 0,-0.03125 0,-0.046875 -0.171875,-0.21875 C 1.890625,0.921875 1.5625,-0.96875 1.5625,-2.5 c 0,-1.734375 0.375,-3.46875 1.609375,-4.703125 0.125,-0.125 0.125,-0.140625 0.125,-0.171875 0,-0.078125 -0.03125,-0.109375 -0.09375,-0.109375 -0.109375,0 -1,0.6875 -1.59375,1.953125 -0.5,1.09375 -0.625,2.203125 -0.625,3.03125 0,0.78125 0.109375,1.984375 0.65625,3.125 C 2.25,1.84375 3.09375,2.5 3.203125,2.5 c 0.0625,0 0.09375,-0.03125 0.09375,-0.109375 z m 0,0"
               style="stroke:none"
               inkscape:connector-curvature="0" />
          </symbol>
          <symbol
             id="textext-911af63a-3"
             overflow="visible"
             style="overflow:visible">
            <path
               id="path19140"
               d="m 1.265625,-0.765625 1.0625,-1.03125 c 1.546875,-1.375 2.140625,-1.90625 2.140625,-2.90625 0,-1.140625 -0.890625,-1.9375 -2.109375,-1.9375 -1.125,0 -1.859375,0.921875 -1.859375,1.8125 0,0.546875 0.5,0.546875 0.53125,0.546875 0.171875,0 0.515625,-0.109375 0.515625,-0.53125 0,-0.25 -0.1875,-0.515625 -0.53125,-0.515625 -0.078125,0 -0.09375,0 -0.125,0.015625 0.21875,-0.65625 0.765625,-1.015625 1.34375,-1.015625 0.90625,0 1.328125,0.8125 1.328125,1.625 C 3.5625,-3.90625 3.078125,-3.125 2.515625,-2.5 l -1.90625,2.125 C 0.5,-0.265625 0.5,-0.234375 0.5,0 l 3.703125,0 0.265625,-1.734375 -0.234375,0 C 4.171875,-1.4375 4.109375,-1 4,-0.84375 3.9375,-0.765625 3.28125,-0.765625 3.0625,-0.765625 z m 0,0"
               style="stroke:none"
               inkscape:connector-curvature="0" />
          </symbol>
          <symbol
             id="textext-911af63a-4"
             overflow="visible"
             style="overflow:visible">
            <path
               id="path19143"
               d="m 2.875,-2.5 c 0,-0.765625 -0.109375,-1.96875 -0.65625,-3.109375 -0.59375,-1.21875 -1.453125,-1.875 -1.546875,-1.875 -0.0625,0 -0.109375,0.046875 -0.109375,0.109375 0,0.03125 0,0.046875 0.1875,0.234375 0.984375,0.984375 1.546875,2.5625 1.546875,4.640625 0,1.71875 -0.359375,3.46875 -1.59375,4.71875 C 0.5625,2.34375 0.5625,2.359375 0.5625,2.390625 0.5625,2.453125 0.609375,2.5 0.671875,2.5 0.765625,2.5 1.671875,1.8125 2.25,0.546875 2.765625,-0.546875 2.875,-1.65625 2.875,-2.5 z m 0,0"
               style="stroke:none"
               inkscape:connector-curvature="0" />
          </symbol>
          <symbol
             id="textext-911af63a-5"
             overflow="visible"
             style="overflow:visible">
            <path
               id="path19146"
               d="m 7.203125,-2.5 c 0,-1.828125 -1.5,-3.3125 -3.328125,-3.3125 -1.84375,0 -3.328125,1.5 -3.328125,3.3125 0,1.84375 1.5,3.328125 3.328125,3.328125 1.84375,0 3.328125,-1.5 3.328125,-3.328125 z M 0.796875,-2.625 C 0.890625,-4.296875 2.1875,-5.484375 3.75,-5.5625 l 0,2.9375 z M 4,-5.5625 c 1.5625,0.078125 2.84375,1.28125 2.953125,2.9375 L 4,-2.625 z M 3.75,0.578125 C 2.203125,0.5 0.890625,-0.671875 0.796875,-2.375 l 2.953125,0 z M 6.953125,-2.375 C 6.84375,-0.671875 5.53125,0.5 4,0.578125 L 4,-2.375 z m 0,0"
               style="stroke:none"
               inkscape:connector-curvature="0" />
          </symbol>
        </g>
      </defs>
      <g
         style="fill:none"
         id="textext-911af63a-6">
        <g
           id="g19149"
           style="fill:none;fill-opacity:1">
          <use
             style="fill:none"
             id="use19151"
             y="134.765"
             x="223.43201"
             xlink:href="#textext-911af63a-0"
             width="198"
             height="225" />
          <use
             style="fill:none"
             id="use19153"
             y="134.765"
             x="227.84244"
             xlink:href="#textext-911af63a-1"
             width="198"
             height="225" />
        </g>
        <g
           id="g19155"
           style="fill:none;fill-opacity:1">
          <use
             style="fill:none"
             id="use19157"
             y="134.765"
             x="232.995"
             xlink:href="#textext-911af63a-2"
             width="198"
             height="225" />
          <use
             style="fill:none"
             id="use19159"
             y="134.765"
             x="236.86946"
             xlink:href="#textext-911af63a-3"
             width="198"
             height="225" />
          <use
             style="fill:none"
             id="use19161"
             y="134.765"
             x="241.85075"
             xlink:href="#textext-911af63a-4"
             width="198"
             height="225" />
        </g>
        <g
           id="g19163"
           style="fill:none;fill-opacity:1">
          <use
             style="fill:none"
             id="use19165"
             y="134.765"
             x="247.939"
             xlink:href="#textext-911af63a-5"
             width="198"
             height="225" />
        </g>
        <g
           id="g19167"
           style="fill:none;fill-opacity:1">
          <use
             style="fill:none"
             id="use19169"
             y="134.765"
             x="257.901"
             xlink:href="#textext-911af63a-0"
             width="198"
             height="225" />
          <use
             style="fill:none"
             id="use19171"
             y="134.765"
             x="262.31143"
             xlink:href="#textext-911af63a-1"
             width="198"
             height="225" />
        </g>
        <g
           id="g19173"
           style="fill:none;fill-opacity:1">
          <use
             style="fill:none"
             id="use19175"
             y="134.765"
             x="267.46399"
             xlink:href="#textext-911af63a-2"
             width="198"
             height="225" />
          <use
             style="fill:none"
             id="use19177"
             y="134.765"
             x="271.33844"
             xlink:href="#textext-911af63a-3"
             width="198"
             height="225" />
          <use
             style="fill:none"
             id="use19179"
             y="134.765"
             x="276.31976"
             xlink:href="#textext-911af63a-4"
             width="198"
             height="225" />
        </g>
      </g>
    </g>
    <g
       id="g4847"
       transform="matrix(1.7373373,0,0,1.7373373,-309.44612,811.84015)"
       ns0:preamble="/home/true/Repositories/thesis/thesis/lib/preamble.tex"
       ns0:text="$\\algb{su}(2)$">
      <defs
         id="defs4849">
        <g
           id="g4851">
          <symbol
             id="textext-300582be-0"
             overflow="visible"
             style="overflow:visible">
            <path
               id="path4854"
               d="M 1.90625,-2.4375 C 1.859375,-2.40625 1.796875,-2.40625 1.75,-2.40625 c -0.25,0 -0.328125,-0.609375 -0.328125,-0.9375 0,-0.234375 0,-0.609375 0.203125,-0.796875 0.265625,0.25 0.796875,0.484375 1.515625,0.515625 L 4.0625,-4.390625 4,-4.5625 C 3.734375,-4.390625 3.515625,-4.25 3.28125,-4.25 3.1875,-4.25 3.09375,-4.28125 3.015625,-4.3125 L 2.21875,-4.78125 0.703125,-3.765625 c -0.0625,0.453125 -0.0625,0.9375 -0.0625,1.421875 C 0.75,-2.125 0.921875,-1.859375 1.0625,-1.671875 L 2.078125,-2.25 c 0.125,-0.078125 0.21875,-0.109375 0.359375,-0.109375 0.25,0 0.515625,0.203125 0.515625,0.96875 0,0.3125 -0.03125,1.046875 -0.265625,1.046875 -0.015625,0 -0.03125,0 -0.03125,0 L 1.84375,-0.890625 C 1.625,-1.03125 1.375,-1.109375 1.125,-1.109375 c -0.609375,0 -1.0625,0.625 -1.40625,0.984375 l 0.09375,0.09375 c 0.3125,-0.28125 0.59375,-0.4375 0.890625,-0.4375 0.40625,0 0.9375,0.4375 1.265625,0.765625 0.515625,-0.3125 1.0625,-0.5625 1.59375,-0.796875 0.125,-0.4375 0.171875,-0.890625 0.171875,-1.34375 0,-0.25 -0.015625,-0.515625 -0.03125,-0.765625 -0.171875,-0.15625 -0.34375,-0.3125 -0.5625,-0.375 z m 0,0"
               style="stroke:none"
               inkscape:connector-curvature="0" />
          </symbol>
          <symbol
             id="textext-300582be-1"
             overflow="visible"
             style="overflow:visible">
            <path
               id="path4857"
               d="m 4.203125,-4.671875 -0.859375,0.4375 C 3.375,-3.671875 3.375,-3.15625 3.375,-2.625 c 0,0.484375 0,0.984375 -0.03125,1.484375 L 2.46875,-0.5625 1.453125,-1.03125 C 1.6875,-1.859375 1.71875,-2.6875 1.71875,-3.546875 c 0,-0.21875 -0.015625,-0.4375 -0.015625,-0.65625 C 1.5,-4.34375 1.34375,-4.53125 1.1875,-4.71875 l -1.109375,0.875 0.15625,0.09375 0.375,-0.203125 c 0.359375,0.3125 0.359375,0.875 0.359375,1.328125 0,0.71875 -0.125,1.625 -0.421875,2.140625 0.375,0.125 0.984375,0.578125 1.25,0.75 0,0 0.84375,-0.6875 1.515625,-1.140625 0.125,0.359375 0.328125,0.71875 0.515625,1.03125 L 3.90625,0.171875 C 4.296875,-0.1875 4.703125,-0.53125 5.125,-0.875 L 5.0625,-1.03125 C 4.96875,-0.984375 4.640625,-0.828125 4.53125,-0.828125 4.125,-0.828125 4.140625,-1.75 4.140625,-2.25 c 0,-0.78125 0.03125,-1.5625 0.125,-2.359375 z m 0,0"
               style="stroke:none"
               inkscape:connector-curvature="0" />
          </symbol>
          <symbol
             id="textext-300582be-2"
             overflow="visible"
             style="overflow:visible">
            <path
               id="path4860"
               d="m 3.296875,2.390625 c 0,-0.03125 0,-0.046875 -0.171875,-0.21875 C 1.890625,0.921875 1.5625,-0.96875 1.5625,-2.5 c 0,-1.734375 0.375,-3.46875 1.609375,-4.703125 0.125,-0.125 0.125,-0.140625 0.125,-0.171875 0,-0.078125 -0.03125,-0.109375 -0.09375,-0.109375 -0.109375,0 -1,0.6875 -1.59375,1.953125 -0.5,1.09375 -0.625,2.203125 -0.625,3.03125 0,0.78125 0.109375,1.984375 0.65625,3.125 C 2.25,1.84375 3.09375,2.5 3.203125,2.5 c 0.0625,0 0.09375,-0.03125 0.09375,-0.109375 z m 0,0"
               style="stroke:none"
               inkscape:connector-curvature="0" />
          </symbol>
          <symbol
             id="textext-300582be-3"
             overflow="visible"
             style="overflow:visible">
            <path
               id="path4863"
               d="m 1.265625,-0.765625 1.0625,-1.03125 c 1.546875,-1.375 2.140625,-1.90625 2.140625,-2.90625 0,-1.140625 -0.890625,-1.9375 -2.109375,-1.9375 -1.125,0 -1.859375,0.921875 -1.859375,1.8125 0,0.546875 0.5,0.546875 0.53125,0.546875 0.171875,0 0.515625,-0.109375 0.515625,-0.53125 0,-0.25 -0.1875,-0.515625 -0.53125,-0.515625 -0.078125,0 -0.09375,0 -0.125,0.015625 0.21875,-0.65625 0.765625,-1.015625 1.34375,-1.015625 0.90625,0 1.328125,0.8125 1.328125,1.625 C 3.5625,-3.90625 3.078125,-3.125 2.515625,-2.5 l -1.90625,2.125 C 0.5,-0.265625 0.5,-0.234375 0.5,0 l 3.703125,0 0.265625,-1.734375 -0.234375,0 C 4.171875,-1.4375 4.109375,-1 4,-0.84375 3.9375,-0.765625 3.28125,-0.765625 3.0625,-0.765625 z m 0,0"
               style="stroke:none"
               inkscape:connector-curvature="0" />
          </symbol>
          <symbol
             id="textext-300582be-4"
             overflow="visible"
             style="overflow:visible">
            <path
               id="path4866"
               d="m 2.875,-2.5 c 0,-0.765625 -0.109375,-1.96875 -0.65625,-3.109375 -0.59375,-1.21875 -1.453125,-1.875 -1.546875,-1.875 -0.0625,0 -0.109375,0.046875 -0.109375,0.109375 0,0.03125 0,0.046875 0.1875,0.234375 0.984375,0.984375 1.546875,2.5625 1.546875,4.640625 0,1.71875 -0.359375,3.46875 -1.59375,4.71875 C 0.5625,2.34375 0.5625,2.359375 0.5625,2.390625 0.5625,2.453125 0.609375,2.5 0.671875,2.5 0.765625,2.5 1.671875,1.8125 2.25,0.546875 2.765625,-0.546875 2.875,-1.65625 2.875,-2.5 z m 0,0"
               style="stroke:none"
               inkscape:connector-curvature="0" />
          </symbol>
        </g>
      </defs>
      <g
         id="textext-300582be-5">
        <g
           id="g4869"
           style="fill:#000000;fill-opacity:1">
          <use
             id="use4871"
             y="134.765"
             x="223.43201"
             xlink:href="#textext-300582be-0"
             width="198"
             height="225" />
          <use
             id="use4873"
             y="134.765"
             x="227.84244"
             xlink:href="#textext-300582be-1"
             width="198"
             height="225" />
        </g>
        <g
           id="g4875"
           style="fill:#000000;fill-opacity:1">
          <use
             id="use4877"
             y="134.765"
             x="232.995"
             xlink:href="#textext-300582be-2"
             width="198"
             height="225" />
          <use
             id="use4879"
             y="134.765"
             x="236.86946"
             xlink:href="#textext-300582be-3"
             width="198"
             height="225" />
          <use
             id="use4881"
             y="134.765"
             x="241.85075"
             xlink:href="#textext-300582be-4"
             width="198"
             height="225" />
        </g>
      </g>
    </g>
  </g>
</svg>
