<?xml version="1.0" encoding="UTF-8" standalone="no"?>
<!-- Created with Inkscape (http://www.inkscape.org/) -->

<svg
   xmlns:ns0="http://www.iki.fi/pav/software/textext/"
   xmlns:dc="http://purl.org/dc/elements/1.1/"
   xmlns:cc="http://creativecommons.org/ns#"
   xmlns:rdf="http://www.w3.org/1999/02/22-rdf-syntax-ns#"
   xmlns:svg="http://www.w3.org/2000/svg"
   xmlns="http://www.w3.org/2000/svg"
   xmlns:xlink="http://www.w3.org/1999/xlink"
   xmlns:sodipodi="http://sodipodi.sourceforge.net/DTD/sodipodi-0.dtd"
   xmlns:inkscape="http://www.inkscape.org/namespaces/inkscape"
   width="513"
   height="333"
   id="svg61600"
   version="1.1"
   inkscape:version="0.48.4 r9939"
   sodipodi:docname="figure26.svg">
  <sodipodi:namedview
     id="base"
     pagecolor="#ffffff"
     bordercolor="#666666"
     borderopacity="1.0"
     inkscape:pageopacity="0.0"
     inkscape:pageshadow="2"
     inkscape:zoom="1.6434708"
     inkscape:cx="226.02119"
     inkscape:cy="140.91263"
     inkscape:document-units="px"
     inkscape:current-layer="layer1"
     showgrid="false"
     inkscape:window-width="1920"
     inkscape:window-height="1023"
     inkscape:window-x="0"
     inkscape:window-y="27"
     inkscape:window-maximized="1"
     units="in" />
  <defs
     id="defs61602">
    <marker
       style="overflow:visible"
       id="Arrow2Mstart"
       refX="0"
       refY="0"
       orient="auto"
       inkscape:stockid="Arrow2Mstart">
      <path
         transform="scale(0.6,0.6)"
         d="M 8.7185878,4.0337352 -2.2072895,0.01601326 8.7185884,-4.0017078 c -1.7454984,2.3720609 -1.7354408,5.6174519 -6e-7,8.035443 z"
         style="fill-rule:evenodd;stroke-width:0.625;stroke-linejoin:round"
         id="path4463"
         inkscape:connector-curvature="0" />
    </marker>
    <marker
       inkscape:stockid="marker170827"
       orient="auto"
       refY="0"
       refX="0"
       id="marker170827"
       style="overflow:visible">
      <path
         inkscape:connector-curvature="0"
         id="path18784"
         style="fill:#ff0000;fill-rule:evenodd;stroke:#ff0000;stroke-width:0.625;stroke-linejoin:round"
         d="M 8.7185878,4.0337352 -2.2072895,0.01601326 8.7185884,-4.0017078 c -1.7454984,2.3720609 -1.7354408,5.6174519 -6e-7,8.035443 z"
         transform="scale(-0.6,-0.6)" />
    </marker>
    <marker
       inkscape:stockid="marker17082d"
       orient="auto"
       refY="0"
       refX="0"
       id="marker17082d"
       style="overflow:visible">
      <path
         inkscape:connector-curvature="0"
         id="path18787"
         style="fill:#ff0000;fill-rule:evenodd;stroke:#ff0000;stroke-width:0.625;stroke-linejoin:round"
         d="M 8.7185878,4.0337352 -2.2072895,0.01601326 8.7185884,-4.0017078 c -1.7454984,2.3720609 -1.7354408,5.6174519 -6e-7,8.035443 z"
         transform="scale(-0.6,-0.6)" />
    </marker>
    <marker
       inkscape:stockid="marker17082Q"
       orient="auto"
       refY="0"
       refX="0"
       id="marker17082Q"
       style="overflow:visible">
      <path
         inkscape:connector-curvature="0"
         id="path18781"
         style="fill:#ff0000;fill-rule:evenodd;stroke:#ff0000;stroke-width:0.625;stroke-linejoin:round"
         d="M 8.7185878,4.0337352 -2.2072895,0.01601326 8.7185884,-4.0017078 c -1.7454984,2.3720609 -1.7354408,5.6174519 -6e-7,8.035443 z"
         transform="scale(-0.6,-0.6)" />
    </marker>
    <marker
       inkscape:stockid="Arrow1Sstart"
       orient="auto"
       refY="0"
       refX="0"
       id="Arrow1Sstart"
       style="overflow:visible">
      <path
         id="path4039"
         d="M 0,0 5,-5 -12.5,0 5,5 0,0 z"
         style="fill-rule:evenodd;stroke:#000000;stroke-width:1pt"
         transform="matrix(0.2,0,0,0.2,1.2,0)"
         inkscape:connector-curvature="0" />
    </marker>
    <marker
       inkscape:stockid="Arrow1Send"
       orient="auto"
       refY="0"
       refX="0"
       id="Arrow1Send"
       style="overflow:visible">
      <path
         id="path4042"
         d="M 0,0 5,-5 -12.5,0 5,5 0,0 z"
         style="fill-rule:evenodd;stroke:#000000;stroke-width:1pt"
         transform="matrix(-0.2,0,0,-0.2,-1.2,0)"
         inkscape:connector-curvature="0" />
    </marker>
    <marker
       inkscape:stockid="marker170827"
       orient="auto"
       refY="0"
       refX="0"
       id="marker170827-8"
       style="overflow:visible">
      <path
         inkscape:connector-curvature="0"
         id="path18784-7"
         style="fill:#ff0000;fill-rule:evenodd;stroke:#ff0000;stroke-width:0.625;stroke-linejoin:round"
         d="M 8.7185878,4.0337352 -2.2072895,0.01601326 8.7185884,-4.0017078 c -1.7454984,2.3720609 -1.7354408,5.6174519 -6e-7,8.035443 z"
         transform="scale(-0.6,-0.6)" />
    </marker>
    <marker
       inkscape:stockid="marker17082d"
       orient="auto"
       refY="0"
       refX="0"
       id="marker17082d-3"
       style="overflow:visible">
      <path
         inkscape:connector-curvature="0"
         id="path18787-1"
         style="fill:#ff0000;fill-rule:evenodd;stroke:#ff0000;stroke-width:0.625;stroke-linejoin:round"
         d="M 8.7185878,4.0337352 -2.2072895,0.01601326 8.7185884,-4.0017078 c -1.7454984,2.3720609 -1.7354408,5.6174519 -6e-7,8.035443 z"
         transform="scale(-0.6,-0.6)" />
    </marker>
    <marker
       inkscape:stockid="marker17082Q"
       orient="auto"
       refY="0"
       refX="0"
       id="marker17082Q-7"
       style="overflow:visible">
      <path
         inkscape:connector-curvature="0"
         id="path18781-2"
         style="fill:#ff0000;fill-rule:evenodd;stroke:#ff0000;stroke-width:0.625;stroke-linejoin:round"
         d="M 8.7185878,4.0337352 -2.2072895,0.01601326 8.7185884,-4.0017078 c -1.7454984,2.3720609 -1.7354408,5.6174519 -6e-7,8.035443 z"
         transform="scale(-0.6,-0.6)" />
    </marker>
    <marker
       inkscape:stockid="marker170827"
       orient="auto"
       refY="0"
       refX="0"
       id="marker170827-2"
       style="overflow:visible">
      <path
         inkscape:connector-curvature="0"
         id="path18784-3"
         style="fill:#ff0000;fill-rule:evenodd;stroke:#ff0000;stroke-width:0.625;stroke-linejoin:round"
         d="M 8.7185878,4.0337352 -2.2072895,0.01601326 8.7185884,-4.0017078 c -1.7454984,2.3720609 -1.7354408,5.6174519 -6e-7,8.035443 z"
         transform="scale(-0.6,-0.6)" />
    </marker>
    <marker
       inkscape:stockid="marker17082d"
       orient="auto"
       refY="0"
       refX="0"
       id="marker17082d-7"
       style="overflow:visible">
      <path
         inkscape:connector-curvature="0"
         id="path18787-19"
         style="fill:#ff0000;fill-rule:evenodd;stroke:#ff0000;stroke-width:0.625;stroke-linejoin:round"
         d="M 8.7185878,4.0337352 -2.2072895,0.01601326 8.7185884,-4.0017078 c -1.7454984,2.3720609 -1.7354408,5.6174519 -6e-7,8.035443 z"
         transform="scale(-0.6,-0.6)" />
    </marker>
    <marker
       inkscape:stockid="marker17082Q"
       orient="auto"
       refY="0"
       refX="0"
       id="marker17082Q-6"
       style="overflow:visible">
      <path
         inkscape:connector-curvature="0"
         id="path18781-3"
         style="fill:#ff0000;fill-rule:evenodd;stroke:#ff0000;stroke-width:0.625;stroke-linejoin:round"
         d="M 8.7185878,4.0337352 -2.2072895,0.01601326 8.7185884,-4.0017078 c -1.7454984,2.3720609 -1.7354408,5.6174519 -6e-7,8.035443 z"
         transform="scale(-0.6,-0.6)" />
    </marker>
    <marker
       inkscape:stockid="marker17082Q"
       orient="auto"
       refY="0"
       refX="0"
       id="marker17082Q-65"
       style="overflow:visible">
      <path
         inkscape:connector-curvature="0"
         id="path18781-6"
         style="fill:#ff0000;fill-rule:evenodd;stroke:#ff0000;stroke-width:0.625;stroke-linejoin:round"
         d="M 8.7185878,4.0337352 -2.2072895,0.01601326 8.7185884,-4.0017078 c -1.7454984,2.3720609 -1.7354408,5.6174519 -6e-7,8.035443 z"
         transform="scale(-0.6,-0.6)" />
    </marker>
    <marker
       style="overflow:visible"
       id="Arrow2MstartK"
       refX="0"
       refY="0"
       orient="auto"
       inkscape:stockid="Arrow2MstartK">
      <path
         transform="scale(0.6,0.6)"
         d="M 8.7185878,4.0337352 -2.2072895,0.01601326 8.7185884,-4.0017078 c -1.7454984,2.3720609 -1.7354408,5.6174519 -6e-7,8.035443 z"
         style="fill:#ff0000;fill-rule:evenodd;stroke:#ff0000;stroke-width:0.625;stroke-linejoin:round"
         id="path4933"
         inkscape:connector-curvature="0" />
    </marker>
    <marker
       inkscape:stockid="marker17082Q-65y"
       orient="auto"
       refY="0"
       refX="0"
       id="marker17082Q-65y"
       style="overflow:visible">
      <path
         inkscape:connector-curvature="0"
         id="path4936"
         style="fill:#ff0000;fill-rule:evenodd;stroke:#ff0000;stroke-width:0.625;stroke-linejoin:round"
         d="M 8.7185878,4.0337352 -2.2072895,0.01601326 8.7185884,-4.0017078 c -1.7454984,2.3720609 -1.7354408,5.6174519 -6e-7,8.035443 z"
         transform="scale(-0.6,-0.6)" />
    </marker>
  </defs>
  <metadata
     id="metadata61605">
    <rdf:RDF>
      <cc:Work
         rdf:about="">
        <dc:format>image/svg+xml</dc:format>
        <dc:type
           rdf:resource="http://purl.org/dc/dcmitype/StillImage" />
        <dc:title></dc:title>
      </cc:Work>
    </rdf:RDF>
  </metadata>
  <g
     transform="translate(0,-719.35975)"
     id="layer1"
     inkscape:groupmode="layer"
     inkscape:label="Layer 1">
    <g
       id="g30771"
       transform="matrix(2.4551462,0,0,2.4551462,-528.3634,711.5684)"
       ns0:preamble="/home/true/Repositories/thesis/thesis/lib/preamble.tex"
       ns0:text="$\\algb{su}(2)$">
      <defs
         id="defs30773">
        <g
           id="g30775">
          <symbol
             id="textext-300582be-0"
             overflow="visible"
             style="overflow:visible">
            <path
               id="path30778"
               d="M 1.90625,-2.4375 C 1.859375,-2.40625 1.796875,-2.40625 1.75,-2.40625 c -0.25,0 -0.328125,-0.609375 -0.328125,-0.9375 0,-0.234375 0,-0.609375 0.203125,-0.796875 0.265625,0.25 0.796875,0.484375 1.515625,0.515625 L 4.0625,-4.390625 4,-4.5625 C 3.734375,-4.390625 3.515625,-4.25 3.28125,-4.25 3.1875,-4.25 3.09375,-4.28125 3.015625,-4.3125 L 2.21875,-4.78125 0.703125,-3.765625 c -0.0625,0.453125 -0.0625,0.9375 -0.0625,1.421875 C 0.75,-2.125 0.921875,-1.859375 1.0625,-1.671875 L 2.078125,-2.25 c 0.125,-0.078125 0.21875,-0.109375 0.359375,-0.109375 0.25,0 0.515625,0.203125 0.515625,0.96875 0,0.3125 -0.03125,1.046875 -0.265625,1.046875 -0.015625,0 -0.03125,0 -0.03125,0 L 1.84375,-0.890625 C 1.625,-1.03125 1.375,-1.109375 1.125,-1.109375 c -0.609375,0 -1.0625,0.625 -1.40625,0.984375 l 0.09375,0.09375 c 0.3125,-0.28125 0.59375,-0.4375 0.890625,-0.4375 0.40625,0 0.9375,0.4375 1.265625,0.765625 0.515625,-0.3125 1.0625,-0.5625 1.59375,-0.796875 0.125,-0.4375 0.171875,-0.890625 0.171875,-1.34375 0,-0.25 -0.015625,-0.515625 -0.03125,-0.765625 -0.171875,-0.15625 -0.34375,-0.3125 -0.5625,-0.375 z m 0,0"
               style="stroke:none"
               inkscape:connector-curvature="0" />
          </symbol>
          <symbol
             id="textext-300582be-1"
             overflow="visible"
             style="overflow:visible">
            <path
               id="path30781"
               d="m 4.203125,-4.671875 -0.859375,0.4375 C 3.375,-3.671875 3.375,-3.15625 3.375,-2.625 c 0,0.484375 0,0.984375 -0.03125,1.484375 L 2.46875,-0.5625 1.453125,-1.03125 C 1.6875,-1.859375 1.71875,-2.6875 1.71875,-3.546875 c 0,-0.21875 -0.015625,-0.4375 -0.015625,-0.65625 C 1.5,-4.34375 1.34375,-4.53125 1.1875,-4.71875 l -1.109375,0.875 0.15625,0.09375 0.375,-0.203125 c 0.359375,0.3125 0.359375,0.875 0.359375,1.328125 0,0.71875 -0.125,1.625 -0.421875,2.140625 0.375,0.125 0.984375,0.578125 1.25,0.75 0,0 0.84375,-0.6875 1.515625,-1.140625 0.125,0.359375 0.328125,0.71875 0.515625,1.03125 L 3.90625,0.171875 C 4.296875,-0.1875 4.703125,-0.53125 5.125,-0.875 L 5.0625,-1.03125 C 4.96875,-0.984375 4.640625,-0.828125 4.53125,-0.828125 4.125,-0.828125 4.140625,-1.75 4.140625,-2.25 c 0,-0.78125 0.03125,-1.5625 0.125,-2.359375 z m 0,0"
               style="stroke:none"
               inkscape:connector-curvature="0" />
          </symbol>
          <symbol
             id="textext-300582be-2"
             overflow="visible"
             style="overflow:visible">
            <path
               id="path30784"
               d="m 3.296875,2.390625 c 0,-0.03125 0,-0.046875 -0.171875,-0.21875 C 1.890625,0.921875 1.5625,-0.96875 1.5625,-2.5 c 0,-1.734375 0.375,-3.46875 1.609375,-4.703125 0.125,-0.125 0.125,-0.140625 0.125,-0.171875 0,-0.078125 -0.03125,-0.109375 -0.09375,-0.109375 -0.109375,0 -1,0.6875 -1.59375,1.953125 -0.5,1.09375 -0.625,2.203125 -0.625,3.03125 0,0.78125 0.109375,1.984375 0.65625,3.125 C 2.25,1.84375 3.09375,2.5 3.203125,2.5 c 0.0625,0 0.09375,-0.03125 0.09375,-0.109375 z m 0,0"
               style="stroke:none"
               inkscape:connector-curvature="0" />
          </symbol>
          <symbol
             id="textext-300582be-3"
             overflow="visible"
             style="overflow:visible">
            <path
               id="path30787"
               d="m 1.265625,-0.765625 1.0625,-1.03125 c 1.546875,-1.375 2.140625,-1.90625 2.140625,-2.90625 0,-1.140625 -0.890625,-1.9375 -2.109375,-1.9375 -1.125,0 -1.859375,0.921875 -1.859375,1.8125 0,0.546875 0.5,0.546875 0.53125,0.546875 0.171875,0 0.515625,-0.109375 0.515625,-0.53125 0,-0.25 -0.1875,-0.515625 -0.53125,-0.515625 -0.078125,0 -0.09375,0 -0.125,0.015625 0.21875,-0.65625 0.765625,-1.015625 1.34375,-1.015625 0.90625,0 1.328125,0.8125 1.328125,1.625 C 3.5625,-3.90625 3.078125,-3.125 2.515625,-2.5 l -1.90625,2.125 C 0.5,-0.265625 0.5,-0.234375 0.5,0 l 3.703125,0 0.265625,-1.734375 -0.234375,0 C 4.171875,-1.4375 4.109375,-1 4,-0.84375 3.9375,-0.765625 3.28125,-0.765625 3.0625,-0.765625 z m 0,0"
               style="stroke:none"
               inkscape:connector-curvature="0" />
          </symbol>
          <symbol
             id="textext-300582be-4"
             overflow="visible"
             style="overflow:visible">
            <path
               id="path30790"
               d="m 2.875,-2.5 c 0,-0.765625 -0.109375,-1.96875 -0.65625,-3.109375 -0.59375,-1.21875 -1.453125,-1.875 -1.546875,-1.875 -0.0625,0 -0.109375,0.046875 -0.109375,0.109375 0,0.03125 0,0.046875 0.1875,0.234375 0.984375,0.984375 1.546875,2.5625 1.546875,4.640625 0,1.71875 -0.359375,3.46875 -1.59375,4.71875 C 0.5625,2.34375 0.5625,2.359375 0.5625,2.390625 0.5625,2.453125 0.609375,2.5 0.671875,2.5 0.765625,2.5 1.671875,1.8125 2.25,0.546875 2.765625,-0.546875 2.875,-1.65625 2.875,-2.5 z m 0,0"
               style="stroke:none"
               inkscape:connector-curvature="0" />
          </symbol>
        </g>
      </defs>
      <g
         id="textext-300582be-5">
        <g
           id="g30793"
           style="fill:#000000;fill-opacity:1">
          <use
             id="use30795"
             y="134.765"
             x="223.43201"
             xlink:href="#textext-300582be-0"
             width="744.09448"
             height="1052.3622" />
          <use
             id="use30797"
             y="134.765"
             x="227.84244"
             xlink:href="#textext-300582be-1"
             width="744.09448"
             height="1052.3622" />
        </g>
        <g
           id="g30799"
           style="fill:#000000;fill-opacity:1">
          <use
             id="use30801"
             y="134.765"
             x="232.995"
             xlink:href="#textext-300582be-2"
             width="744.09448"
             height="1052.3622" />
          <use
             id="use30803"
             y="134.765"
             x="236.86946"
             xlink:href="#textext-300582be-3"
             width="744.09448"
             height="1052.3622" />
          <use
             id="use30805"
             y="134.765"
             x="241.85075"
             xlink:href="#textext-300582be-4"
             width="744.09448"
             height="1052.3622" />
        </g>
      </g>
    </g>
    <g
       id="g44235"
       transform="matrix(1.4422458,0,0,1.4422458,-739.89102,-458.7088)">
      <g
         style="stroke-width:2.5144434;stroke-miterlimit:4;stroke-dasharray:none"
         transform="matrix(0.63341621,0,0,0.63341621,527.66096,350.27026)"
         id="g2999">
        <path
           style="fill:none;stroke:#000000;stroke-width:2.52598524;stroke-linecap:butt;stroke-linejoin:miter;stroke-miterlimit:4;stroke-opacity:1;stroke-dasharray:none;marker-start:url(#Arrow1Sstart);marker-end:none"
           d="m 59.673865,1053.2839 -60.59798623,0"
           id="path2995"
           inkscape:connector-curvature="0"
           sodipodi:nodetypes="cc" />
        <path
           style="fill:none;stroke:#000000;stroke-width:2.52598524;stroke-linecap:butt;stroke-linejoin:miter;stroke-miterlimit:4;stroke-opacity:1;stroke-dasharray:none;marker-end:url(#Arrow1Send)"
           d="m -0.92412123,1053.2839 0,-60.59802"
           id="path2997"
           inkscape:connector-curvature="0" />
      </g>
      <path
         transform="matrix(1.2231853,0,0,1.2231853,524.38513,793.92599)"
         d="m 5,182.5 a 2.5,2.5 0 1 1 -5,0 2.5,2.5 0 1 1 5,0 z"
         sodipodi:ry="2.5"
         sodipodi:rx="2.5"
         sodipodi:cy="182.5"
         sodipodi:cx="2.5"
         id="path3042-6"
         style="opacity:0.98999999;fill:#000000;fill-opacity:1;stroke:#000000;stroke-width:1.25;stroke-miterlimit:4;stroke-opacity:1;stroke-dasharray:none;stroke-dashoffset:0"
         sodipodi:type="arc" />
      <g
         ns0:text="$\\vec{{e}}_{x,j}$"
         ns0:preamble="/home/true/Repositories/thesis/thesis/lib/preamble.tex"
         transform="matrix(1.4250272,0,0,1.4250272,251.92512,828.92859)"
         style="font-style:normal;font-variant:normal;font-weight:normal;font-stretch:normal;letter-spacing:normal;word-spacing:normal;text-anchor:start;fill:none;stroke:#000000;stroke-width:0.5pt;stroke-linecap:butt;stroke-linejoin:miter;stroke-miterlimit:10.43299961;stroke-opacity:1;stroke-dasharray:none;stroke-dashoffset:0;font-family:'Helvetica, Arial, FreeSans, Sans, sans, sans-serif'"
         id="g40276">
        <defs
           id="defs40278">
          <g
             id="g40280">
            <symbol
               style="overflow:visible"
               overflow="visible"
               id="textext-0c3e0c51-0">
              <path
                 inkscape:connector-curvature="0"
                 style="stroke:none"
                 d="m 4.609375,-2.171875 c 0.21875,0 0.3125,0 0.3125,-0.265625 0,-0.3125 -0.0625,-1.046875 -0.5625,-1.546875 C 4,-4.34375 3.46875,-4.515625 2.78125,-4.515625 c -1.59375,0 -2.46875,1.03125 -2.46875,2.265625 0,1.34375 1,2.3125 2.609375,2.3125 1.578125,0 2,-1.0625 2,-1.234375 0,-0.171875 -0.1875,-0.171875 -0.234375,-0.171875 -0.171875,0 -0.1875,0.046875 -0.25,0.203125 -0.203125,0.484375 -0.78125,0.796875 -1.421875,0.796875 -1.40625,0 -1.421875,-1.328125 -1.421875,-1.828125 z M 1.59375,-2.5 C 1.609375,-2.890625 1.625,-3.3125 1.828125,-3.640625 2.09375,-4.03125 2.5,-4.15625 2.78125,-4.15625 c 1.171875,0 1.1875,1.3125 1.203125,1.65625 z m 0,0"
                 id="path40283" />
            </symbol>
            <symbol
               style="overflow:visible"
               overflow="visible"
               id="textext-0c3e0c51-1">
              <path
                 inkscape:connector-curvature="0"
                 style="stroke:none"
                 d="M 1.734375,-0.734375 C 1.671875,-0.5 1.4375,-0.125 1.078125,-0.125 c -0.015625,0 -0.234375,0 -0.375,-0.09375 0.28125,-0.09375 0.3125,-0.34375 0.3125,-0.390625 0,-0.15625 -0.125,-0.25 -0.28125,-0.25 -0.203125,0 -0.40625,0.15625 -0.40625,0.421875 0,0.34375 0.390625,0.5 0.734375,0.5 0.328125,0 0.609375,-0.1875 0.78125,-0.484375 C 2.015625,-0.0625 2.390625,0.0625 2.671875,0.0625 c 0.8125,0 1.234375,-0.859375 1.234375,-1.0625 0,-0.09375 -0.09375,-0.09375 -0.109375,-0.09375 -0.109375,0 -0.109375,0.046875 -0.140625,0.125 -0.140625,0.484375 -0.5625,0.84375 -0.953125,0.84375 -0.28125,0 -0.421875,-0.1875 -0.421875,-0.453125 0,-0.1875 0.171875,-0.8125 0.359375,-1.59375 C 2.78125,-2.703125 3.09375,-2.875 3.328125,-2.875 c 0.015625,0 0.21875,0 0.375,0.09375 -0.21875,0.0625 -0.3125,0.265625 -0.3125,0.390625 0,0.140625 0.125,0.25 0.28125,0.25 0.15625,0 0.390625,-0.125 0.390625,-0.421875 0,-0.390625 -0.453125,-0.515625 -0.71875,-0.515625 -0.359375,0 -0.640625,0.234375 -0.78125,0.5 -0.125,-0.28125 -0.453125,-0.5 -0.84375,-0.5 C 0.9375,-3.078125 0.5,-2.21875 0.5,-2 c 0,0.078125 0.09375,0.078125 0.109375,0.078125 0.09375,0 0.09375,-0.015625 0.140625,-0.109375 C 0.921875,-2.578125 1.359375,-2.875 1.703125,-2.875 1.9375,-2.875 2.125,-2.75 2.125,-2.421875 2.125,-2.28125 2.03125,-1.9375 1.96875,-1.6875 z m 0,0"
                 id="path40286" />
            </symbol>
            <symbol
               style="overflow:visible"
               overflow="visible"
               id="textext-0c3e0c51-2">
              <path
                 inkscape:connector-curvature="0"
                 style="stroke:none"
                 d="m 1.46875,-0.109375 c 0,0.375 -0.0625,0.828125 -0.546875,1.265625 C 0.90625,1.1875 0.875,1.21875 0.875,1.25 c 0,0.046875 0.0625,0.09375 0.09375,0.09375 0.109375,0 0.703125,-0.5625 0.703125,-1.390625 0,-0.421875 -0.171875,-0.75 -0.5,-0.75 -0.21875,0 -0.390625,0.171875 -0.390625,0.390625 C 0.78125,-0.1875 0.9375,0 1.1875,0 1.359375,0 1.46875,-0.109375 1.46875,-0.109375 z m 0,0"
                 id="path40289" />
            </symbol>
            <symbol
               style="overflow:visible"
               overflow="visible"
               id="textext-0c3e0c51-3">
              <path
                 inkscape:connector-curvature="0"
                 style="stroke:none"
                 d="M 3.0625,-4.359375 C 3.0625,-4.46875 2.96875,-4.625 2.78125,-4.625 c -0.203125,0 -0.390625,0.203125 -0.390625,0.390625 0,0.109375 0.078125,0.265625 0.28125,0.265625 0.1875,0 0.390625,-0.1875 0.390625,-0.390625 z M 1.578125,0.34375 C 1.46875,0.828125 1.09375,1.21875 0.6875,1.21875 c -0.09375,0 -0.171875,0 -0.25,-0.03125 0.171875,-0.09375 0.234375,-0.25 0.234375,-0.359375 0,-0.171875 -0.140625,-0.25 -0.28125,-0.25 C 0.1875,0.578125 0,0.765625 0,0.984375 c 0,0.265625 0.265625,0.4375 0.6875,0.4375 0.421875,0 1.234375,-0.25 1.453125,-1.09375 l 0.625,-2.5 c 0.015625,-0.078125 0.03125,-0.140625 0.03125,-0.25 0,-0.375 -0.328125,-0.65625 -0.734375,-0.65625 -0.78125,0 -1.21875,0.96875 -1.21875,1.078125 0,0.078125 0.09375,0.078125 0.109375,0.078125 0.078125,0 0.09375,-0.015625 0.140625,-0.125 C 1.265625,-2.453125 1.625,-2.875 2.03125,-2.875 c 0.171875,0 0.234375,0.109375 0.234375,0.34375 0,0.078125 0,0.171875 -0.015625,0.203125 z m 0,0"
                 id="path40292" />
            </symbol>
          </g>
        </defs>
        <g
           id="textext-0c3e0c51-4">
          <g
             style="fill:#000000;fill-opacity:1"
             id="g40295">
            <use
               height="1052.3622"
               width="744.09448"
               xlink:href="#textext-0c3e0c51-0"
               x="223.43201"
               y="134.765"
               id="use40297" />
          </g>
          <g
             style="fill:#000000;fill-opacity:1"
             id="g40299">
            <use
               height="1052.3622"
               width="744.09448"
               xlink:href="#textext-0c3e0c51-1"
               x="228.683"
               y="136.259"
               id="use40301" />
            <use
               height="1052.3622"
               width="744.09448"
               xlink:href="#textext-0c3e0c51-2"
               x="233.20062"
               y="136.259"
               id="use40303" />
            <use
               height="1052.3622"
               width="744.09448"
               xlink:href="#textext-0c3e0c51-3"
               x="235.56683"
               y="136.259"
               id="use40305" />
          </g>
        </g>
      </g>
      <g
         id="g41810"
         style="font-style:normal;font-variant:normal;font-weight:normal;font-stretch:normal;letter-spacing:normal;word-spacing:normal;text-anchor:start;fill:none;stroke:#000000;stroke-width:0.5pt;stroke-linecap:butt;stroke-linejoin:miter;stroke-miterlimit:10.43299961;stroke-opacity:1;stroke-dasharray:none;stroke-dashoffset:0;font-family:'Helvetica, Arial, FreeSans, Sans, sans, sans-serif'"
         transform="matrix(1.4250272,0,0,1.4250272,198.72857,778.26099)"
         ns0:preamble="/home/true/Repositories/thesis/thesis/lib/preamble.tex"
         ns0:text="$\\vec{{e}}_{y,j}$">
        <defs
           id="defs41812">
          <g
             id="g41814">
            <symbol
               style="overflow:visible"
               id="textext-7021e27d-0"
               overflow="visible">
              <path
                 inkscape:connector-curvature="0"
                 id="path41817"
                 d="m 4.609375,-2.171875 c 0.21875,0 0.3125,0 0.3125,-0.265625 0,-0.3125 -0.0625,-1.046875 -0.5625,-1.546875 C 4,-4.34375 3.46875,-4.515625 2.78125,-4.515625 c -1.59375,0 -2.46875,1.03125 -2.46875,2.265625 0,1.34375 1,2.3125 2.609375,2.3125 1.578125,0 2,-1.0625 2,-1.234375 0,-0.171875 -0.1875,-0.171875 -0.234375,-0.171875 -0.171875,0 -0.1875,0.046875 -0.25,0.203125 -0.203125,0.484375 -0.78125,0.796875 -1.421875,0.796875 -1.40625,0 -1.421875,-1.328125 -1.421875,-1.828125 z M 1.59375,-2.5 C 1.609375,-2.890625 1.625,-3.3125 1.828125,-3.640625 2.09375,-4.03125 2.5,-4.15625 2.78125,-4.15625 c 1.171875,0 1.1875,1.3125 1.203125,1.65625 z m 0,0"
                 style="stroke:none" />
            </symbol>
            <symbol
               style="overflow:visible"
               id="textext-7021e27d-1"
               overflow="visible">
              <path
                 inkscape:connector-curvature="0"
                 id="path41820"
                 d="M 3.875,-2.625 C 3.90625,-2.71875 3.90625,-2.734375 3.90625,-2.78125 3.90625,-2.921875 3.796875,-3 3.671875,-3 3.59375,-3 3.46875,-2.96875 3.390625,-2.84375 3.359375,-2.796875 3.3125,-2.578125 3.28125,-2.4375 L 3.125,-1.859375 c -0.03125,0.171875 -0.25,1.046875 -0.28125,1.125 0,0 -0.3125,0.609375 -0.84375,0.609375 -0.484375,0 -0.484375,-0.453125 -0.484375,-0.578125 0,-0.375 0.15625,-0.8125 0.375,-1.359375 C 1.96875,-2.28125 2,-2.359375 2,-2.484375 2,-2.8125 1.71875,-3.078125 1.34375,-3.078125 0.640625,-3.078125 0.328125,-2.125 0.328125,-2 c 0,0.078125 0.09375,0.078125 0.125,0.078125 0.09375,0 0.09375,-0.03125 0.125,-0.109375 C 0.75,-2.609375 1.046875,-2.875 1.328125,-2.875 1.4375,-2.875 1.5,-2.796875 1.5,-2.640625 c 0,0.171875 -0.0625,0.3125 -0.09375,0.40625 C 1.0625,-1.375 1,-1.125 1,-0.8125 1,-0.703125 1,-0.375 1.265625,-0.140625 1.484375,0.03125 1.78125,0.0625 1.96875,0.0625 2.25,0.0625 2.5,-0.03125 2.71875,-0.25 2.640625,0.140625 2.5625,0.4375 2.265625,0.78125 2.078125,1 1.796875,1.21875 1.421875,1.21875 c -0.046875,0 -0.375,0 -0.515625,-0.21875 0.375,-0.046875 0.375,-0.375 0.375,-0.390625 0,-0.21875 -0.203125,-0.265625 -0.265625,-0.265625 -0.171875,0 -0.40625,0.140625 -0.40625,0.46875 0,0.34375 0.328125,0.609375 0.828125,0.609375 C 2.140625,1.421875 3,0.875 3.21875,0 z m 0,0"
                 style="stroke:none" />
            </symbol>
            <symbol
               style="overflow:visible"
               id="textext-7021e27d-2"
               overflow="visible">
              <path
                 inkscape:connector-curvature="0"
                 id="path41823"
                 d="m 1.46875,-0.109375 c 0,0.375 -0.0625,0.828125 -0.546875,1.265625 C 0.90625,1.1875 0.875,1.21875 0.875,1.25 c 0,0.046875 0.0625,0.09375 0.09375,0.09375 0.109375,0 0.703125,-0.5625 0.703125,-1.390625 0,-0.421875 -0.171875,-0.75 -0.5,-0.75 -0.21875,0 -0.390625,0.171875 -0.390625,0.390625 C 0.78125,-0.1875 0.9375,0 1.1875,0 1.359375,0 1.46875,-0.109375 1.46875,-0.109375 z m 0,0"
                 style="stroke:none" />
            </symbol>
            <symbol
               style="overflow:visible"
               id="textext-7021e27d-3"
               overflow="visible">
              <path
                 inkscape:connector-curvature="0"
                 id="path41826"
                 d="M 3.0625,-4.359375 C 3.0625,-4.46875 2.96875,-4.625 2.78125,-4.625 c -0.203125,0 -0.390625,0.203125 -0.390625,0.390625 0,0.109375 0.078125,0.265625 0.28125,0.265625 0.1875,0 0.390625,-0.1875 0.390625,-0.390625 z M 1.578125,0.34375 C 1.46875,0.828125 1.09375,1.21875 0.6875,1.21875 c -0.09375,0 -0.171875,0 -0.25,-0.03125 0.171875,-0.09375 0.234375,-0.25 0.234375,-0.359375 0,-0.171875 -0.140625,-0.25 -0.28125,-0.25 C 0.1875,0.578125 0,0.765625 0,0.984375 c 0,0.265625 0.265625,0.4375 0.6875,0.4375 0.421875,0 1.234375,-0.25 1.453125,-1.09375 l 0.625,-2.5 c 0.015625,-0.078125 0.03125,-0.140625 0.03125,-0.25 0,-0.375 -0.328125,-0.65625 -0.734375,-0.65625 -0.78125,0 -1.21875,0.96875 -1.21875,1.078125 0,0.078125 0.09375,0.078125 0.109375,0.078125 0.078125,0 0.09375,-0.015625 0.140625,-0.125 C 1.265625,-2.453125 1.625,-2.875 2.03125,-2.875 c 0.171875,0 0.234375,0.109375 0.234375,0.34375 0,0.078125 0,0.171875 -0.015625,0.203125 z m 0,0"
                 style="stroke:none" />
            </symbol>
          </g>
        </defs>
        <g
           id="textext-7021e27d-4">
          <g
             id="g41829"
             style="fill:#000000;fill-opacity:1">
            <use
               height="1052.3622"
               width="744.09448"
               id="use41831"
               y="134.765"
               x="223.43201"
               xlink:href="#textext-7021e27d-0" />
          </g>
          <g
             id="g41833"
             style="fill:#000000;fill-opacity:1">
            <use
               height="1052.3622"
               width="744.09448"
               id="use41835"
               y="136.259"
               x="228.683"
               xlink:href="#textext-7021e27d-1" />
          </g>
          <g
             id="g41837"
             style="fill:#000000;fill-opacity:1">
            <use
               height="1052.3622"
               width="744.09448"
               id="use41839"
               y="136.259"
               x="232.97467"
               xlink:href="#textext-7021e27d-2" />
            <use
               height="1052.3622"
               width="744.09448"
               id="use41841"
               y="136.259"
               x="235.34088"
               xlink:href="#textext-7021e27d-3" />
          </g>
        </g>
      </g>
    </g>
    <path
       id="path17454"
       d="m 96.78806,923.00637 0,0"
       inkscape:connector-curvature="0"
       style="text-anchor:middle;fill:none;stroke:#000000;stroke-width:1.44224572;stroke-linejoin:round;stroke-miterlimit:4;stroke-dasharray:none;font-family:'Helvetica, Arial, FreeSans, Sans, sans, sans-serif'" />
    <path
       id="path17456"
       d="m 96.78806,923.00637 47.97663,0"
       inkscape:connector-curvature="0"
       style="text-anchor:middle;fill:none;stroke:#ff0000;stroke-width:1.875;stroke-linejoin:round;stroke-miterlimit:4;stroke-dasharray:none;marker-end:url(#marker17082Q);font-family:'Helvetica, Arial, FreeSans, Sans, sans, sans-serif'" />
    <path
       id="path17458"
       d="M 144.76469,923.00637 120.77638,732.60559"
       inkscape:connector-curvature="0"
       style="text-anchor:middle;fill:none;stroke:#ff0000;stroke-width:1.875;stroke-linejoin:round;stroke-miterlimit:4;stroke-dasharray:none;marker-end:url(#marker17082d);font-family:'Helvetica, Arial, FreeSans, Sans, sans, sans-serif'" />
    <path
       id="path17460"
       d="M 120.77638,732.60559 96.78806,923.00637"
       inkscape:connector-curvature="0"
       style="text-anchor:middle;fill:none;stroke:#ff0000;stroke-width:1.875;stroke-linejoin:round;stroke-miterlimit:4;stroke-dasharray:none;marker-end:url(#marker170827);font-family:'Helvetica, Arial, FreeSans, Sans, sans, sans-serif'" />
    <g
       id="g62277"
       transform="matrix(2.0365414,0,0,2.0365414,-374.3647,555.74502)"
       ns0:preamble="/home/true/Repositories/thesis/thesis/lib/preamble.tex"
       ns0:text="$2\\pi$">
      <defs
         id="defs62279">
        <g
           id="g62281">
          <symbol
             id="textext-efda36db-0"
             overflow="visible"
             style="overflow:visible">
            <path
               id="path62284"
               d="m 1.265625,-0.765625 1.0625,-1.03125 c 1.546875,-1.375 2.140625,-1.90625 2.140625,-2.90625 0,-1.140625 -0.890625,-1.9375 -2.109375,-1.9375 -1.125,0 -1.859375,0.921875 -1.859375,1.8125 0,0.546875 0.5,0.546875 0.53125,0.546875 0.171875,0 0.515625,-0.109375 0.515625,-0.53125 0,-0.25 -0.1875,-0.515625 -0.53125,-0.515625 -0.078125,0 -0.09375,0 -0.125,0.015625 0.21875,-0.65625 0.765625,-1.015625 1.34375,-1.015625 0.90625,0 1.328125,0.8125 1.328125,1.625 C 3.5625,-3.90625 3.078125,-3.125 2.515625,-2.5 l -1.90625,2.125 C 0.5,-0.265625 0.5,-0.234375 0.5,0 l 3.703125,0 0.265625,-1.734375 -0.234375,0 C 4.171875,-1.4375 4.109375,-1 4,-0.84375 3.9375,-0.765625 3.28125,-0.765625 3.0625,-0.765625 z m 0,0"
               style="stroke:none"
               inkscape:connector-curvature="0" />
          </symbol>
          <symbol
             id="textext-efda36db-1"
             overflow="visible"
             style="overflow:visible">
            <path
               id="path62287"
               d="m 2.640625,-3.71875 1.125,0 C 3.4375,-2.25 3.34375,-1.8125 3.34375,-1.140625 c 0,0.140625 0,0.40625 0.078125,0.75 0.109375,0.4375 0.21875,0.5 0.359375,0.5 0.203125,0 0.421875,-0.171875 0.421875,-0.375 0,-0.0625 0,-0.078125 -0.0625,-0.21875 -0.296875,-0.71875 -0.296875,-1.375 -0.296875,-1.65625 0,-0.515625 0.078125,-1.0625 0.1875,-1.578125 l 1.125,0 c 0.140625,0 0.5,0 0.5,-0.34375 0,-0.234375 -0.21875,-0.234375 -0.40625,-0.234375 l -3.34375,0 c -0.21875,0 -0.59375,0 -1.03125,0.46875 -0.34375,0.390625 -0.609375,0.84375 -0.609375,0.890625 0,0.015625 0,0.109375 0.125,0.109375 0.078125,0 0.09375,-0.046875 0.15625,-0.125 C 1.03125,-3.71875 1.609375,-3.71875 1.8125,-3.71875 l 0.5625,0 C 2.0625,-2.515625 1.53125,-1.3125 1.109375,-0.40625 1.03125,-0.25 1.03125,-0.234375 1.03125,-0.15625 c 0,0.1875 0.15625,0.265625 0.28125,0.265625 0.296875,0 0.375,-0.28125 0.5,-0.640625 C 1.953125,-1 1.953125,-1.015625 2.078125,-1.515625 z m 0,0"
               style="stroke:none"
               inkscape:connector-curvature="0" />
          </symbol>
        </g>
      </defs>
      <g
         id="textext-efda36db-2">
        <g
           id="g62290"
           style="fill:#000000;fill-opacity:1">
          <use
             id="use62292"
             y="134.765"
             x="223.43201"
             xlink:href="#textext-efda36db-0"
             width="744.09448"
             height="1052.3622" />
        </g>
        <g
           id="g62294"
           style="fill:#000000;fill-opacity:1">
          <use
             id="use62296"
             y="134.765"
             x="228.41299"
             xlink:href="#textext-efda36db-1"
             width="744.09448"
             height="1052.3622" />
        </g>
      </g>
    </g>
    <g
       id="g62277-4"
       transform="matrix(2.0365414,0,0,2.0365414,-316.65497,555.84398)"
       ns0:preamble="/home/true/Repositories/thesis/thesis/lib/preamble.tex"
       ns0:text="$2\\pi$">
      <defs
         id="defs62279-8">
        <g
           id="g62281-2">
          <symbol
             id="textext-efda36db-0-3"
             overflow="visible"
             style="overflow:visible">
            <path
               id="path62284-6"
               d="m 1.265625,-0.765625 1.0625,-1.03125 c 1.546875,-1.375 2.140625,-1.90625 2.140625,-2.90625 0,-1.140625 -0.890625,-1.9375 -2.109375,-1.9375 -1.125,0 -1.859375,0.921875 -1.859375,1.8125 0,0.546875 0.5,0.546875 0.53125,0.546875 0.171875,0 0.515625,-0.109375 0.515625,-0.53125 0,-0.25 -0.1875,-0.515625 -0.53125,-0.515625 -0.078125,0 -0.09375,0 -0.125,0.015625 0.21875,-0.65625 0.765625,-1.015625 1.34375,-1.015625 0.90625,0 1.328125,0.8125 1.328125,1.625 C 3.5625,-3.90625 3.078125,-3.125 2.515625,-2.5 l -1.90625,2.125 C 0.5,-0.265625 0.5,-0.234375 0.5,0 l 3.703125,0 0.265625,-1.734375 -0.234375,0 C 4.171875,-1.4375 4.109375,-1 4,-0.84375 3.9375,-0.765625 3.28125,-0.765625 3.0625,-0.765625 z m 0,0"
               style="stroke:none"
               inkscape:connector-curvature="0" />
          </symbol>
          <symbol
             id="textext-efda36db-1-7"
             overflow="visible"
             style="overflow:visible">
            <path
               id="path62287-9"
               d="m 2.640625,-3.71875 1.125,0 C 3.4375,-2.25 3.34375,-1.8125 3.34375,-1.140625 c 0,0.140625 0,0.40625 0.078125,0.75 0.109375,0.4375 0.21875,0.5 0.359375,0.5 0.203125,0 0.421875,-0.171875 0.421875,-0.375 0,-0.0625 0,-0.078125 -0.0625,-0.21875 -0.296875,-0.71875 -0.296875,-1.375 -0.296875,-1.65625 0,-0.515625 0.078125,-1.0625 0.1875,-1.578125 l 1.125,0 c 0.140625,0 0.5,0 0.5,-0.34375 0,-0.234375 -0.21875,-0.234375 -0.40625,-0.234375 l -3.34375,0 c -0.21875,0 -0.59375,0 -1.03125,0.46875 -0.34375,0.390625 -0.609375,0.84375 -0.609375,0.890625 0,0.015625 0,0.109375 0.125,0.109375 0.078125,0 0.09375,-0.046875 0.15625,-0.125 C 1.03125,-3.71875 1.609375,-3.71875 1.8125,-3.71875 l 0.5625,0 C 2.0625,-2.515625 1.53125,-1.3125 1.109375,-0.40625 1.03125,-0.25 1.03125,-0.234375 1.03125,-0.15625 c 0,0.1875 0.15625,0.265625 0.28125,0.265625 0.296875,0 0.375,-0.28125 0.5,-0.640625 C 1.953125,-1 1.953125,-1.015625 2.078125,-1.515625 z m 0,0"
               style="stroke:none"
               inkscape:connector-curvature="0" />
          </symbol>
        </g>
      </defs>
      <g
         id="textext-efda36db-2-2">
        <g
           id="g62290-7"
           style="fill:#000000;fill-opacity:1">
          <use
             id="use62292-2"
             y="134.765"
             x="223.43201"
             xlink:href="#textext-efda36db-0-3"
             width="744.09448"
             height="1052.3622" />
        </g>
        <g
           id="g62294-2"
           style="fill:#000000;fill-opacity:1">
          <use
             id="use62296-8"
             y="134.765"
             x="228.41299"
             xlink:href="#textext-efda36db-1-7"
             width="744.09448"
             height="1052.3622" />
        </g>
      </g>
    </g>
    <g
       id="g63057"
       transform="matrix(2.0365414,0,0,2.0365414,-342.38406,669.83216)"
       ns0:preamble="/home/true/Repositories/thesis/thesis/lib/preamble.tex"
       ns0:text="$\\theta_1$">
      <defs
         id="defs63059">
        <g
           id="g63061">
          <symbol
             id="textext-1250925a-0"
             overflow="visible"
             style="overflow:visible">
            <path
               id="path63064"
               d="m 4.53125,-4.984375 c 0,-0.65625 -0.171875,-2.046875 -1.1875,-2.046875 -1.390625,0 -2.921875,2.8125 -2.921875,5.09375 0,0.9375 0.28125,2.046875 1.1875,2.046875 1.40625,0 2.921875,-2.859375 2.921875,-5.09375 z M 1.46875,-3.625 C 1.640625,-4.25 1.84375,-5.046875 2.25,-5.765625 2.515625,-6.25 2.875,-6.8125 3.328125,-6.8125 c 0.484375,0 0.546875,0.640625 0.546875,1.203125 0,0.5 -0.078125,1 -0.3125,1.984375 z m 2,0.328125 C 3.359375,-2.84375 3.15625,-2 2.765625,-1.28125 c -0.34375,0.6875 -0.71875,1.171875 -1.15625,1.171875 -0.328125,0 -0.53125,-0.296875 -0.53125,-1.21875 0,-0.421875 0.0625,-1 0.3125,-1.96875 z m 0,0"
               style="stroke:none"
               inkscape:connector-curvature="0" />
          </symbol>
          <symbol
             id="textext-1250925a-1"
             overflow="visible"
             style="overflow:visible">
            <path
               id="path63067"
               d="m 2.328125,-4.4375 c 0,-0.1875 0,-0.1875 -0.203125,-0.1875 -0.453125,0.4375 -1.078125,0.4375 -1.359375,0.4375 l 0,0.25 c 0.15625,0 0.625,0 1,-0.1875 l 0,3.546875 c 0,0.234375 0,0.328125 -0.6875,0.328125 l -0.265625,0 0,0.25 c 0.125,0 0.984375,-0.03125 1.234375,-0.03125 0.21875,0 1.09375,0.03125 1.25,0.03125 l 0,-0.25 -0.265625,0 c -0.703125,0 -0.703125,-0.09375 -0.703125,-0.328125 z m 0,0"
               style="stroke:none"
               inkscape:connector-curvature="0" />
          </symbol>
        </g>
      </defs>
      <g
         id="textext-1250925a-2">
        <g
           id="g63070"
           style="fill:#000000;fill-opacity:1">
          <use
             id="use63072"
             y="134.765"
             x="223.43201"
             xlink:href="#textext-1250925a-0"
             width="744.09448"
             height="1052.3622" />
        </g>
        <g
           id="g63074"
           style="fill:#000000;fill-opacity:1">
          <use
             id="use63076"
             y="136.259"
             x="228.10899"
             xlink:href="#textext-1250925a-1"
             width="744.09448"
             height="1052.3622" />
        </g>
      </g>
    </g>
    <path
       id="path17454-6"
       d="m 268.0723,920.75745 0,0"
       inkscape:connector-curvature="0"
       style="text-anchor:middle;fill:none;stroke:#000000;stroke-width:1.44224572;stroke-linejoin:round;stroke-miterlimit:4;stroke-dasharray:none;font-family:'Helvetica, Arial, FreeSans, Sans, sans, sans-serif'" />
    <path
       id="path17456-2"
       d="m 268.0723,920.75745 47.97663,0"
       inkscape:connector-curvature="0"
       style="text-anchor:middle;fill:none;stroke:#ff0000;stroke-width:1.875;stroke-linejoin:round;stroke-miterlimit:4;stroke-dasharray:none;marker-end:url(#marker17082Q);font-family:'Helvetica, Arial, FreeSans, Sans, sans, sans-serif'" />
    <path
       id="path17458-0"
       d="M 316.27337,921.74807 292.06978,832.22503"
       inkscape:connector-curvature="0"
       style="text-anchor:middle;fill:none;stroke:#ff0000;stroke-width:1.875;stroke-linejoin:round;stroke-miterlimit:4;stroke-dasharray:none;marker-end:url(#marker17082d);font-family:'Helvetica, Arial, FreeSans, Sans, sans, sans-serif'" />
    <path
       id="path17460-3"
       d="m 292.06978,832.22503 -24.20359,89.52304"
       inkscape:connector-curvature="0"
       style="text-anchor:middle;fill:none;stroke:#ff0000;stroke-width:1.875;stroke-linejoin:round;stroke-miterlimit:4;stroke-dasharray:none;marker-end:url(#marker170827);font-family:'Helvetica, Arial, FreeSans, Sans, sans, sans-serif'" />
    <g
       id="g63057-9"
       transform="matrix(2.0365414,0,0,2.0365414,-171.09981,667.58324)"
       ns0:preamble="/home/true/Repositories/thesis/thesis/lib/preamble.tex"
       ns0:text="$\\theta_1$">
      <defs
         id="defs63059-3">
        <g
           id="g63061-5">
          <symbol
             id="textext-1250925a-0-1"
             overflow="visible"
             style="overflow:visible">
            <path
               id="path63064-5"
               d="m 4.53125,-4.984375 c 0,-0.65625 -0.171875,-2.046875 -1.1875,-2.046875 -1.390625,0 -2.921875,2.8125 -2.921875,5.09375 0,0.9375 0.28125,2.046875 1.1875,2.046875 1.40625,0 2.921875,-2.859375 2.921875,-5.09375 z M 1.46875,-3.625 C 1.640625,-4.25 1.84375,-5.046875 2.25,-5.765625 2.515625,-6.25 2.875,-6.8125 3.328125,-6.8125 c 0.484375,0 0.546875,0.640625 0.546875,1.203125 0,0.5 -0.078125,1 -0.3125,1.984375 z m 2,0.328125 C 3.359375,-2.84375 3.15625,-2 2.765625,-1.28125 c -0.34375,0.6875 -0.71875,1.171875 -1.15625,1.171875 -0.328125,0 -0.53125,-0.296875 -0.53125,-1.21875 0,-0.421875 0.0625,-1 0.3125,-1.96875 z m 0,0"
               style="stroke:none"
               inkscape:connector-curvature="0" />
          </symbol>
          <symbol
             id="textext-1250925a-1-8"
             overflow="visible"
             style="overflow:visible">
            <path
               id="path63067-0"
               d="m 2.328125,-4.4375 c 0,-0.1875 0,-0.1875 -0.203125,-0.1875 -0.453125,0.4375 -1.078125,0.4375 -1.359375,0.4375 l 0,0.25 c 0.15625,0 0.625,0 1,-0.1875 l 0,3.546875 c 0,0.234375 0,0.328125 -0.6875,0.328125 l -0.265625,0 0,0.25 c 0.125,0 0.984375,-0.03125 1.234375,-0.03125 0.21875,0 1.09375,0.03125 1.25,0.03125 l 0,-0.25 -0.265625,0 c -0.703125,0 -0.703125,-0.09375 -0.703125,-0.328125 z m 0,0"
               style="stroke:none"
               inkscape:connector-curvature="0" />
          </symbol>
        </g>
      </defs>
      <g
         id="textext-1250925a-2-2">
        <g
           id="g63070-2"
           style="fill:#000000;fill-opacity:1">
          <use
             id="use63072-9"
             y="134.765"
             x="223.43201"
             xlink:href="#textext-1250925a-0-1"
             width="744.09448"
             height="1052.3622" />
        </g>
        <g
           id="g63074-1"
           style="fill:#000000;fill-opacity:1">
          <use
             id="use63076-9"
             y="136.259"
             x="228.10899"
             xlink:href="#textext-1250925a-1-8"
             width="744.09448"
             height="1052.3622" />
        </g>
      </g>
    </g>
    <g
       ns0:text="$\\theta_2$"
       ns0:preamble="/home/true/Repositories/thesis/thesis/lib/preamble.tex"
       transform="matrix(2.0365414,0,0,2.0365414,-141.79927,605.73792)"
       id="g64071">
      <defs
         id="defs64073">
        <g
           id="g64075">
          <symbol
             style="overflow:visible"
             overflow="visible"
             id="textext-5a9167ab-0">
            <path
               inkscape:connector-curvature="0"
               style="stroke:none"
               d="m 4.53125,-4.984375 c 0,-0.65625 -0.171875,-2.046875 -1.1875,-2.046875 -1.390625,0 -2.921875,2.8125 -2.921875,5.09375 0,0.9375 0.28125,2.046875 1.1875,2.046875 1.40625,0 2.921875,-2.859375 2.921875,-5.09375 z M 1.46875,-3.625 C 1.640625,-4.25 1.84375,-5.046875 2.25,-5.765625 2.515625,-6.25 2.875,-6.8125 3.328125,-6.8125 c 0.484375,0 0.546875,0.640625 0.546875,1.203125 0,0.5 -0.078125,1 -0.3125,1.984375 z m 2,0.328125 C 3.359375,-2.84375 3.15625,-2 2.765625,-1.28125 c -0.34375,0.6875 -0.71875,1.171875 -1.15625,1.171875 -0.328125,0 -0.53125,-0.296875 -0.53125,-1.21875 0,-0.421875 0.0625,-1 0.3125,-1.96875 z m 0,0"
               id="path64078" />
          </symbol>
          <symbol
             style="overflow:visible"
             overflow="visible"
             id="textext-5a9167ab-1">
            <path
               inkscape:connector-curvature="0"
               style="stroke:none"
               d="m 3.515625,-1.265625 -0.234375,0 c -0.015625,0.15625 -0.09375,0.5625 -0.1875,0.625 -0.046875,0.046875 -0.578125,0.046875 -0.6875,0.046875 l -1.28125,0 c 0.734375,-0.640625 0.984375,-0.84375 1.390625,-1.171875 0.515625,-0.40625 1,-0.84375 1,-1.5 0,-0.84375 -0.734375,-1.359375 -1.625,-1.359375 -0.859375,0 -1.453125,0.609375 -1.453125,1.25 0,0.34375 0.296875,0.390625 0.375,0.390625 0.15625,0 0.359375,-0.125 0.359375,-0.375 0,-0.125 -0.046875,-0.375 -0.40625,-0.375 C 0.984375,-4.21875 1.453125,-4.375 1.78125,-4.375 c 0.703125,0 1.0625,0.546875 1.0625,1.109375 0,0.609375 -0.4375,1.078125 -0.65625,1.328125 L 0.515625,-0.265625 C 0.4375,-0.203125 0.4375,-0.1875 0.4375,0 l 2.875,0 z m 0,0"
               id="path64081" />
          </symbol>
        </g>
      </defs>
      <g
         id="textext-5a9167ab-2">
        <g
           style="fill:#000000;fill-opacity:1"
           id="g64084">
          <use
             height="1052.3622"
             width="744.09448"
             xlink:href="#textext-5a9167ab-0"
             x="223.43201"
             y="134.765"
             id="use64086" />
        </g>
        <g
           style="fill:#000000;fill-opacity:1"
           id="g64088">
          <use
             height="1052.3622"
             width="744.09448"
             xlink:href="#textext-5a9167ab-1"
             x="228.10899"
             y="136.259"
             id="use64090" />
        </g>
      </g>
    </g>
    <g
       ns0:text="$\\theta_2$"
       ns0:preamble="/home/true/Repositories/thesis/thesis/lib/preamble.tex"
       transform="matrix(2.0365414,0,0,2.0365414,-203.60681,604.83181)"
       id="g64071-8">
      <defs
         id="defs64073-8">
        <g
           id="g64075-8">
          <symbol
             style="overflow:visible"
             overflow="visible"
             id="textext-5a9167ab-0-8">
            <path
               inkscape:connector-curvature="0"
               style="stroke:none"
               d="m 4.53125,-4.984375 c 0,-0.65625 -0.171875,-2.046875 -1.1875,-2.046875 -1.390625,0 -2.921875,2.8125 -2.921875,5.09375 0,0.9375 0.28125,2.046875 1.1875,2.046875 1.40625,0 2.921875,-2.859375 2.921875,-5.09375 z M 1.46875,-3.625 C 1.640625,-4.25 1.84375,-5.046875 2.25,-5.765625 2.515625,-6.25 2.875,-6.8125 3.328125,-6.8125 c 0.484375,0 0.546875,0.640625 0.546875,1.203125 0,0.5 -0.078125,1 -0.3125,1.984375 z m 2,0.328125 C 3.359375,-2.84375 3.15625,-2 2.765625,-1.28125 c -0.34375,0.6875 -0.71875,1.171875 -1.15625,1.171875 -0.328125,0 -0.53125,-0.296875 -0.53125,-1.21875 0,-0.421875 0.0625,-1 0.3125,-1.96875 z m 0,0"
               id="path64078-3" />
          </symbol>
          <symbol
             style="overflow:visible"
             overflow="visible"
             id="textext-5a9167ab-1-4">
            <path
               inkscape:connector-curvature="0"
               style="stroke:none"
               d="m 3.515625,-1.265625 -0.234375,0 c -0.015625,0.15625 -0.09375,0.5625 -0.1875,0.625 -0.046875,0.046875 -0.578125,0.046875 -0.6875,0.046875 l -1.28125,0 c 0.734375,-0.640625 0.984375,-0.84375 1.390625,-1.171875 0.515625,-0.40625 1,-0.84375 1,-1.5 0,-0.84375 -0.734375,-1.359375 -1.625,-1.359375 -0.859375,0 -1.453125,0.609375 -1.453125,1.25 0,0.34375 0.296875,0.390625 0.375,0.390625 0.15625,0 0.359375,-0.125 0.359375,-0.375 0,-0.125 -0.046875,-0.375 -0.40625,-0.375 C 0.984375,-4.21875 1.453125,-4.375 1.78125,-4.375 c 0.703125,0 1.0625,0.546875 1.0625,1.109375 0,0.609375 -0.4375,1.078125 -0.65625,1.328125 L 0.515625,-0.265625 C 0.4375,-0.203125 0.4375,-0.1875 0.4375,0 l 2.875,0 z m 0,0"
               id="path64081-1" />
          </symbol>
        </g>
      </defs>
      <g
         id="textext-5a9167ab-2-7">
        <g
           style="fill:#000000;fill-opacity:1"
           id="g64084-2">
          <use
             height="1052.3622"
             width="744.09448"
             xlink:href="#textext-5a9167ab-0-8"
             x="223.43201"
             y="134.765"
             id="use64086-8" />
        </g>
        <g
           style="fill:#000000;fill-opacity:1"
           id="g64088-0">
          <use
             height="1052.3622"
             width="744.09448"
             xlink:href="#textext-5a9167ab-1-4"
             x="228.10899"
             y="136.259"
             id="use64090-4" />
        </g>
      </g>
    </g>
    <text
       sodipodi:linespacing="125%"
       id="text64313"
       y="975.57031"
       x="99.461983"
       style="font-size:40px;font-style:normal;font-weight:normal;line-height:125%;letter-spacing:0px;word-spacing:0px;fill:#000000;fill-opacity:1;stroke:none;font-family:Sans"
       xml:space="preserve"><tspan
         style="font-size:20px"
         y="975.57031"
         x="99.461983"
         id="tspan64315"
         sodipodi:role="line">SK1</tspan></text>
    <text
       sodipodi:linespacing="125%"
       id="text64313-5"
       y="975.57001"
       x="268.34161"
       style="font-size:40px;font-style:normal;font-weight:normal;line-height:125%;letter-spacing:0px;word-spacing:0px;fill:#000000;fill-opacity:1;stroke:none;font-family:Sans"
       xml:space="preserve"><tspan
         style="font-size:20px"
         y="975.57001"
         x="268.34161"
         id="tspan64315-3"
         sodipodi:role="line">ASK1</tspan></text>
    <path
       sodipodi:nodetypes="ccccccc"
       inkscape:connector-curvature="0"
       id="path95600"
       d="m 174.89924,872.40817 50.18166,0 0,-15.0354 15.03522,30.0704 -15.03522,30.0708 0,-15.0354 -50.18166,0"
       style="fill:none;stroke:#000000;stroke-width:1.5;stroke-linecap:butt;stroke-linejoin:miter;stroke-miterlimit:4;stroke-opacity:1;stroke-dasharray:none" />
    <path
       id="path17454-6-6"
       d="m 449.02563,920.75698 0,0"
       inkscape:connector-curvature="0"
       style="text-anchor:middle;fill:none;stroke:#000000;stroke-width:1.44224572;stroke-linejoin:round;stroke-miterlimit:4;stroke-dasharray:none;font-family:'Helvetica, Arial, FreeSans, Sans, sans, sans-serif'" />
    <path
       id="path17456-2-2"
       d="m 449.02563,920.75698 47.97663,0"
       inkscape:connector-curvature="0"
       style="text-anchor:middle;fill:none;stroke:#ff0000;stroke-width:1.875;stroke-linejoin:round;stroke-miterlimit:4;stroke-dasharray:none;marker-end:url(#marker17082Q);font-family:'Helvetica, Arial, FreeSans, Sans, sans, sans-serif'" />
    <path
       id="path17458-0-4"
       d="M 497.2267,921.7476 473.02311,832.22456"
       inkscape:connector-curvature="0"
       style="text-anchor:middle;fill:none;stroke:#ff0000;stroke-width:1.875;stroke-linejoin:round;stroke-miterlimit:4;stroke-dasharray:none;marker-end:url(#marker17082d);font-family:'Helvetica, Arial, FreeSans, Sans, sans, sans-serif'" />
    <path
       id="path17460-3-7"
       d="M 473.02311,832.22456 448.81952,921.7476"
       inkscape:connector-curvature="0"
       style="text-anchor:middle;fill:none;stroke:#ff0000;stroke-width:1.875;stroke-linejoin:round;stroke-miterlimit:4;stroke-dasharray:none;marker-end:url(#marker170827);font-family:'Helvetica, Arial, FreeSans, Sans, sans, sans-serif'" />
    <g
       id="g63057-9-2"
       transform="matrix(2.0365414,0,0,2.0365414,9.853517,667.58277)"
       ns0:preamble="/home/true/Repositories/thesis/thesis/lib/preamble.tex"
       ns0:text="$\\theta_1$">
      <defs
         id="defs63059-3-9">
        <g
           id="g63061-5-2">
          <symbol
             id="textext-1250925a-0-1-1"
             overflow="visible"
             style="overflow:visible">
            <path
               id="path63064-5-1"
               d="m 4.53125,-4.984375 c 0,-0.65625 -0.171875,-2.046875 -1.1875,-2.046875 -1.390625,0 -2.921875,2.8125 -2.921875,5.09375 0,0.9375 0.28125,2.046875 1.1875,2.046875 1.40625,0 2.921875,-2.859375 2.921875,-5.09375 z M 1.46875,-3.625 C 1.640625,-4.25 1.84375,-5.046875 2.25,-5.765625 2.515625,-6.25 2.875,-6.8125 3.328125,-6.8125 c 0.484375,0 0.546875,0.640625 0.546875,1.203125 0,0.5 -0.078125,1 -0.3125,1.984375 z m 2,0.328125 C 3.359375,-2.84375 3.15625,-2 2.765625,-1.28125 c -0.34375,0.6875 -0.71875,1.171875 -1.15625,1.171875 -0.328125,0 -0.53125,-0.296875 -0.53125,-1.21875 0,-0.421875 0.0625,-1 0.3125,-1.96875 z m 0,0"
               style="stroke:none"
               inkscape:connector-curvature="0" />
          </symbol>
          <symbol
             id="textext-1250925a-1-8-1"
             overflow="visible"
             style="overflow:visible">
            <path
               id="path63067-0-8"
               d="m 2.328125,-4.4375 c 0,-0.1875 0,-0.1875 -0.203125,-0.1875 -0.453125,0.4375 -1.078125,0.4375 -1.359375,0.4375 l 0,0.25 c 0.15625,0 0.625,0 1,-0.1875 l 0,3.546875 c 0,0.234375 0,0.328125 -0.6875,0.328125 l -0.265625,0 0,0.25 c 0.125,0 0.984375,-0.03125 1.234375,-0.03125 0.21875,0 1.09375,0.03125 1.25,0.03125 l 0,-0.25 -0.265625,0 c -0.703125,0 -0.703125,-0.09375 -0.703125,-0.328125 z m 0,0"
               style="stroke:none"
               inkscape:connector-curvature="0" />
          </symbol>
        </g>
      </defs>
      <g
         id="textext-1250925a-2-2-3">
        <g
           id="g63070-2-5"
           style="fill:#000000;fill-opacity:1">
          <use
             id="use63072-9-5"
             y="134.765"
             x="223.43201"
             xlink:href="#textext-1250925a-0-1-1"
             width="744.09448"
             height="1052.3622" />
        </g>
        <g
           id="g63074-1-0"
           style="fill:#000000;fill-opacity:1">
          <use
             id="use63076-9-7"
             y="136.259"
             x="228.10899"
             xlink:href="#textext-1250925a-1-8-1"
             width="744.09448"
             height="1052.3622" />
        </g>
      </g>
    </g>
    <g
       ns0:text="$\\theta_2$"
       ns0:preamble="/home/true/Repositories/thesis/thesis/lib/preamble.tex"
       transform="matrix(2.0365414,0,0,2.0365414,39.154057,605.73745)"
       id="g64071-5">
      <defs
         id="defs64073-3">
        <g
           id="g64075-6">
          <symbol
             style="overflow:visible"
             overflow="visible"
             id="textext-5a9167ab-0-7">
            <path
               inkscape:connector-curvature="0"
               style="stroke:none"
               d="m 4.53125,-4.984375 c 0,-0.65625 -0.171875,-2.046875 -1.1875,-2.046875 -1.390625,0 -2.921875,2.8125 -2.921875,5.09375 0,0.9375 0.28125,2.046875 1.1875,2.046875 1.40625,0 2.921875,-2.859375 2.921875,-5.09375 z M 1.46875,-3.625 C 1.640625,-4.25 1.84375,-5.046875 2.25,-5.765625 2.515625,-6.25 2.875,-6.8125 3.328125,-6.8125 c 0.484375,0 0.546875,0.640625 0.546875,1.203125 0,0.5 -0.078125,1 -0.3125,1.984375 z m 2,0.328125 C 3.359375,-2.84375 3.15625,-2 2.765625,-1.28125 c -0.34375,0.6875 -0.71875,1.171875 -1.15625,1.171875 -0.328125,0 -0.53125,-0.296875 -0.53125,-1.21875 0,-0.421875 0.0625,-1 0.3125,-1.96875 z m 0,0"
               id="path64078-8" />
          </symbol>
          <symbol
             style="overflow:visible"
             overflow="visible"
             id="textext-5a9167ab-1-42">
            <path
               inkscape:connector-curvature="0"
               style="stroke:none"
               d="m 3.515625,-1.265625 -0.234375,0 c -0.015625,0.15625 -0.09375,0.5625 -0.1875,0.625 -0.046875,0.046875 -0.578125,0.046875 -0.6875,0.046875 l -1.28125,0 c 0.734375,-0.640625 0.984375,-0.84375 1.390625,-1.171875 0.515625,-0.40625 1,-0.84375 1,-1.5 0,-0.84375 -0.734375,-1.359375 -1.625,-1.359375 -0.859375,0 -1.453125,0.609375 -1.453125,1.25 0,0.34375 0.296875,0.390625 0.375,0.390625 0.15625,0 0.359375,-0.125 0.359375,-0.375 0,-0.125 -0.046875,-0.375 -0.40625,-0.375 C 0.984375,-4.21875 1.453125,-4.375 1.78125,-4.375 c 0.703125,0 1.0625,0.546875 1.0625,1.109375 0,0.609375 -0.4375,1.078125 -0.65625,1.328125 L 0.515625,-0.265625 C 0.4375,-0.203125 0.4375,-0.1875 0.4375,0 l 2.875,0 z m 0,0"
               id="path64081-6" />
          </symbol>
        </g>
      </defs>
      <g
         id="textext-5a9167ab-2-8">
        <g
           style="fill:#000000;fill-opacity:1"
           id="g64084-5">
          <use
             height="1052.3622"
             width="744.09448"
             xlink:href="#textext-5a9167ab-0-7"
             x="223.43201"
             y="134.765"
             id="use64086-5" />
        </g>
        <g
           style="fill:#000000;fill-opacity:1"
           id="g64088-1">
          <use
             height="1052.3622"
             width="744.09448"
             xlink:href="#textext-5a9167ab-1-42"
             x="228.10899"
             y="136.259"
             id="use64090-6" />
        </g>
      </g>
    </g>
    <g
       ns0:text="$\\theta_2$"
       ns0:preamble="/home/true/Repositories/thesis/thesis/lib/preamble.tex"
       transform="matrix(2.0365414,0,0,2.0365414,-22.653483,604.83134)"
       id="g64071-8-1">
      <defs
         id="defs64073-8-5">
        <g
           id="g64075-8-4">
          <symbol
             style="overflow:visible"
             overflow="visible"
             id="textext-5a9167ab-0-8-3">
            <path
               inkscape:connector-curvature="0"
               style="stroke:none"
               d="m 4.53125,-4.984375 c 0,-0.65625 -0.171875,-2.046875 -1.1875,-2.046875 -1.390625,0 -2.921875,2.8125 -2.921875,5.09375 0,0.9375 0.28125,2.046875 1.1875,2.046875 1.40625,0 2.921875,-2.859375 2.921875,-5.09375 z M 1.46875,-3.625 C 1.640625,-4.25 1.84375,-5.046875 2.25,-5.765625 2.515625,-6.25 2.875,-6.8125 3.328125,-6.8125 c 0.484375,0 0.546875,0.640625 0.546875,1.203125 0,0.5 -0.078125,1 -0.3125,1.984375 z m 2,0.328125 C 3.359375,-2.84375 3.15625,-2 2.765625,-1.28125 c -0.34375,0.6875 -0.71875,1.171875 -1.15625,1.171875 -0.328125,0 -0.53125,-0.296875 -0.53125,-1.21875 0,-0.421875 0.0625,-1 0.3125,-1.96875 z m 0,0"
               id="path64078-3-9" />
          </symbol>
          <symbol
             style="overflow:visible"
             overflow="visible"
             id="textext-5a9167ab-1-4-1">
            <path
               inkscape:connector-curvature="0"
               style="stroke:none"
               d="m 3.515625,-1.265625 -0.234375,0 c -0.015625,0.15625 -0.09375,0.5625 -0.1875,0.625 -0.046875,0.046875 -0.578125,0.046875 -0.6875,0.046875 l -1.28125,0 c 0.734375,-0.640625 0.984375,-0.84375 1.390625,-1.171875 0.515625,-0.40625 1,-0.84375 1,-1.5 0,-0.84375 -0.734375,-1.359375 -1.625,-1.359375 -0.859375,0 -1.453125,0.609375 -1.453125,1.25 0,0.34375 0.296875,0.390625 0.375,0.390625 0.15625,0 0.359375,-0.125 0.359375,-0.375 0,-0.125 -0.046875,-0.375 -0.40625,-0.375 C 0.984375,-4.21875 1.453125,-4.375 1.78125,-4.375 c 0.703125,0 1.0625,0.546875 1.0625,1.109375 0,0.609375 -0.4375,1.078125 -0.65625,1.328125 L 0.515625,-0.265625 C 0.4375,-0.203125 0.4375,-0.1875 0.4375,0 l 2.875,0 z m 0,0"
               id="path64081-1-7" />
          </symbol>
        </g>
      </defs>
      <g
         id="textext-5a9167ab-2-7-0">
        <g
           style="fill:#000000;fill-opacity:1"
           id="g64084-2-5">
          <use
             height="1052.3622"
             width="744.09448"
             xlink:href="#textext-5a9167ab-0-8-3"
             x="223.43201"
             y="134.765"
             id="use64086-8-9" />
        </g>
        <g
           style="fill:#000000;fill-opacity:1"
           id="g64088-0-3">
          <use
             height="1052.3622"
             width="744.09448"
             xlink:href="#textext-5a9167ab-1-4-1"
             x="228.10899"
             y="136.259"
             id="use64090-4-7" />
        </g>
      </g>
    </g>
    <text
       sodipodi:linespacing="125%"
       id="text64313-5-9"
       y="975.56952"
       x="443.29495"
       style="font-size:40px;font-style:normal;font-weight:normal;line-height:125%;letter-spacing:0px;word-spacing:0px;fill:#000000;fill-opacity:1;stroke:none;font-family:Sans"
       xml:space="preserve"><tspan
         style="font-size:20px"
         y="975.56952"
         x="443.29495"
         id="tspan64315-3-8"
         sodipodi:role="line">TASK1</tspan></text>
    <path
       sodipodi:nodetypes="ccccccc"
       inkscape:connector-curvature="0"
       id="path95600-2"
       d="m 355.85257,872.4077 50.18166,0 0,-15.0354 15.03522,30.0704 -15.03522,30.0708 0,-15.0354 -50.18166,0"
       style="fill:none;stroke:#000000;stroke-width:1.5;stroke-linecap:butt;stroke-linejoin:miter;stroke-miterlimit:4;stroke-opacity:1;stroke-dasharray:none" />
    <path
       id="path17456-2-2-5"
       d="m 421.18849,941.16816 27.48054,-20.17405"
       inkscape:connector-curvature="0"
       style="text-anchor:middle;fill:none;stroke:#ff0000;stroke-width:1.875;stroke-linejoin:round;stroke-miterlimit:4;stroke-dasharray:none;marker-start:url(#Arrow2MstartK);marker-end:url(#marker17082Q-65y);font-family:'Helvetica, Arial, FreeSans, Sans, sans, sans-serif'"
       sodipodi:nodetypes="cc" />
  </g>
</svg>
