<?xml version="1.0" encoding="UTF-8" standalone="no"?>
<svg
   xmlns:ns0="http://www.iki.fi/pav/software/textext/"
   xmlns:dc="http://purl.org/dc/elements/1.1/"
   xmlns:cc="http://creativecommons.org/ns#"
   xmlns:rdf="http://www.w3.org/1999/02/22-rdf-syntax-ns#"
   xmlns:svg="http://www.w3.org/2000/svg"
   xmlns="http://www.w3.org/2000/svg"
   xmlns:sodipodi="http://sodipodi.sourceforge.net/DTD/sodipodi-0.dtd"
   xmlns:inkscape="http://www.inkscape.org/namespaces/inkscape"
   style="text-anchor:middle;fill:none;stroke:#000000;stroke-width:0.5pt;stroke-linejoin:round;font-family:'Helvetica, Arial, FreeSans, Sans, sans, sans-serif'"
   height="171"
   width="360"
   version="1.1"
   viewBox="0 0 60 28.5"
   id="svg2"
   inkscape:version="0.47 r22583"
   sodipodi:docname="CORPSE.svg">
  <sodipodi:namedview
     pagecolor="#ffffff"
     bordercolor="#666666"
     borderopacity="1"
     objecttolerance="10"
     gridtolerance="10"
     guidetolerance="10"
     inkscape:pageopacity="0"
     inkscape:pageshadow="2"
     inkscape:window-width="1280"
     inkscape:window-height="951"
     id="namedview55"
     showgrid="false"
     inkscape:zoom="1.5733333"
     inkscape:cx="330.13266"
     inkscape:cy="34.485568"
     inkscape:window-x="0"
     inkscape:window-y="24"
     inkscape:window-maximized="1"
     inkscape:current-layer="svg2"
     units="in" />
  <metadata
     id="metadata59">
    <rdf:RDF>
      <cc:Work
         rdf:about="">
        <dc:format>image/svg+xml</dc:format>
        <dc:type
           rdf:resource="http://purl.org/dc/dcmitype/StillImage" />
      </cc:Work>
    </rdf:RDF>
  </metadata>
  <defs
     id="defs57">
    <marker
       inkscape:stockid="Arrow1Mend"
       orient="auto"
       refY="0"
       refX="0"
       id="Arrow1Mend"
       style="overflow:visible">
      <path
         id="path3768"
         d="M 0,0 5,-5 -12.5,0 5,5 0,0 z"
         style="stroke:#000000;stroke-width:1pt;marker-start:none"
         transform="matrix(-0.4,0,0,-0.4,-4,0)" />
    </marker>
    <inkscape:perspective
       sodipodi:type="inkscape:persp3d"
       inkscape:vp_x="0 : 300 : 1"
       inkscape:vp_y="0 : 1000 : 0"
       inkscape:vp_z="600 : 300 : 1"
       inkscape:persp3d-origin="300 : 200 : 1"
       id="perspective61" />
    <inkscape:perspective
       id="perspective2946"
       inkscape:persp3d-origin="0.5 : 0.33333333 : 1"
       inkscape:vp_z="1 : 0.5 : 1"
       inkscape:vp_y="0 : 1000 : 0"
       inkscape:vp_x="0 : 0.5 : 1"
       sodipodi:type="inkscape:persp3d" />
    <marker
       inkscape:stockid="Arrow1Mendy"
       orient="auto"
       refY="0"
       refX="0"
       id="Arrow1Mendy"
       style="overflow:visible">
      <path
         id="path4212"
         d="M 0,0 5,-5 -12.5,0 5,5 0,0 z"
         style="fill:#ff0000;fill-rule:evenodd;stroke:#ff0000;stroke-width:1pt;marker-start:none"
         transform="matrix(-0.4,0,0,-0.4,-4,0)" />
    </marker>
    <marker
       inkscape:stockid="Arrow1Mendl"
       orient="auto"
       refY="0"
       refX="0"
       id="Arrow1Mendl"
       style="overflow:visible">
      <path
         id="path4478"
         d="M 0,0 5,-5 -12.5,0 5,5 0,0 z"
         style="fill:#ff6464;fill-rule:evenodd;stroke:#ff6464;stroke-width:1pt;marker-start:none"
         transform="matrix(-0.4,0,0,-0.4,-4,0)" />
    </marker>
    <marker
       inkscape:stockid="Arrow1MendyU"
       orient="auto"
       refY="0"
       refX="0"
       id="Arrow1MendyU"
       style="overflow:visible">
      <path
         id="path4749"
         d="M 0,0 5,-5 -12.5,0 5,5 0,0 z"
         style="fill:#ff6464;fill-rule:evenodd;stroke:#ff6464;stroke-width:1pt;marker-start:none"
         transform="matrix(-0.4,0,0,-0.4,-4,0)" />
    </marker>
    <marker
       inkscape:stockid="Arrow1Mendv"
       orient="auto"
       refY="0"
       refX="0"
       id="Arrow1Mendv"
       style="overflow:visible">
      <path
         id="path5028"
         d="M 0,0 5,-5 -12.5,0 5,5 0,0 z"
         style="fill:#0000ff;fill-rule:evenodd;stroke:#0000ff;stroke-width:1pt;marker-start:none"
         transform="matrix(-0.4,0,0,-0.4,-4,0)" />
    </marker>
    <inkscape:perspective
       id="perspective9989"
       inkscape:persp3d-origin="0.5 : 0.33333333 : 1"
       inkscape:vp_z="1 : 0.5 : 1"
       inkscape:vp_y="0 : 1000 : 0"
       inkscape:vp_x="0 : 0.5 : 1"
       sodipodi:type="inkscape:persp3d" />
    <marker
       inkscape:stockid="Arrow1Mend-1T"
       orient="auto"
       refY="0"
       refX="0"
       id="Arrow1Mend-1T"
       style="overflow:visible">
      <path
         id="path5799"
         d="M 0,0 5,-5 -12.5,0 5,5 0,0 z"
         style="fill:#0000ff;fill-rule:evenodd;stroke:#0000ff;stroke-width:1pt;marker-start:none"
         transform="matrix(-0.4,0,0,-0.4,-4,0)" />
    </marker>
    <marker
       style="overflow:visible"
       id="Arrow1Mend9"
       refX="0"
       refY="0"
       orient="auto"
       inkscape:stockid="Arrow1Mend9">
      <path
         transform="matrix(-0.4,0,0,-0.4,-4,0)"
         style="fill:#000000;fill-rule:evenodd;stroke:#000000;stroke-width:1pt;marker-start:none"
         d="M 0,0 5,-5 -12.5,0 5,5 0,0 z"
         id="path10879" />
    </marker>
    <marker
       style="overflow:visible"
       id="Arrow1Mendu"
       refX="0"
       refY="0"
       orient="auto"
       inkscape:stockid="Arrow1Mendu">
      <path
         transform="matrix(-0.4,0,0,-0.4,-4,0)"
         style="fill:#000000;fill-rule:evenodd;stroke:#000000;stroke-width:1pt;marker-start:none"
         d="M 0,0 5,-5 -12.5,0 5,5 0,0 z"
         id="path10882" />
    </marker>
    <marker
       inkscape:stockid="Arrow1Mend8"
       orient="auto"
       refY="0"
       refX="0"
       id="Arrow1Mend8"
       style="overflow:visible">
      <path
         id="path4111"
         d="M 0,0 5,-5 -12.5,0 5,5 0,0 z"
         style="fill:#ff0000;fill-rule:evenodd;stroke:#ff0000;stroke-width:1pt;marker-start:none"
         transform="matrix(-0.4,0,0,-0.4,-4,0)" />
    </marker>
    <marker
       style="overflow:visible"
       id="Arrow1Mend0"
       refX="0"
       refY="0"
       orient="auto"
       inkscape:stockid="Arrow1Mend0">
      <path
         transform="matrix(-0.4,0,0,-0.4,-4,0)"
         style="fill:#ff3232;fill-rule:evenodd;stroke:#ff3232;stroke-width:1pt;marker-start:none"
         d="M 0,0 5,-5 -12.5,0 5,5 0,0 z"
         id="path4754" />
    </marker>
    <marker
       inkscape:stockid="Arrow1MendX"
       orient="auto"
       refY="0"
       refX="0"
       id="Arrow1MendX"
       style="overflow:visible">
      <path
         id="path4108"
         d="M 0,0 5,-5 -12.5,0 5,5 0,0 z"
         style="fill:#ff6464;fill-rule:evenodd;stroke:#ff6464;stroke-width:1pt;marker-start:none"
         transform="matrix(-0.4,0,0,-0.4,-4,0)" />
    </marker>
    <marker
       inkscape:stockid="Arrow1MendZU"
       orient="auto"
       refY="0"
       refX="0"
       id="Arrow1MendZU"
       style="overflow:visible">
      <path
         id="path4114"
         d="M 0,0 5,-5 -12.5,0 5,5 0,0 z"
         style="fill:#ff6464;fill-rule:evenodd;stroke:#ff6464;stroke-width:1pt;marker-start:none"
         transform="matrix(-0.4,0,0,-0.4,-4,0)" />
    </marker>
    <marker
       refY="3.5999999"
       refX="1.5"
       markerUnits="strokeWidth"
       viewBox="0 0 10.5 7.2"
       id="arrowend-2"
       markerWidth="10.5"
       orient="auto"
       markerHeight="7.1999998"
       style="fill:#000000;stroke:none">
      <path
         d="M 1.5,3.6 0,0 10.5,3.6 0,7.2 1.5,3.6 z"
         id="path5924" />
    </marker>
    <marker
       refY="3.5999999"
       refX="1.5"
       markerUnits="strokeWidth"
       viewBox="0 0 10.5 7.2"
       id="marker10009"
       markerWidth="10.5"
       orient="auto"
       markerHeight="7.1999998"
       style="fill:#000000;stroke:none">
      <path
         d="M 1.5,3.6 0,0 10.5,3.6 0,7.2 1.5,3.6 z"
         id="path10011" />
    </marker>
    <marker
       refY="3.5999999"
       refX="1.5"
       markerUnits="strokeWidth"
       viewBox="0 0 10.5 7.2"
       id="marker10013"
       markerWidth="10.5"
       orient="auto"
       markerHeight="7.1999998"
       style="fill:#000000;stroke:none">
      <path
         d="M 1.5,3.6 0,0 10.5,3.6 0,7.2 1.5,3.6 z"
         id="path10015" />
    </marker>
    <marker
       inkscape:stockid="Arrow1Mend7"
       orient="auto"
       refY="0"
       refX="0"
       id="Arrow1Mend7"
       style="overflow:visible">
      <path
         id="path6395"
         d="M 0,0 5,-5 -12.5,0 5,5 0,0 z"
         style="fill:#ff0000;fill-rule:evenodd;stroke:#ff0000;stroke-width:1pt;marker-start:none"
         transform="matrix(-0.4,0,0,-0.4,-4,0)" />
    </marker>
    <marker
       inkscape:stockid="Arrow1MendO"
       orient="auto"
       refY="0"
       refX="0"
       id="Arrow1MendO"
       style="overflow:visible">
      <path
         id="path6463"
         d="M 0,0 5,-5 -12.5,0 5,5 0,0 z"
         style="fill:#ff6464;fill-rule:evenodd;stroke:#ff6464;stroke-width:1pt;marker-start:none"
         transform="matrix(-0.4,0,0,-0.4,-4,0)" />
    </marker>
    <marker
       inkscape:stockid="Arrow1MendX"
       orient="auto"
       refY="0"
       refX="0"
       id="marker10021"
       style="overflow:visible">
      <path
         id="path10023"
         d="M 0,0 5,-5 -12.5,0 5,5 0,0 z"
         style="fill:#ff6464;fill-rule:evenodd;stroke:#ff6464;stroke-width:1pt;marker-start:none"
         transform="matrix(-0.4,0,0,-0.4,-4,0)" />
    </marker>
    <marker
       style="overflow:visible"
       id="marker10025"
       refX="0"
       refY="0"
       orient="auto"
       inkscape:stockid="Arrow1Mend0">
      <path
         transform="matrix(-0.4,0,0,-0.4,-4,0)"
         style="fill:#ff3232;fill-rule:evenodd;stroke:#ff3232;stroke-width:1pt;marker-start:none"
         d="M 0,0 5,-5 -12.5,0 5,5 0,0 z"
         id="path10027" />
    </marker>
    <marker
       refY="3.5999999"
       refX="1.5"
       markerUnits="strokeWidth"
       viewBox="0 0 10.5 7.2"
       id="marker10029"
       markerWidth="10.5"
       orient="auto"
       markerHeight="7.1999998"
       style="fill:#000000;stroke:none">
      <path
         d="M 1.5,3.6 0,0 10.5,3.6 0,7.2 1.5,3.6 z"
         id="path10031" />
    </marker>
    <marker
       inkscape:stockid="Arrow1Mend-61a"
       orient="auto"
       refY="0"
       refX="0"
       id="Arrow1Mend-61a"
       style="overflow:visible">
      <path
         id="path8504"
         d="M 0,0 5,-5 -12.5,0 5,5 0,0 z"
         style="fill:#0000ff;fill-rule:evenodd;stroke:#0000ff;stroke-width:1pt;marker-start:none"
         transform="matrix(-0.4,0,0,-0.4,-4,0)" />
    </marker>
    <marker
       refY="3.5999999"
       refX="1.5"
       markerUnits="strokeWidth"
       viewBox="0 0 10.5 7.2"
       id="marker10035"
       markerWidth="10.5"
       orient="auto"
       markerHeight="7.1999998"
       style="fill:#000000;stroke:none">
      <path
         d="M 1.5,3.6 0,0 10.5,3.6 0,7.2 1.5,3.6 z"
         id="path10037" />
    </marker>
    <marker
       refY="3.5999999"
       refX="1.5"
       markerUnits="strokeWidth"
       viewBox="0 0 10.5 7.2"
       id="marker10039"
       markerWidth="10.5"
       orient="auto"
       markerHeight="7.1999998"
       style="fill:#000000;stroke:none">
      <path
         d="M 1.5,3.6 0,0 10.5,3.6 0,7.2 1.5,3.6 z"
         id="path10041" />
    </marker>
    <marker
       style="overflow:visible"
       id="Arrow1Mend4i"
       refX="0"
       refY="0"
       orient="auto"
       inkscape:stockid="Arrow1Mend4i">
      <path
         transform="matrix(-0.4,0,0,-0.4,-4,0)"
         style="fill:#ff0000;fill-rule:evenodd;stroke:#ff0000;stroke-width:1pt;marker-start:none"
         d="M 0,0 5,-5 -12.5,0 5,5 0,0 z"
         id="path4685" />
    </marker>
    <marker
       style="overflow:visible"
       id="Arrow1Mendn"
       refX="0"
       refY="0"
       orient="auto"
       inkscape:stockid="Arrow1Mendn">
      <path
         transform="matrix(-0.4,0,0,-0.4,-4,0)"
         style="fill:#ff6464;fill-rule:evenodd;stroke:#ff6464;stroke-width:1pt;marker-start:none"
         d="M 0,0 5,-5 -12.5,0 5,5 0,0 z"
         id="path4682" />
    </marker>
    <marker
       style="overflow:visible"
       id="Arrow1Mend4"
       refX="0"
       refY="0"
       orient="auto"
       inkscape:stockid="Arrow1Mend4">
      <path
         transform="matrix(-0.4,0,0,-0.4,-4,0)"
         style="fill:#ff6464;fill-rule:evenodd;stroke:#ff6464;stroke-width:1pt;marker-start:none"
         d="M 0,0 5,-5 -12.5,0 5,5 0,0 z"
         id="path4676" />
    </marker>
    <marker
       style="overflow:visible"
       id="Arrow1MendG"
       refX="0"
       refY="0"
       orient="auto"
       inkscape:stockid="Arrow1MendG">
      <path
         transform="matrix(-0.4,0,0,-0.4,-4,0)"
         style="fill:#ff6464;fill-rule:evenodd;stroke:#ff6464;stroke-width:1pt;marker-start:none"
         d="M 0,0 5,-5 -12.5,0 5,5 0,0 z"
         id="path4679" />
    </marker>
    <inkscape:perspective
       id="perspective10702"
       inkscape:persp3d-origin="0.5 : 0.33333333 : 1"
       inkscape:vp_z="1 : 0.5 : 1"
       inkscape:vp_y="0 : 1000 : 0"
       inkscape:vp_x="0 : 0.5 : 1"
       sodipodi:type="inkscape:persp3d" />
    <marker
       inkscape:stockid="Arrow1Mend9"
       orient="auto"
       refY="0"
       refX="0"
       id="Arrow1Mend9-7"
       style="overflow:visible">
      <path
         id="path10879-2"
         d="M 0,0 5,-5 -12.5,0 5,5 0,0 z"
         style="fill:#000000;fill-rule:evenodd;stroke:#000000;stroke-width:1pt;marker-start:none"
         transform="matrix(-0.4,0,0,-0.4,-4,0)" />
    </marker>
    <marker
       inkscape:stockid="Arrow1Mendu"
       orient="auto"
       refY="0"
       refX="0"
       id="Arrow1Mendu-6"
       style="overflow:visible">
      <path
         id="path10882-3"
         d="M 0,0 5,-5 -12.5,0 5,5 0,0 z"
         style="fill:#000000;fill-rule:evenodd;stroke:#000000;stroke-width:1pt;marker-start:none"
         transform="matrix(-0.4,0,0,-0.4,-4,0)" />
    </marker>
    <marker
       inkscape:stockid="Arrow1Mend-9q"
       orient="auto"
       refY="0"
       refX="0"
       id="Arrow1Mend-9q"
       style="overflow:visible">
      <path
         id="path7982"
         d="M 0,0 5,-5 -12.5,0 5,5 0,0 z"
         style="fill:#ff0000;fill-rule:evenodd;stroke:#ff0000;stroke-width:1pt;marker-start:none"
         transform="matrix(-0.4,0,0,-0.4,-4,0)" />
    </marker>
    <marker
       inkscape:stockid="Arrow1Mend-9C"
       orient="auto"
       refY="0"
       refX="0"
       id="Arrow1Mend-9C"
       style="overflow:visible">
      <path
         id="path8283"
         d="M 0,0 5,-5 -12.5,0 5,5 0,0 z"
         style="fill:#ff6464;fill-rule:evenodd;stroke:#ff6464;stroke-width:1pt;marker-start:none"
         transform="matrix(-0.4,0,0,-0.4,-4,0)" />
    </marker>
    <marker
       inkscape:stockid="Arrow1Mend-9y"
       orient="auto"
       refY="0"
       refX="0"
       id="Arrow1Mend-9y"
       style="overflow:visible">
      <path
         id="path8588"
         d="M 0,0 5,-5 -12.5,0 5,5 0,0 z"
         style="fill:#ff6464;fill-rule:evenodd;stroke:#ff6464;stroke-width:1pt;marker-start:none"
         transform="matrix(-0.4,0,0,-0.4,-4,0)" />
    </marker>
    <inkscape:perspective
       id="perspective3542"
       inkscape:persp3d-origin="0.5 : 0.33333333 : 1"
       inkscape:vp_z="1 : 0.5 : 1"
       inkscape:vp_y="0 : 1000 : 0"
       inkscape:vp_x="0 : 0.5 : 1"
       sodipodi:type="inkscape:persp3d" />
  </defs>
  <g
     style="text-anchor:middle;fill:none;stroke:#000000;stroke-width:0.5pt;stroke-linejoin:round;font-family:'Helvetica, Arial, FreeSans, Sans, sans, sans-serif'"
     id="g7843"
     transform="matrix(0.16666667,0,0,0.16666667,10.347733,-147.09207)">
    <g
       id="g7503"
       transform="matrix(1.4674682,0,0,-1.4674682,160.13934,1707.4254)"
       xml:space="preserve"
       stroke-miterlimit="10.433"
       fill-rule="even-odd"
       font-style="normal"
       font-variant="normal"
       font-weight="normal"
       font-stretch="normal"
       font-size-adjust="none"
       letter-spacing="normal"
       word-spacing="normal"
       ns0:text="$H_\\mathrm{x}$"
       ns0:preamble="/home/true/Documents/compensation-sequences/review-paper/figures/misc/preamble.tex"
       style="font-style:normal;font-variant:normal;font-weight:normal;font-stretch:normal;letter-spacing:normal;word-spacing:normal;text-anchor:start;fill:none;stroke:#000000;stroke-width:0.5pt;stroke-linecap:butt;stroke-linejoin:miter;stroke-miterlimit:10.43299961;stroke-opacity:1;stroke-dasharray:none;stroke-dashoffset:0;font-family:'Helvetica, Arial, FreeSans, Sans, sans, sans-serif'">
<path
   style="fill:#000000;stroke-width:0"
   d="m 79.602,491.24 0.008,0.03 0.008,0.04 0.008,0.03 0.007,0.02 0.008,0.03 0.009,0.03 0.008,0.02 0.01,0.03 0.01,0.02 0.011,0.02 0.012,0.02 0.013,0.01 0.014,0.02 0.016,0.02 0.018,0.01 0.019,0.02 0.021,0.01 0.023,0.01 0.025,0.01 0.028,0.01 0.03,0.01 0.032,0.01 0.017,0 0.018,0 0.019,0.01 0.019,0 0.021,0 0.02,0 0.022,0.01 0.023,0 0.023,0 0.024,0 0.025,0 0.026,0.01 0.027,0 0.028,0 0.028,0 0.03,0 0.031,0 0.031,0 0.033,0 0.033,0 c 0.259,0 0.339,0 0.339,0.2 0,0.11 -0.109,0.11 -0.139,0.11 -0.279,0 -0.997,-0.03 -1.276,-0.03 -0.289,0 -0.996,0.03 -1.285,0.03 -0.08,0 -0.189,0 -0.189,-0.2 0,-0.11 0.09,-0.11 0.279,-0.11 0.02,0 0.209,0 0.378,-0.02 0.18,-0.02 0.269,-0.03 0.269,-0.16 0,-0.04 -0.01,-0.06 -0.039,-0.19 l -0.598,-2.43 h -3.039 l 0.588,2.34 c 0.09,0.36 0.12,0.46 0.837,0.46 0.259,0 0.339,0 0.339,0.2 0,0.11 -0.11,0.11 -0.14,0.11 -0.279,0 -0.996,-0.03 -1.275,-0.03 -0.289,0 -0.996,0.03 -1.285,0.03 -0.08,0 -0.19,0 -0.19,-0.2 0,-0.11 0.09,-0.11 0.279,-0.11 0.02,0 0.21,0 0.379,-0.02 0.179,-0.02 0.269,-0.03 0.269,-0.16 0,-0.04 -0.01,-0.07 -0.04,-0.19 l -1.335,-5.35 c -0.099,-0.39 -0.119,-0.47 -0.906,-0.47 -0.18,0 -0.27,0 -0.27,-0.19 0,-0.12 0.12,-0.12 0.14,-0.12 0.279,0 0.986,0.03 1.265,0.03 0.21,0 0.429,0 0.638,0 0.219,0 0.438,-0.03 0.647,-0.03 0.08,0 0.2,0 0.2,0.2 0,0.11 -0.09,0.11 -0.279,0.11 -0.369,0 -0.648,0 -0.648,0.18 0,0.06 0.02,0.11 0.03,0.17 l 0.678,2.73 h 3.038 c -0.418,-1.65 -0.647,-2.6 -0.687,-2.75 -0.1,-0.32 -0.289,-0.33 -0.907,-0.33 -0.149,0 -0.239,0 -0.239,-0.19 0,-0.12 0.119,-0.12 0.14,-0.12 0.278,0 0.986,0.03 1.265,0.03 0.209,0 0.428,0 0.637,0 0.219,0 0.439,-0.03 0.648,-0.03 0.08,0 0.199,0 0.199,0.2 0,0.11 -0.09,0.11 -0.279,0.11 -0.368,0 -0.647,0 -0.647,0.18 0,0.06 0.02,0.11 0.03,0.17 z"
   id="path7505" />
<path
   style="fill:#000000;stroke-width:0"
   d="m 82.644,485.27 0,0.01 -0.001,0 0,0 -0.001,0 0,0 -10e-4,0 -0.001,0 0,0 -0.001,0 -10e-4,0 -0.002,0 -0.002,0.01 -0.002,0 -0.002,0 -0.002,0 -0.002,0.01 -0.003,0 -0.002,0 -0.003,0 -0.004,0.01 -0.005,0.01 -0.003,0 -0.002,0 -0.002,0 -0.002,0.01 -0.002,0 -0.002,0 -0.002,0 -10e-4,0.01 -0.001,0 0,0 -0.001,0 -10e-4,0 0,0 0,0 -0.001,0 0,0 0,0 -0.001,0 0,0 0,0 c 0,0.02 0.461,0.52 0.523,0.58 0.244,0.28 0.489,0.54 1.039,0.55 v 0.25 c -0.195,-0.02 -0.397,-0.03 -0.585,-0.03 -0.21,0 -0.481,0.01 -0.691,0.03 v -0.25 c 0.119,-0.02 0.14,-0.1 0.14,-0.16 0,-0.02 0,-0.12 -0.105,-0.24 l -0.488,-0.55 -0.579,0.66 c -0.07,0.08 -0.077,0.11 -0.077,0.14 0,0.1 0.098,0.15 0.189,0.15 v 0.25 c -0.258,-0.02 -0.523,-0.03 -0.781,-0.03 -0.21,0 -0.475,0.01 -0.677,0.03 v -0.25 c 0.321,0 0.502,0 0.684,-0.21 l 0.871,-1.01 c 0.007,0 0.056,-0.06 0.056,-0.07 0,-0.02 -0.523,-0.59 -0.593,-0.67 -0.258,-0.27 -0.495,-0.53 -1.053,-0.55 v -0.25 c 0.21,0.02 0.363,0.03 0.579,0.03 0.209,0 0.488,-0.01 0.698,-0.03 v 0.25 c -0.084,0.02 -0.14,0.07 -0.14,0.16 0,0.14 0.077,0.23 0.188,0.35 l 0.488,0.53 0.607,-0.69 c 0.133,-0.14 0.133,-0.16 0.133,-0.2 0,-0.14 -0.161,-0.15 -0.189,-0.15 v -0.25 c 0.063,0.01 0.565,0.03 0.789,0.03 0.223,0 0.446,-0.01 0.669,-0.03 v 0.25 c -0.467,0 -0.523,0.05 -0.683,0.23 z"
   id="path7507" />
</g>    <g
       style="font-style:normal;font-variant:normal;font-weight:normal;font-stretch:normal;letter-spacing:normal;word-spacing:normal;text-anchor:start;fill:none;stroke:#000000;stroke-width:0.5pt;stroke-linecap:butt;stroke-linejoin:miter;stroke-miterlimit:10.43299961;stroke-opacity:1;stroke-dasharray:none;stroke-dashoffset:0;font-family:'Helvetica, Arial, FreeSans, Sans, sans, sans-serif'"
       ns0:preamble="/home/true/Documents/compensation-sequences/review-paper/figures/misc/preamble.tex"
       ns0:text="$H_\\mathrm{y}$"
       word-spacing="normal"
       letter-spacing="normal"
       font-size-adjust="none"
       font-stretch="normal"
       font-weight="normal"
       font-variant="normal"
       font-style="normal"
       fill-rule="even-odd"
       stroke-miterlimit="10.433"
       xml:space="preserve"
       transform="matrix(1.4674682,0,0,-1.4674682,122.3773,1656.6597)"
       id="g6818">
<path
   id="path6820"
   d="m 79.602,491.24 0.008,0.03 0.008,0.04 0.008,0.03 0.007,0.02 0.008,0.03 0.009,0.03 0.008,0.02 0.01,0.03 0.01,0.02 0.011,0.02 0.012,0.02 0.013,0.01 0.014,0.02 0.016,0.02 0.018,0.01 0.019,0.02 0.021,0.01 0.023,0.01 0.025,0.01 0.028,0.01 0.03,0.01 0.032,0.01 0.017,0 0.018,0 0.019,0.01 0.019,0 0.021,0 0.02,0 0.022,0.01 0.023,0 0.023,0 0.024,0 0.025,0 0.026,0.01 0.027,0 0.028,0 0.028,0 0.03,0 0.031,0 0.031,0 0.033,0 0.033,0 c 0.259,0 0.339,0 0.339,0.2 0,0.11 -0.109,0.11 -0.139,0.11 -0.279,0 -0.997,-0.03 -1.276,-0.03 -0.289,0 -0.996,0.03 -1.285,0.03 -0.08,0 -0.189,0 -0.189,-0.2 0,-0.11 0.09,-0.11 0.279,-0.11 0.02,0 0.209,0 0.378,-0.02 0.18,-0.02 0.269,-0.03 0.269,-0.16 0,-0.04 -0.01,-0.06 -0.039,-0.19 l -0.598,-2.43 h -3.039 l 0.588,2.34 c 0.09,0.36 0.12,0.46 0.837,0.46 0.259,0 0.339,0 0.339,0.2 0,0.11 -0.11,0.11 -0.14,0.11 -0.279,0 -0.996,-0.03 -1.275,-0.03 -0.289,0 -0.996,0.03 -1.285,0.03 -0.08,0 -0.19,0 -0.19,-0.2 0,-0.11 0.09,-0.11 0.279,-0.11 0.02,0 0.21,0 0.379,-0.02 0.179,-0.02 0.269,-0.03 0.269,-0.16 0,-0.04 -0.01,-0.07 -0.04,-0.19 l -1.335,-5.35 c -0.099,-0.39 -0.119,-0.47 -0.906,-0.47 -0.18,0 -0.27,0 -0.27,-0.19 0,-0.12 0.12,-0.12 0.14,-0.12 0.279,0 0.986,0.03 1.265,0.03 0.21,0 0.429,0 0.638,0 0.219,0 0.438,-0.03 0.647,-0.03 0.08,0 0.2,0 0.2,0.2 0,0.11 -0.09,0.11 -0.279,0.11 -0.369,0 -0.648,0 -0.648,0.18 0,0.06 0.02,0.11 0.03,0.17 l 0.678,2.73 h 3.038 c -0.418,-1.65 -0.647,-2.6 -0.687,-2.75 -0.1,-0.32 -0.289,-0.33 -0.907,-0.33 -0.149,0 -0.239,0 -0.239,-0.19 0,-0.12 0.119,-0.12 0.14,-0.12 0.278,0 0.986,0.03 1.265,0.03 0.209,0 0.428,0 0.637,0 0.219,0 0.439,-0.03 0.648,-0.03 0.08,0 0.199,0 0.199,0.2 0,0.11 -0.09,0.11 -0.279,0.11 -0.368,0 -0.647,0 -0.647,0.18 0,0.06 0.02,0.11 0.03,0.17 z"
   style="fill:#000000;stroke-width:0" />
<path
   id="path6822"
   d="m 83.579,486.04 0.009,0.01 0.009,0.02 0.01,0.02 0.01,0.02 0.01,0.02 0.01,0.01 0.022,0.04 0.021,0.03 0.023,0.02 0.023,0.03 0.023,0.02 0.023,0.02 0.024,0.02 0.024,0.02 0.025,0.02 0.024,0.01 0.024,0.02 0.024,0.01 0.024,0.01 0.024,0.01 0.023,0.01 0.023,0.01 0.023,0 0.022,0.01 0.021,0 0.021,0.01 0.02,0 0.019,0 0.018,0 0.017,0 0.017,0.01 0.015,0 0.013,0 0.013,0 0.011,0 v 0.25 c -0.195,-0.02 -0.328,-0.03 -0.53,-0.03 -0.188,0 -0.446,0.01 -0.635,0.03 v -0.25 c 0.231,-0.02 0.286,-0.16 0.286,-0.27 0,-0.08 -0.034,-0.14 -0.062,-0.21 l -0.774,-1.66 -0.858,1.84 c -0.021,0.05 -0.042,0.09 -0.042,0.14 0,0.16 0.237,0.16 0.356,0.16 v 0.25 c -0.105,-0.01 -0.607,-0.03 -0.802,-0.03 -0.21,0 -0.482,0.01 -0.684,0.03 v -0.25 c 0.391,0 0.467,-0.02 0.572,-0.25 l 1.172,-2.51 c -0.063,-0.14 -0.133,-0.27 -0.196,-0.41 -0.153,-0.33 -0.376,-0.82 -0.85,-0.82 -0.175,0 -0.231,0.04 -0.3,0.09 0.007,0 0.202,0.07 0.202,0.3 0,0.17 -0.126,0.3 -0.3,0.3 -0.181,0 -0.307,-0.13 -0.307,-0.31 0,-0.33 0.328,-0.57 0.705,-0.57 0.592,0 0.934,0.62 1.032,0.83 z"
   style="fill:#000000;stroke-width:0" />
</g>    <g
       id="g6123"
       transform="matrix(1.4674682,0,0,-1.4674682,81.646814,1609.6953)"
       xml:space="preserve"
       stroke-miterlimit="10.433"
       fill-rule="even-odd"
       font-style="normal"
       font-variant="normal"
       font-weight="normal"
       font-stretch="normal"
       font-size-adjust="none"
       letter-spacing="normal"
       word-spacing="normal"
       ns0:text="$H_\\mathrm{z}$"
       ns0:preamble="/home/true/Documents/compensation-sequences/review-paper/figures/misc/preamble.tex"
       style="font-style:normal;font-variant:normal;font-weight:normal;font-stretch:normal;letter-spacing:normal;word-spacing:normal;text-anchor:start;fill:none;stroke:#000000;stroke-width:0.5pt;stroke-linecap:butt;stroke-linejoin:miter;stroke-miterlimit:10.43299961;stroke-opacity:1;stroke-dasharray:none;stroke-dashoffset:0;font-family:'Helvetica, Arial, FreeSans, Sans, sans, sans-serif'">
<path
   style="fill:#000000;stroke-width:0"
   d="m 79.602,491.24 0.008,0.03 0.008,0.04 0.008,0.03 0.007,0.02 0.008,0.03 0.009,0.03 0.008,0.02 0.01,0.03 0.01,0.02 0.011,0.02 0.012,0.02 0.013,0.01 0.014,0.02 0.016,0.02 0.018,0.01 0.019,0.02 0.021,0.01 0.023,0.01 0.025,0.01 0.028,0.01 0.03,0.01 0.032,0.01 0.017,0 0.018,0 0.019,0.01 0.019,0 0.021,0 0.02,0 0.022,0.01 0.023,0 0.023,0 0.024,0 0.025,0 0.026,0.01 0.027,0 0.028,0 0.028,0 0.03,0 0.031,0 0.031,0 0.033,0 0.033,0 c 0.259,0 0.339,0 0.339,0.2 0,0.11 -0.109,0.11 -0.139,0.11 -0.279,0 -0.997,-0.03 -1.276,-0.03 -0.289,0 -0.996,0.03 -1.285,0.03 -0.08,0 -0.189,0 -0.189,-0.2 0,-0.11 0.09,-0.11 0.279,-0.11 0.02,0 0.209,0 0.378,-0.02 0.18,-0.02 0.269,-0.03 0.269,-0.16 0,-0.04 -0.01,-0.06 -0.039,-0.19 l -0.598,-2.43 h -3.039 l 0.588,2.34 c 0.09,0.36 0.12,0.46 0.837,0.46 0.259,0 0.339,0 0.339,0.2 0,0.11 -0.11,0.11 -0.14,0.11 -0.279,0 -0.996,-0.03 -1.275,-0.03 -0.289,0 -0.996,0.03 -1.285,0.03 -0.08,0 -0.19,0 -0.19,-0.2 0,-0.11 0.09,-0.11 0.279,-0.11 0.02,0 0.21,0 0.379,-0.02 0.179,-0.02 0.269,-0.03 0.269,-0.16 0,-0.04 -0.01,-0.07 -0.04,-0.19 l -1.335,-5.35 c -0.099,-0.39 -0.119,-0.47 -0.906,-0.47 -0.18,0 -0.27,0 -0.27,-0.19 0,-0.12 0.12,-0.12 0.14,-0.12 0.279,0 0.986,0.03 1.265,0.03 0.21,0 0.429,0 0.638,0 0.219,0 0.438,-0.03 0.647,-0.03 0.08,0 0.2,0 0.2,0.2 0,0.11 -0.09,0.11 -0.279,0.11 -0.369,0 -0.648,0 -0.648,0.18 0,0.06 0.02,0.11 0.03,0.17 l 0.678,2.73 h 3.038 c -0.418,-1.65 -0.647,-2.6 -0.687,-2.75 -0.1,-0.32 -0.289,-0.33 -0.907,-0.33 -0.149,0 -0.239,0 -0.239,-0.19 0,-0.12 0.119,-0.12 0.14,-0.12 0.278,0 0.986,0.03 1.265,0.03 0.209,0 0.428,0 0.637,0 0.219,0 0.439,-0.03 0.648,-0.03 0.08,0 0.199,0 0.199,0.2 0,0.11 -0.09,0.11 -0.279,0.11 -0.368,0 -0.647,0 -0.647,0.18 0,0.06 0.02,0.11 0.03,0.17 z"
   id="path6125" />
<path
   style="fill:#000000;stroke-width:0"
   d="m 83.355,486.47 0.005,0.01 0.004,0.01 0.004,0 0.004,0.01 0.004,0 0.003,0.01 0.004,0 0.003,0 0.003,0.01 0.003,0 0.002,0.01 0.003,0 0.002,0 0.002,0.01 0.002,0 0.002,0.01 0.002,0 0.001,0 0.002,0.01 0.001,0 0.001,0 10e-4,0.01 0.001,0 0.001,0 10e-4,0.01 0.001,0 0,0.01 0.001,0 0,0 0,0.01 0,0 0,0.01 c 0,0.11 -0.083,0.11 -0.195,0.11 H 80.74 l -0.083,-1.17 h 0.237 c 0.048,0.74 0.209,0.97 1.004,0.97 h 0.823 l -2.106,-2.54 c -0.063,-0.08 -0.063,-0.11 -0.063,-0.14 0,-0.13 0.07,-0.13 0.195,-0.13 h 2.567 l 0.125,1.36 h -0.237 c -0.07,-0.82 -0.216,-1.13 -1.088,-1.13 h -0.858 z"
   id="path6127" />
</g>  </g>
  <path
     id="path4821"
     d="m 42.919605,15.345928 -5.330191,4.587623"
     style="fill:none;stroke:#0000ff;stroke-width:0.09160785;stroke-linecap:butt;stroke-linejoin:miter;stroke-miterlimit:4;stroke-opacity:1;stroke-dasharray:none;marker-end:url(#Arrow1Mendv)"
     sodipodi:nodetypes="cc" />
  <path
     style="color:#808080;fill:none;stroke:#000000;stroke-width:0.07328628pt;stroke-opacity:1"
     id="path6"
     d="m 30.700574,15.350178 0.04977,-1.101517 0.171742,-1.214109 0.34573,-1.363394 0.302682,-0.848044 0.332827,-0.758293 L 32.312051,9.286398 32.791305,8.5162325 33.424161,7.6614946 34.1035,6.8915 l 0.576202,-0.5619592 0.86402,-0.7187674 0.881634,-0.6083495 0.819243,-0.4706689 0.838982,-0.3998255 0.948813,-0.362645 0.700177,-0.2116263 1.045624,-0.2335146 1.269563,-0.1575166 0.83688,-0.03078 1.035389,0.041382 1.411396,0.1999982 1.096338,0.2746037 1.440833,0.5335486 1.041227,0.5227755 0.964008,0.6038301 0.710853,0.5320828 0.748277,0.6557901 0.859843,0.9059895 0.423229,0.5227266 0.733791,1.0729845 0.365674,0.6443086 0.389272,0.8074438 0.381724,0.986531 0.285914,0.979154 0.170098,0.802973 0.121899,0.870519 0.06317,1.049973 -0.02504,1.016407 -0.06354,0.674136 -0.143201,0.894313 -0.159129,0.695047 -0.28865,0.950181 -0.28975,0.750354 -0.347401,0.747276 -0.617535,1.078945 -0.720697,1.00644 -0.654202,0.756388 -0.473869,0.477509 -0.836637,0.72827 -0.721137,0.530422 -0.707579,0.446851 -0.90616,0.479854 -0.98443,0.417658 -1.024347,0.331914 -1.222708,0.270842 -0.742659,0.101623 -1.048654,0.0654 -0.948324,-0.01857 -0.914931,-0.08814 -0.885444,-0.152411 -1.011156,-0.258187 -0.711512,-0.238498 -1.213743,-0.525121 -0.861358,-0.473649 -1.077113,-0.731055 -0.893824,-0.748864 -0.702473,-0.70306 -0.659772,-0.779399 -0.627397,-0.885909 -0.522397,-0.892823 -0.376144,-0.775198 -0.249596,-0.607958 -0.29958,-0.891577 -0.240989,-0.964081 -0.124736,-0.70582 -0.100157,-0.93015 -0.02903,-0.841644 z" />
  <g
     id="g27"
     transform="matrix(0.24428761,0,0,0.24428761,30.700574,3.1357979)">
    <defs
       id="defs29">
      <marker
         style="fill:#000000;stroke:none"
         markerHeight="7.1999998"
         orient="auto"
         markerWidth="10.5"
         id="marker31"
         viewBox="0 0 10.5 7.2"
         markerUnits="strokeWidth"
         refX="1.5"
         refY="3.5999999">
        <path
           id="path33"
           d="M 1.5,3.6 0,0 10.5,3.6 0,7.2 1.5,3.6 z" />
      </marker>
    </defs>
    <path
       style="stroke:#000000;stroke-width:0.3pt;marker-end:url(#arrowend)"
       id="path35"
       d="M 50,50 50.013242,7.594003"
       sodipodi:nodetypes="cc" />
  </g>
  <path
     style="color:#808080;fill:none;stroke:#000000;stroke-width:0.07328628pt;stroke-opacity:1"
     id="path47"
     d="m 48.377396,10.890122 0.675187,0.14882 0.650978,0.165847 0.624203,0.182189 0.594914,0.197849 0.563327,0.212701 0.529518,0.226723 0.493583,0.239842 0.455719,0.252032 0.416046,0.263219 0.374761,0.273358 0.331987,0.282421 0.287869,0.29036 0.242651,0.297201 0.196456,0.302819 0.149504,0.30724 0.101941,0.31049 0.05401,0.312492 0.0058,0.31325 -0.04236,0.312786 -0.09039,0.311076 -0.138071,0.308145 -0.18517,0.303991 -0.23156,0.298666 -0.277047,0.292119 -0.321434,0.284449 -0.36455,0.275654 -0.406226,0.26576 -0.446313,0.254817 -0.484594,0.24287 -0.521016,0.229997 -0.555339,0.21617 -0.587512,0.201489 -0.617339,0.186049 -0.644748,0.169853 -0.669568,0.152998 -0.691798,0.13553 -0.711293,0.117527 -0.727952,0.09906 -0.741731,0.0802 -0.752626,0.06105 -0.760516,0.04163 -0.765426,0.02199 -0.767307,0.0024 -0.76616,-0.01734 -0.761982,-0.03689 -0.754799,-0.05638 -0.744662,-0.07558 -0.731544,-0.09454 -0.715567,-0.113105 -0.696757,-0.131231 -0.675187,-0.14882 -0.650978,-0.165847 -0.624203,-0.18219 -0.594914,-0.197849 -0.563327,-0.212701 -0.529518,-0.226723 -0.493583,-0.239842 -0.455716,-0.252031 -0.416061,-0.26322 -0.374757,-0.273358 -0.331972,-0.282421 -0.287878,-0.29036 -0.242651,-0.2972 -0.196461,-0.302819 -0.149501,-0.307241 -0.101948,-0.310489 -0.05399,-0.312493 -0.0058,-0.31325 0.04237,-0.312786 0.09039,-0.311076 0.138057,-0.308144 0.18518,-0.303992 0.23157,-0.298666 0.277046,-0.292119 0.321431,-0.284448 0.364548,-0.275654 0.406224,-0.265761 0.446308,-0.254816 0.484594,-0.242871 0.521016,-0.229997 0.555339,-0.21617 0.587512,-0.201488 0.617339,-0.18605 0.644748,-0.169853 0.669568,-0.152997 0.691798,-0.135531 0.711293,-0.117527 0.727952,-0.09906 0.741731,-0.0802 0.752626,-0.06105 0.760516,-0.04163 0.765426,-0.02199 0.767307,-0.0024 0.76616,0.01734 0.761982,0.03689 0.754799,0.05638 0.744662,0.07558 0.731544,0.09454 0.715567,0.113105 0.696757,0.131232 z" />
  <path
     style="color:#ff0000;fill:none;stroke:#ff0000;stroke-width:0.07328628pt;stroke-opacity:1;marker-end:url(#Arrow1Mendy)"
     id="path49"
     d="M 42.914954,4.2000124 42.5495,4.5262585 42.190715,4.9026569 41.840187,5.3274975 41.499552,5.7988016 41.170399,6.3144438 40.854193,6.8720303 40.5524,7.4690204 40.266388,8.1026536 39.997525,8.7700718 39.746984,9.468148 l -0.231047,0.725583 -0.210479,0.749768 -0.188956,0.770458 -0.16658,0.787657 -0.143445,0.801214 -0.119604,0.811133 -0.09527,0.817289 -0.07045,0.819731 -0.04537,0.818412 -0.02001,0.813307 0.0054,0.804488 0.0308,0.792005 0.05604,0.775833 0.08103,0.756143 0.105654,0.732985 0.12979,0.706431 0.15334,0.676677 0.17618,0.643796 0.198215,0.607983 0.219321,0.569336 0.239451,0.528126 0.258481,0.484471 0.276289,0.438594 0.292852,0.390689 0.308096,0.341025 0.321897,0.289774 0.33421,0.237228 0.345008,0.183533 0.354241,0.129058 0.361839,0.07395 0.367751,0.01857 0.372001,-0.03699 0.374517,-0.09237 0.375348,-0.147281 0.374468,-0.201537 0.371831,-0.254866 0.367481,-0.306996 0.361497,-0.357783 0.353826,-0.406861 0.344519,-0.454107 0.333648,-0.499275 0.321239,-0.542147 0.307387,-0.582504 0.29207,-0.620222 0.275459,-0.655081 0.257552,-0.686962 0.238474,-0.71564 0.218319,-0.741096 0.197165,-0.763081 0.175056,-0.781622 0.152216,-0.796573 0.128617,-0.807835 0.104458,-0.815432 0.07981,-0.819267 0.05482,-0.819341 0.02953,-0.815652 0.0042,-0.808226 -0.02128,-0.79711 -0.04659,-0.782331 -0.0717,-0.763961 -0.09647,-0.7420478 -0.1208,-0.7167887 L 49.035703,8.544179 48.867999,7.8877049 48.677944,7.2659441 48.466439,6.6817791 48.234415,6.1378972 47.982945,5.63679 47.713203,5.1807295 47.426385,4.7718409 47.123859,4.4119808 46.806994,4.1028104 46.477205,3.8457221 46.136058,3.6419374 45.78509,3.4923601 l -0.359152,-0.094686 -0.365723,-0.03933 -0.370609,0.016123 -0.373784,0.071625 -0.37525,0.1267364 -0.375006,0.1812614 -0.373003,0.2349803 -0.369314,0.2875998 -0.36394,0.3389002 -0.356904,0.3886616 -0.348208,0.4366152 -0.337898,0.4825658 -0.326075,0.526342 -0.312737,0.5676756 -0.297982,0.6063951" />
  <path
     style="color:#ff0000;fill:none;stroke:#ff6464;stroke-width:0.07328628pt;stroke-opacity:1;marker-end:url(#Arrow1Mendl)"
     id="path51"
     d="m 40.479505,7.623801 0.300913,-0.4948534 0.305018,-0.4697407 0.308193,-0.4431377 0.310367,-0.4151179 0.311589,-0.3858279 0.311809,-0.3552919 0.311027,-0.3236322 0.309317,-0.2909954 0.306581,-0.2573814 0.302892,-0.2229858 0.298275,-0.187906 0.292681,-0.1521912 0.286183,-0.1160366 0.278781,-0.079491 0.2705,-0.042701 0.261363,-0.00586 0.251421,0.031147 0.240648,0.06801 0.229141,0.1046528 0.216903,0.1409295 0.204005,0.176791 0.190422,0.2120905 0.176278,0.246706 0.161548,0.2805644 0.146328,0.3135431 0.13062,0.3455204 0.114547,0.3763983 0.09808,0.4060793 0.0813,0.4345388 0.06427,0.4615571 0.04707,0.4871827 0.02966,0.5112207 0.01221,0.5336707 -0.0053,0.5544352 -0.02279,0.5734407 -0.04021,0.5906629 -0.05753,0.606004 -0.07463,0.61944 -0.09151,0.630922 -0.108097,0.640424 -0.124342,0.647875 -0.140197,0.653323 -0.155611,0.656694 -0.170537,0.657964 -0.184926,0.657207 -0.198704,0.654374 -0.211919,0.649438 -0.224403,0.642501 -0.236201,0.633487 -0.247268,0.622518 -0.257553,0.609595 -0.266982,0.594694 -0.275629,0.57796 -0.283374,0.559419 -0.290238,0.539069 -0.296174,0.517035 -0.301207,0.493387 -0.305237,0.468153 -0.308365,0.441477 -0.310465,0.413408 -0.311613,0.383995 -0.311784,0.353411 -0.310978,0.321703 -0.309146,0.288967 -0.30641,0.25533 -0.302648,0.220885 -0.297958,0.185756 -0.292314,0.150017 -0.285768,0.113814 -0.278292,0.07729 -0.269987,0.04045 -0.260777,0.0034 -0.250786,-0.03339 -0.239964,-0.07023 -0.228433,-0.106852 -0.216146,-0.143104 -0.203174,-0.17894 -0.189591,-0.214216 -0.175399,-0.248783 -0.160643,-0.282591 -0.1454,-0.315498 -0.129668,-0.347426 -0.113545,-0.37823 -0.09708,-0.407838 -0.08027,-0.4362 -0.06325,-0.46317 -0.046,-0.488673 -0.02863,-0.512637 -0.01114,-0.534966 0.0064,-0.555632 0.02387,-0.57454 0.04126,-0.591664 0.05856,-0.60686 0.07565,-0.620197 0.09251,-0.631557 0.109099,-0.640913 0.12532,-0.648266 0.141149,-0.653591 0.156515,-0.656816 0.171441,-0.657989" />
  <g
     id="g8"
     transform="matrix(0.24428761,0,0,0.24428761,30.700574,3.1357979)">
    <defs
       id="defs10">
      <marker
         style="fill:#000000;stroke:none"
         markerHeight="7.1999998"
         orient="auto"
         markerWidth="10.5"
         id="arrowend"
         viewBox="0 0 10.5 7.2"
         markerUnits="strokeWidth"
         refX="1.5"
         refY="3.5999999">
        <path
           id="path13"
           d="M 1.5,3.6 0,0 10.5,3.6 0,7.2 1.5,3.6 z" />
      </marker>
    </defs>
    <path
       style="stroke:#000000;stroke-width:0.3pt;marker-end:url(#arrowend)"
       id="path15"
       d="m 50,50 41.576538,8.400416"
       sodipodi:nodetypes="cc" />
  </g>
  <path
     style="color:#ff0000;fill:none;stroke:#ff6464;stroke-width:0.07328628pt;stroke-opacity:1;marker-end:url(#Arrow1MendyU)"
     id="path53"
     d="m 37.534984,14.810645 -0.0053,0.05203 -0.0052,0.05206 -0.005,0.05206 -0.005,0.05208 -0.0048,0.05208 -0.0047,0.05208 -0.0046,0.05208 -0.0045,0.05208 -0.0044,0.05211 -0.0043,0.05208 -0.0042,0.05211 -0.0042,0.05208 -0.004,0.05208 -0.004,0.05211 -0.0038,0.05208 -0.0037,0.05208 -0.0036,0.05208 -0.0035,0.05206 -0.0034,0.05206 -0.0033,0.05206 -0.0032,0.05206 -0.0031,0.05203 -0.003,0.05203 -0.0029,0.05201 -0.0028,0.05199 -0.0027,0.05198 -0.0026,0.05199 -0.0025,0.05196 -0.0024,0.05193 -0.0023,0.05191 -0.0022,0.05191 -0.0021,0.05189 -0.002,0.05186 -0.0019,0.05184 -0.0018,0.05181 -0.0017,0.05179 -0.0016,0.05176 -0.0015,0.05177 -0.0014,0.05171 -0.0013,0.05169 -0.0012,0.05167 -0.0011,0.05162 -10e-4,0.05162 -9.04e-4,0.05157 -7.81e-4,0.05154 -6.84e-4,0.0515 -5.87e-4,0.05147 -4.88e-4,0.05145 -3.91e-4,0.0514 -2.69e-4,0.05137 -1.95e-4,0.05132 -7.3e-5,0.0513 2.4e-5,0.05125 1.22e-4,0.0512 2.44e-4,0.05118 3.18e-4,0.05113 4.4e-4,0.05108 5.37e-4,0.05103 6.35e-4,0.05101 7.33e-4,0.05093 8.55e-4,0.05091 9.53e-4,0.05086 10e-4,0.05081 0.0011,0.05074 0.0013,0.05071 0.0013,0.05064 0.0015,0.05062 0.0015,0.05054 0.0017,0.05049 0.0018,0.05044 0.0019,0.05037 0.002,0.05032 0.0021,0.05027 0.0022,0.0502 0.0023,0.05015 0.0024,0.05008 0.0025,0.05003 0.0026,0.04996 0.0027,0.04988 0.0028,0.04984 0.0029,0.04978 0.003,0.04969 0.0031,0.04964 0.0032,0.04957 0.0033,0.04949 0.0034,0.04942 0.0035,0.04937 0.0036,0.04927 0.0037,0.04922 0.0038,0.04913 0.0039,0.04908 0.004,0.04898 0.0041,0.04891 0.0042,0.04883 0.0043,0.04876 0.0044,0.04869 0.0045,0.04859 0.0046,0.04851 0.0047,0.04844 0.0048,0.04834" />
  <g
     id="g17"
     transform="matrix(0.24428761,0,0,0.24428761,30.700574,3.1357979)">
    <defs
       id="defs19">
      <marker
         style="fill:#000000;stroke:none"
         markerHeight="7.1999998"
         orient="auto"
         markerWidth="10.5"
         id="marker21"
         viewBox="0 0 10.5 7.2"
         markerUnits="strokeWidth"
         refX="1.5"
         refY="3.5999999">
        <path
           id="path23"
           d="M 1.5,3.6 0,0 10.5,3.6 0,7.2 1.5,3.6 z" />
      </marker>
    </defs>
    <path
       style="stroke:#000000;stroke-width:0.3pt;marker-end:url(#arrowend)"
       id="path25"
       d="M 50,50 69.897776,33.755312"
       sodipodi:nodetypes="cc" />
  </g>
  <g
     id="g5675"
     transform="matrix(0.24386639,0,0,-0.24386639,11.652357,165.87468)"
     xml:space="preserve"
     stroke-miterlimit="10.433"
     fill-rule="even-odd"
     font-style="normal"
     font-variant="normal"
     font-weight="normal"
     font-stretch="normal"
     font-size-adjust="none"
     letter-spacing="normal"
     word-spacing="normal"
     ns0:text="b)"
     ns0:preamble="/home/jtmerrill/Repositories/compensation-sequences/review-paper/figures/misc/preamble.tex"
     style="font-style:normal;font-variant:normal;font-weight:normal;font-stretch:normal;letter-spacing:normal;word-spacing:normal;text-anchor:start;fill:none;stroke:#000000;stroke-width:0.5pt;stroke-linecap:butt;stroke-linejoin:miter;stroke-miterlimit:10.43299961;stroke-opacity:1;stroke-dasharray:none;stroke-dashoffset:0;font-family:'Helvetica, Arial, FreeSans, Sans, sans, sans-serif'">
<path
   style="fill:#000000;stroke-width:0"
   d="m 73.714,668.96 v 3.16 l -1.435,-0.11 v -0.31 c 0.697,0 0.777,-0.07 0.777,-0.56 v -5.93 h 0.249 c 0.01,0.01 0.09,0.14 0.359,0.61 0.149,-0.23 0.568,-0.73 1.305,-0.73 l -0.04,0.23 c -0.448,0 -0.807,0.23 -1.046,0.6 -0.14,0.21 -0.14,0.24 -0.14,0.42 h 0 v 2.05 c 0,0.19 0,0.2 0.11,0.36 0.389,0.56 0.936,0.64 1.176,0.64 0.448,0 0.807,-0.26 1.046,-0.64 0.259,-0.41 0.289,-0.97 0.289,-1.38 0,-0.37 -0.02,-0.97 -0.309,-1.42 -0.209,-0.31 -0.588,-0.63 -1.126,-0.63 l 0.04,-0.23 c 1.185,0 2.221,0.98 2.221,2.27 0,1.26 -0.976,2.25 -2.112,2.25 -0.777,0 -1.205,-0.47 -1.364,-0.65 z"
   id="path5677" />
<path
   style="fill:#000000;stroke-width:0"
   d="m 80.414,667.7 0,0.07 -0.001,0.08 -0.002,0.08 -0.003,0.08 -0.008,0.16 -0.011,0.18 -0.017,0.18 -0.021,0.19 -0.027,0.2 -0.033,0.2 -0.039,0.2 -0.046,0.21 -0.054,0.21 -0.061,0.21 -0.07,0.22 -0.079,0.21 -0.042,0.11 -0.046,0.1 -0.047,0.11 -0.05,0.1 c -0.598,1.23 -1.455,1.88 -1.555,1.88 -0.059,0 -0.099,-0.04 -0.099,-0.1 0,-0.03 0,-0.05 0.189,-0.23 0.977,-0.99 1.544,-2.57 1.544,-4.65 0,-1.71 -0.368,-3.46 -1.604,-4.72 -0.129,-0.12 -0.129,-0.14 -0.129,-0.17 0,-0.06 0.04,-0.1 0.099,-0.1 0.1,0 0.997,0.68 1.585,1.95 0.508,1.09 0.627,2.2 0.627,3.04 z"
   id="path5679" />
</g>  <g
     id="g10884"
     transform="translate(-10.999999,0)">
    <g
       id="g5290"
       transform="matrix(0.24386639,0,0,-0.24386639,-1.6534292,165.86711)"
       xml:space="preserve"
       stroke-miterlimit="10.433"
       fill-rule="even-odd"
       font-style="normal"
       font-variant="normal"
       font-weight="normal"
       font-stretch="normal"
       font-size-adjust="none"
       letter-spacing="normal"
       word-spacing="normal"
       ns0:text="a)"
       ns0:preamble="/home/jtmerrill/Repositories/compensation-sequences/review-paper/figures/misc/preamble.tex"
       style="font-style:normal;font-variant:normal;font-weight:normal;font-stretch:normal;letter-spacing:normal;word-spacing:normal;text-anchor:start;fill:none;stroke:#000000;stroke-width:0.5pt;stroke-linecap:butt;stroke-linejoin:miter;stroke-miterlimit:10.43299961;stroke-opacity:1;stroke-dasharray:none;stroke-dashoffset:0;font-family:'Helvetica, Arial, FreeSans, Sans, sans, sans-serif'">
<path
   style="fill:#000000;stroke-width:0"
   d="m 75.318,665.96 0.004,-0.04 0.006,-0.03 0.007,-0.04 0.008,-0.04 0.01,-0.03 0.011,-0.04 0.012,-0.04 0.014,-0.03 0.015,-0.04 0.016,-0.03 0.018,-0.04 0.018,-0.03 0.021,-0.03 0.021,-0.04 0.023,-0.03 0.023,-0.03 0.026,-0.02 0.026,-0.03 0.028,-0.03 0.028,-0.02 0.031,-0.02 0.031,-0.03 0.032,-0.02 0.034,-0.01 0.035,-0.02 0.036,-0.01 0.038,-0.02 0.038,-0.01 0.04,0 0.041,-0.01 0.042,0 0.044,0 c 0.209,0 0.817,0.13 0.817,0.94 v 0.56 h -0.25 v -0.56 c 0,-0.58 -0.249,-0.64 -0.358,-0.64 -0.329,0 -0.369,0.45 -0.369,0.5 v 2 c 0,0.41 0,0.8 -0.358,1.17 -0.389,0.39 -0.887,0.55 -1.365,0.55 -0.817,0 -1.505,-0.47 -1.505,-1.13 0,-0.3 0.2,-0.47 0.459,-0.47 0.279,0 0.458,0.2 0.458,0.46 0,0.12 -0.05,0.45 -0.508,0.46 0.269,0.35 0.757,0.46 1.076,0.46 0.488,0 1.056,-0.39 1.056,-1.28 v -0.37 -0.2 -1 c 0,-0.95 -0.717,-1.28 -1.166,-1.28 -0.488,0 -0.896,0.34 -0.896,0.84 0,0.55 0.418,1.38 2.062,1.44 h 0 v 0.2 c -0.508,-0.02 -1.206,-0.06 -1.833,-0.35 -0.747,-0.34 -0.997,-0.86 -0.997,-1.3 0,-0.81 0.967,-1.06 1.594,-1.06 0.658,0 1.116,0.4 1.306,0.87 z"
   id="path5292" />
<path
   style="fill:#000000;stroke-width:0"
   d="m 79.859,667.7 0,0.07 -10e-4,0.08 -0.002,0.08 -0.003,0.08 -0.008,0.16 -0.011,0.18 -0.017,0.18 -0.021,0.19 -0.027,0.2 -0.033,0.2 -0.039,0.2 -0.046,0.21 -0.054,0.21 -0.061,0.21 -0.07,0.22 -0.079,0.21 -0.042,0.11 -0.046,0.1 -0.047,0.11 -0.05,0.1 c -0.598,1.23 -1.455,1.88 -1.555,1.88 -0.059,0 -0.099,-0.04 -0.099,-0.1 0,-0.03 0,-0.05 0.189,-0.23 0.977,-0.99 1.544,-2.57 1.544,-4.65 0,-1.71 -0.368,-3.46 -1.604,-4.72 -0.129,-0.12 -0.129,-0.14 -0.129,-0.17 0,-0.06 0.04,-0.1 0.099,-0.1 0.1,0 0.997,0.68 1.585,1.95 0.508,1.09 0.627,2.2 0.627,3.04 z"
   id="path5294" />
</g>    <path
       d="m 17.601712,25.591312 4.524049,0"
       id="path5926"
       style="text-anchor:middle;fill:#000000;fill-opacity:1;stroke:#000000;stroke-width:0.12210383;stroke-linecap:round;stroke-linejoin:round;stroke-miterlimit:4;stroke-opacity:1;stroke-dasharray:none;marker-end:url(#Arrow1Mend9)" />
    <path
       d="m 17.601712,25.591312 0,-4.52405"
       id="path5936"
       style="text-anchor:middle;fill:none;stroke:#000000;stroke-width:0.12210383;stroke-linecap:round;stroke-linejoin:round;stroke-miterlimit:4;stroke-opacity:1;stroke-dasharray:none;stroke-dashoffset:0;marker-end:url(#Arrow1Mendu)" />
    <g
       style="font-style:normal;font-variant:normal;font-weight:normal;font-stretch:normal;letter-spacing:normal;word-spacing:normal;text-anchor:start;fill:none;stroke:#000000;stroke-width:0.5pt;stroke-linecap:butt;stroke-linejoin:miter;stroke-miterlimit:10.43299961;stroke-opacity:1;stroke-dasharray:none;stroke-dashoffset:0"
       ns0:preamble="/home/jtmerrill/Repositories/compensation-sequences/review-paper/figures/misc/preamble.tex"
       ns0:text="$-\\i H_{\\mathrm{z}}$"
       word-spacing="normal"
       letter-spacing="normal"
       font-size-adjust="none"
       font-stretch="normal"
       font-weight="normal"
       font-variant="normal"
       font-style="normal"
       fill-rule="even-odd"
       stroke-miterlimit="10.433"
       xml:space="preserve"
       transform="matrix(0.24360973,0,0,-0.24360973,-2.4039546,138.72624)"
       id="g4458">
<path
   id="path4460"
   d="m 78.565,487.5 0.032,0 0.032,0 0.031,0 0.016,0 0.015,0 0.015,0 0.015,0 0.015,0 0.014,0.01 0.014,0 0.013,0 0.014,0.01 0.012,0 0.012,0.01 0.012,0 0.011,0.01 0.01,0 0.01,0.01 0.009,0.01 0.009,0.01 0.007,0.01 0.004,0.01 0.003,0 0.003,0.01 0.003,0 0.003,0.01 0.003,0.01 0.002,0 0.002,0.01 0.002,0.01 0.001,0 0.002,0.01 0.001,0.01 10e-4,0.01 0,0.01 0.001,0.01 0,0.01 c 0,0.19 -0.179,0.19 -0.349,0.19 h -5.389 c -0.17,0 -0.349,0 -0.349,-0.19 0,-0.2 0.179,-0.2 0.349,-0.2 z"
   style="fill:#000000;stroke-width:0" />
<path
   id="path4462"
   d="m 81.511,489.61 -1.395,-0.11 v -0.31 c 0.648,0 0.737,-0.06 0.737,-0.55 v -2.68 c 0,-0.45 -0.109,-0.45 -0.777,-0.45 v -0.31 c 0.319,0.01 0.857,0.03 1.096,0.03 0.349,0 0.697,-0.02 1.036,-0.03 v 0.31 c -0.657,0 -0.697,0.05 -0.697,0.44 z"
   style="fill:#000000;stroke-width:0" />
<path
   id="path4464"
   d="m 81.551,491.34 -0.001,0.03 -0.002,0.03 -0.004,0.03 -0.005,0.03 -0.006,0.02 -0.007,0.03 -0.009,0.02 -0.01,0.03 -0.011,0.02 -0.012,0.03 -0.013,0.02 -0.014,0.02 -0.015,0.02 -0.016,0.02 -0.017,0.02 -0.018,0.02 -0.018,0.01 -0.02,0.02 -0.02,0.01 -0.021,0.02 -0.021,0.01 -0.022,0.01 -0.023,0.01 -0.023,0.01 -0.024,0.01 -0.024,0.01 -0.025,0.01 -0.025,0 -0.025,0 -0.025,0.01 -0.026,0 -0.026,0 c -0.309,0 -0.528,-0.27 -0.528,-0.53 0,-0.27 0.219,-0.53 0.528,-0.53 0.279,0 0.528,0.21 0.528,0.53 z"
   style="fill:#000000;stroke-width:0" />
<path
   id="path4466"
   d="m 90.117,491.24 0.008,0.03 0.008,0.04 0.008,0.03 0.007,0.02 0.008,0.03 0.009,0.03 0.008,0.02 0.01,0.03 0.01,0.02 0.011,0.02 0.012,0.02 0.013,0.01 0.014,0.02 0.016,0.02 0.018,0.01 0.019,0.02 0.021,0.01 0.023,0.01 0.025,0.01 0.028,0.01 0.03,0.01 0.032,0.01 0.017,0 0.018,0 0.019,0.01 0.019,0 0.021,0 0.02,0 0.022,0.01 0.023,0 0.023,0 0.024,0 0.025,0 0.026,0.01 0.027,0 0.028,0 0.028,0 0.03,0 0.031,0 0.031,0 0.033,0 0.033,0 c 0.259,0 0.339,0 0.339,0.2 0,0.11 -0.109,0.11 -0.139,0.11 -0.279,0 -0.997,-0.03 -1.276,-0.03 -0.289,0 -0.996,0.03 -1.285,0.03 -0.08,0 -0.189,0 -0.189,-0.2 0,-0.11 0.09,-0.11 0.279,-0.11 0.02,0 0.209,0 0.378,-0.02 0.18,-0.02 0.269,-0.03 0.269,-0.16 0,-0.04 -0.009,-0.06 -0.039,-0.19 l -0.598,-2.43 h -3.039 l 0.588,2.34 c 0.09,0.36 0.12,0.46 0.837,0.46 0.259,0 0.339,0 0.339,0.2 0,0.11 -0.11,0.11 -0.14,0.11 -0.279,0 -0.996,-0.03 -1.275,-0.03 -0.289,0 -0.996,0.03 -1.285,0.03 -0.08,0 -0.19,0 -0.19,-0.2 0,-0.11 0.09,-0.11 0.279,-0.11 0.02,0 0.21,0 0.379,-0.02 0.179,-0.02 0.269,-0.03 0.269,-0.16 0,-0.04 -0.01,-0.07 -0.04,-0.19 l -1.335,-5.35 c -0.1,-0.39 -0.119,-0.47 -0.906,-0.47 -0.18,0 -0.269,0 -0.269,-0.19 0,-0.12 0.119,-0.12 0.139,-0.12 0.279,0 0.986,0.03 1.265,0.03 0.21,0 0.429,0 0.638,0 0.219,0 0.438,-0.03 0.647,-0.03 0.08,0 0.2,0 0.2,0.2 0,0.11 -0.09,0.11 -0.279,0.11 -0.369,0 -0.648,0 -0.648,0.18 0,0.06 0.02,0.11 0.03,0.17 l 0.678,2.73 h 3.038 c -0.418,-1.65 -0.647,-2.6 -0.687,-2.75 -0.1,-0.32 -0.289,-0.33 -0.907,-0.33 -0.149,0 -0.239,0 -0.239,-0.19 0,-0.12 0.12,-0.12 0.14,-0.12 0.278,0 0.986,0.03 1.265,0.03 0.209,0 0.428,0 0.637,0 0.219,0 0.439,-0.03 0.648,-0.03 0.08,0 0.199,0 0.199,0.2 0,0.11 -0.09,0.11 -0.279,0.11 -0.368,0 -0.647,0 -0.647,0.18 0,0.06 0.02,0.11 0.029,0.17 z"
   style="fill:#000000;stroke-width:0" />
<path
   id="path4468"
   d="m 93.87,486.47 0.005,0.01 0.004,0.01 0.004,0 0.004,0.01 0.004,0 0.003,0.01 0.004,0 0.003,0 0.003,0.01 0.003,0 0.002,0.01 0.003,0 0.002,0 0.002,0.01 0.002,0 0.002,0.01 0.002,0 0.001,0 0.002,0.01 0.001,0 0.001,0 10e-4,0.01 0.001,0 0.001,0 10e-4,0.01 0.001,0 0,0.01 0.001,0 0,0 0,0.01 0,0 0,0.01 c 0,0.11 -0.083,0.11 -0.195,0.11 h -2.483 l -0.083,-1.17 h 0.237 c 0.048,0.74 0.209,0.97 1.004,0.97 h 0.823 l -2.106,-2.54 c -0.063,-0.08 -0.063,-0.11 -0.063,-0.14 0,-0.13 0.07,-0.13 0.195,-0.13 h 2.567 l 0.125,1.36 h -0.237 c -0.07,-0.82 -0.216,-1.13 -1.088,-1.13 h -0.858 z"
   style="fill:#000000;stroke-width:0" />
</g>    <g
       id="content-5"
       transform="matrix(0.24360973,0,0,-0.24360973,5.065015,144.41277)"
       xml:space="preserve"
       stroke-miterlimit="10.433"
       fill-rule="even-odd"
       font-style="normal"
       font-variant="normal"
       font-weight="normal"
       font-stretch="normal"
       font-size-adjust="none"
       letter-spacing="normal"
       word-spacing="normal"
       ns0:text="$-\\i H_{\\mathrm{y}}$"
       ns0:preamble="/home/jtmerrill/Repositories/compensation-sequences/review-paper/figures/misc/preamble.tex"
       style="font-style:normal;font-variant:normal;font-weight:normal;font-stretch:normal;letter-spacing:normal;word-spacing:normal;text-anchor:start;fill:none;stroke:#000000;stroke-width:0.5pt;stroke-linecap:butt;stroke-linejoin:miter;stroke-miterlimit:10.43299961;stroke-opacity:1;stroke-dasharray:none;stroke-dashoffset:0">
<path
   style="fill:#000000;stroke-width:0"
   d="m 78.565,487.5 0.032,0 0.032,0 0.031,0 0.016,0 0.015,0 0.015,0 0.015,0 0.015,0 0.014,0.01 0.014,0 0.013,0 0.014,0.01 0.012,0 0.012,0.01 0.012,0 0.011,0.01 0.01,0 0.01,0.01 0.009,0.01 0.009,0.01 0.007,0.01 0.004,0.01 0.003,0 0.003,0.01 0.003,0 0.003,0.01 0.003,0.01 0.002,0 0.002,0.01 0.002,0.01 0.001,0 0.002,0.01 0.001,0.01 10e-4,0.01 0,0.01 0.001,0.01 0,0.01 c 0,0.19 -0.179,0.19 -0.349,0.19 h -5.389 c -0.17,0 -0.349,0 -0.349,-0.19 0,-0.2 0.179,-0.2 0.349,-0.2 z"
   id="path4725" />
<path
   style="fill:#000000;stroke-width:0"
   d="m 81.511,489.61 -1.395,-0.11 v -0.31 c 0.648,0 0.737,-0.06 0.737,-0.55 v -2.68 c 0,-0.45 -0.109,-0.45 -0.777,-0.45 v -0.31 c 0.319,0.01 0.857,0.03 1.096,0.03 0.349,0 0.697,-0.02 1.036,-0.03 v 0.31 c -0.657,0 -0.697,0.05 -0.697,0.44 z"
   id="path4727" />
<path
   style="fill:#000000;stroke-width:0"
   d="m 81.551,491.34 -0.001,0.03 -0.002,0.03 -0.004,0.03 -0.005,0.03 -0.006,0.02 -0.007,0.03 -0.009,0.02 -0.01,0.03 -0.011,0.02 -0.012,0.03 -0.013,0.02 -0.014,0.02 -0.015,0.02 -0.016,0.02 -0.017,0.02 -0.018,0.02 -0.018,0.01 -0.02,0.02 -0.02,0.01 -0.021,0.02 -0.021,0.01 -0.022,0.01 -0.023,0.01 -0.023,0.01 -0.024,0.01 -0.024,0.01 -0.025,0.01 -0.025,0 -0.025,0 -0.025,0.01 -0.026,0 -0.026,0 c -0.309,0 -0.528,-0.27 -0.528,-0.53 0,-0.27 0.219,-0.53 0.528,-0.53 0.279,0 0.528,0.21 0.528,0.53 z"
   id="path4729" />
<path
   style="fill:#000000;stroke-width:0"
   d="m 90.117,491.24 0.008,0.03 0.008,0.04 0.008,0.03 0.007,0.02 0.008,0.03 0.009,0.03 0.008,0.02 0.01,0.03 0.01,0.02 0.011,0.02 0.012,0.02 0.013,0.01 0.014,0.02 0.016,0.02 0.018,0.01 0.019,0.02 0.021,0.01 0.023,0.01 0.025,0.01 0.028,0.01 0.03,0.01 0.032,0.01 0.017,0 0.018,0 0.019,0.01 0.019,0 0.021,0 0.02,0 0.022,0.01 0.023,0 0.023,0 0.024,0 0.025,0 0.026,0.01 0.027,0 0.028,0 0.028,0 0.03,0 0.031,0 0.031,0 0.033,0 0.033,0 c 0.259,0 0.339,0 0.339,0.2 0,0.11 -0.109,0.11 -0.139,0.11 -0.279,0 -0.997,-0.03 -1.276,-0.03 -0.289,0 -0.996,0.03 -1.285,0.03 -0.08,0 -0.189,0 -0.189,-0.2 0,-0.11 0.09,-0.11 0.279,-0.11 0.02,0 0.209,0 0.378,-0.02 0.18,-0.02 0.269,-0.03 0.269,-0.16 0,-0.04 -0.009,-0.06 -0.039,-0.19 l -0.598,-2.43 h -3.039 l 0.588,2.34 c 0.09,0.36 0.12,0.46 0.837,0.46 0.259,0 0.339,0 0.339,0.2 0,0.11 -0.11,0.11 -0.14,0.11 -0.279,0 -0.996,-0.03 -1.275,-0.03 -0.289,0 -0.996,0.03 -1.285,0.03 -0.08,0 -0.19,0 -0.19,-0.2 0,-0.11 0.09,-0.11 0.279,-0.11 0.02,0 0.21,0 0.379,-0.02 0.179,-0.02 0.269,-0.03 0.269,-0.16 0,-0.04 -0.01,-0.07 -0.04,-0.19 l -1.335,-5.35 c -0.1,-0.39 -0.119,-0.47 -0.906,-0.47 -0.18,0 -0.269,0 -0.269,-0.19 0,-0.12 0.119,-0.12 0.139,-0.12 0.279,0 0.986,0.03 1.265,0.03 0.21,0 0.429,0 0.638,0 0.219,0 0.438,-0.03 0.647,-0.03 0.08,0 0.2,0 0.2,0.2 0,0.11 -0.09,0.11 -0.279,0.11 -0.369,0 -0.648,0 -0.648,0.18 0,0.06 0.02,0.11 0.03,0.17 l 0.678,2.73 h 3.038 c -0.418,-1.65 -0.647,-2.6 -0.687,-2.75 -0.1,-0.32 -0.289,-0.33 -0.907,-0.33 -0.149,0 -0.239,0 -0.239,-0.19 0,-0.12 0.12,-0.12 0.14,-0.12 0.278,0 0.986,0.03 1.265,0.03 0.209,0 0.428,0 0.637,0 0.219,0 0.439,-0.03 0.648,-0.03 0.08,0 0.199,0 0.199,0.2 0,0.11 -0.09,0.11 -0.279,0.11 -0.368,0 -0.647,0 -0.647,0.18 0,0.06 0.02,0.11 0.029,0.17 z"
   id="path4731" />
<path
   style="fill:#000000;stroke-width:0"
   d="m 94.094,486.04 0.009,0.01 0.009,0.02 0.01,0.02 0.01,0.02 0.01,0.02 0.01,0.01 0.022,0.04 0.021,0.03 0.023,0.02 0.023,0.03 0.023,0.02 0.023,0.02 0.024,0.02 0.024,0.02 0.025,0.02 0.024,0.01 0.024,0.02 0.024,0.01 0.024,0.01 0.024,0.01 0.023,0.01 0.023,0.01 0.023,0 0.022,0.01 0.021,0 0.021,0.01 0.02,0 0.019,0 0.018,0 0.017,0 0.017,0.01 0.015,0 0.013,0 0.013,0 0.011,0 v 0.25 c -0.195,-0.02 -0.328,-0.03 -0.53,-0.03 -0.188,0 -0.446,0.01 -0.635,0.03 v -0.25 c 0.231,-0.02 0.286,-0.16 0.286,-0.27 0,-0.08 -0.034,-0.14 -0.062,-0.21 l -0.774,-1.66 -0.858,1.84 c -0.021,0.05 -0.042,0.09 -0.042,0.14 0,0.16 0.237,0.16 0.356,0.16 v 0.25 c -0.105,-0.01 -0.607,-0.03 -0.802,-0.03 -0.21,0 -0.482,0.01 -0.684,0.03 v -0.25 c 0.391,0 0.467,-0.02 0.572,-0.25 l 1.172,-2.51 c -0.063,-0.14 -0.133,-0.27 -0.196,-0.41 -0.153,-0.33 -0.376,-0.82 -0.85,-0.82 -0.175,0 -0.231,0.04 -0.3,0.09 0.007,0 0.202,0.07 0.202,0.3 0,0.17 -0.126,0.3 -0.3,0.3 -0.181,0 -0.307,-0.13 -0.307,-0.31 0,-0.33 0.328,-0.57 0.705,-0.57 0.592,0 0.934,0.62 1.032,0.83 z"
   id="path4733" />
</g>    <g
       transform="translate(0,-1.3333333)"
       id="g10866">
      <g
         style="font-style:normal;font-variant:normal;font-weight:normal;font-stretch:normal;letter-spacing:normal;word-spacing:normal;text-anchor:start;fill:none;stroke:#000000;stroke-width:0.5pt;stroke-linecap:butt;stroke-linejoin:miter;stroke-miterlimit:10.43299961;stroke-opacity:1;stroke-dasharray:none;stroke-dashoffset:0"
         ns0:preamble="/home/jtmerrill/Repositories/compensation-sequences/review-paper/figures/misc/preamble.tex"
         ns0:text="$\\epsilon g_1$"
         word-spacing="normal"
         letter-spacing="normal"
         font-size-adjust="none"
         font-stretch="normal"
         font-weight="normal"
         font-variant="normal"
         font-style="normal"
         fill-rule="even-odd"
         stroke-miterlimit="10.433"
         xml:space="preserve"
         transform="matrix(0.24360973,0,0,-0.24360973,2.6883922,131.39794)"
         id="g5258">
<path
   id="path5260"
   d="m 74.969,487.46 0.03,0 0.03,0 0.03,0 0.015,0 0.015,0 0.015,0 0.014,0 0.014,0 0.014,0.01 0.014,0 0.013,0 0.013,0 0.012,0.01 0.012,0 0.011,0.01 0.011,0 0.01,0.01 0.01,0 0.009,0.01 0.008,0.01 0.008,0.01 0.007,0.01 0.003,0 0.003,0.01 0.003,0 0.002,0.01 0.003,0 0.002,0.01 0.001,0.01 0.002,0 0.001,0.01 0.002,0.01 0,0 0.001,0.01 0,0.01 0.001,0.01 c 0,0.14 -0.12,0.14 -0.289,0.14 h -1.614 c 0.239,0.84 0.797,1.42 1.703,1.42 h 0.309 c 0.17,0 0.329,0 0.329,0.17 0,0.14 -0.13,0.14 -0.299,0.14 h -0.349 c -1.295,0 -2.63,-1 -2.63,-2.52 0,-1.1 0.747,-1.88 1.803,-1.88 0.648,0 1.296,0.39 1.296,0.5 0,0.03 -0.01,0.14 -0.1,0.14 -0.02,0 -0.04,0 -0.129,-0.06 -0.309,-0.2 -0.678,-0.36 -1.047,-0.36 -0.577,0 -1.076,0.41 -1.076,1.29 0,0.35 0.08,0.73 0.11,0.85 z"
   style="fill:#000000;stroke-width:0" />
<path
   id="path5262"
   d="m 80.735,488.96 0.002,0.01 0.002,0.01 0.002,0.01 0.003,0.01 0.005,0.03 0.002,0.01 0.003,0.01 0.002,0.01 0.002,0.01 0.002,0.01 0.002,0.01 0.001,0.01 0,0.01 10e-4,0 0,0.01 0.001,0.01 0,0 0,0.01 c 0,0.17 -0.12,0.27 -0.289,0.27 -0.1,0 -0.369,-0.07 -0.409,-0.43 -0.179,0.37 -0.528,0.63 -0.926,0.63 l 0.01,-0.22 c 0.657,0 0.797,-0.81 0.797,-0.86 0,-0.05 -0.02,-0.11 -0.03,-0.15 l -0.478,-1.9 c -0.06,-0.26 -0.289,-0.51 -0.508,-0.7 -0.21,-0.18 -0.518,-0.36 -0.807,-0.36 -0.498,0 -0.648,0.52 -0.648,0.92 0,0.48 0.289,1.65 0.558,2.16 0.269,0.49 0.697,0.89 1.116,0.89 l -0.01,0.22 c -1.136,0 -2.371,-1.4 -2.371,-2.83 0,-0.99 0.608,-1.58 1.325,-1.58 0.588,0 1.056,0.47 1.156,0.58 l 0.009,-0.01 c -0.209,-0.88 -0.328,-1.29 -0.328,-1.31 -0.04,-0.09 -0.379,-1.08 -1.435,-1.08 -0.189,0 -0.518,0.01 -0.797,0.1 0.299,0.09 0.408,0.35 0.408,0.52 0,0.16 -0.109,0.35 -0.378,0.35 -0.219,0 -0.538,-0.18 -0.538,-0.58 0,-0.41 0.369,-0.61 1.325,-0.61 1.245,0 1.963,0.78 2.112,1.38 z"
   style="fill:#000000;stroke-width:0" />
<path
   id="path5264"
   d="m 83.134,488.15 0,0.01 0,0.01 0,0 -0.001,0.01 0,0.01 0,0.01 0,0 0,0.01 -10e-4,0.01 0,0 0,0.01 -0.001,0.01 0,0 -0.001,0.01 -10e-4,0 -0.001,0.01 0,0 -0.001,0.01 -0.002,0.01 -0.003,0 -0.003,0.01 -0.003,0.01 -0.004,0.01 -0.005,0 -0.005,0.01 -0.005,0 -0.006,0 -0.007,0.01 -0.007,0 -0.009,0 -0.008,0.01 -0.01,0 -0.005,0 -0.005,0 -0.006,0 -0.006,0 -0.006,0 -0.006,0 -0.006,0 -0.007,0 -0.006,0 -0.007,0 -0.008,0 -0.007,0 -0.008,0 -0.008,0 -0.008,0 -0.009,0 -0.008,0 -0.01,0 c -0.446,-0.44 -1.08,-0.44 -1.366,-0.44 v -0.25 c 0.167,0 0.627,0 1.011,0.19 v -3.56 c 0,-0.23 0,-0.32 -0.698,-0.32 h -0.265 v -0.25 c 0.126,0.01 0.984,0.03 1.242,0.03 0.216,0 1.095,-0.02 1.248,-0.03 v 0.25 h -0.265 c -0.697,0 -0.697,0.09 -0.697,0.32 z"
   style="fill:#000000;stroke-width:0" />
</g>      <g
         id="g5560"
         transform="matrix(0.24360974,0,0,-0.24360974,11.147945,130.48782)"
         xml:space="preserve"
         stroke-miterlimit="10.433"
         fill-rule="even-odd"
         font-style="normal"
         font-variant="normal"
         font-weight="normal"
         font-stretch="normal"
         font-size-adjust="none"
         letter-spacing="normal"
         word-spacing="normal"
         ns0:text="$\\epsilon g_2$"
         ns0:preamble="/home/jtmerrill/Repositories/compensation-sequences/review-paper/figures/misc/preamble.tex"
         style="font-style:normal;font-variant:normal;font-weight:normal;font-stretch:normal;letter-spacing:normal;word-spacing:normal;text-anchor:start;fill:none;stroke:#000000;stroke-width:0.5pt;stroke-linecap:butt;stroke-linejoin:miter;stroke-miterlimit:10.43299961;stroke-opacity:1;stroke-dasharray:none;stroke-dashoffset:0">
<path
   d="m 74.969,487.46 0.03,0 0.03,0 0.03,0 0.015,0 0.015,0 0.015,0 0.014,0 0.014,0 0.014,0.01 0.014,0 0.013,0 0.013,0 0.012,0.01 0.012,0 0.011,0.01 0.011,0 0.01,0.01 0.01,0 0.009,0.01 0.008,0.01 0.008,0.01 0.007,0.01 0.003,0 0.003,0.01 0.003,0 0.002,0.01 0.003,0 0.002,0.01 0.001,0.01 0.002,0 0.001,0.01 0.002,0.01 0,0 0.001,0.01 0,0.01 0.001,0.01 c 0,0.14 -0.12,0.14 -0.289,0.14 h -1.614 c 0.239,0.84 0.797,1.42 1.703,1.42 h 0.309 c 0.17,0 0.329,0 0.329,0.17 0,0.14 -0.13,0.14 -0.299,0.14 h -0.349 c -1.295,0 -2.63,-1 -2.63,-2.52 0,-1.1 0.747,-1.88 1.803,-1.88 0.648,0 1.296,0.39 1.296,0.5 0,0.03 -0.01,0.14 -0.1,0.14 -0.02,0 -0.04,0 -0.129,-0.06 -0.309,-0.2 -0.678,-0.36 -1.047,-0.36 -0.577,0 -1.076,0.41 -1.076,1.29 0,0.35 0.08,0.73 0.11,0.85 z"
   id="path5562"
   style="fill:#000000;stroke-width:0" />
<path
   d="m 80.735,488.96 0.002,0.01 0.002,0.01 0.002,0.01 0.003,0.01 0.005,0.03 0.002,0.01 0.003,0.01 0.002,0.01 0.002,0.01 0.002,0.01 0.002,0.01 0.001,0.01 0,0.01 10e-4,0 0,0.01 0.001,0.01 0,0 0,0.01 c 0,0.17 -0.12,0.27 -0.289,0.27 -0.1,0 -0.369,-0.07 -0.409,-0.43 -0.179,0.37 -0.528,0.63 -0.926,0.63 l 0.01,-0.22 c 0.657,0 0.797,-0.81 0.797,-0.86 0,-0.05 -0.02,-0.11 -0.03,-0.15 l -0.478,-1.9 c -0.06,-0.26 -0.289,-0.51 -0.508,-0.7 -0.21,-0.18 -0.518,-0.36 -0.807,-0.36 -0.498,0 -0.648,0.52 -0.648,0.92 0,0.48 0.289,1.65 0.558,2.16 0.269,0.49 0.697,0.89 1.116,0.89 l -0.01,0.22 c -1.136,0 -2.371,-1.4 -2.371,-2.83 0,-0.99 0.608,-1.58 1.325,-1.58 0.588,0 1.056,0.47 1.156,0.58 l 0.009,-0.01 c -0.209,-0.88 -0.328,-1.29 -0.328,-1.31 -0.04,-0.09 -0.379,-1.08 -1.435,-1.08 -0.189,0 -0.518,0.01 -0.797,0.1 0.299,0.09 0.408,0.35 0.408,0.52 0,0.16 -0.109,0.35 -0.378,0.35 -0.219,0 -0.538,-0.18 -0.538,-0.58 0,-0.41 0.369,-0.61 1.325,-0.61 1.245,0 1.963,0.78 2.112,1.38 z"
   id="path5564"
   style="fill:#000000;stroke-width:0" />
<path
   d="m 84.319,484.98 h -0.237 c -0.021,-0.15 -0.09,-0.56 -0.181,-0.63 -0.056,-0.05 -0.593,-0.05 -0.691,-0.05 h -1.283 c 0.733,0.65 0.977,0.85 1.395,1.18 0.516,0.41 0.997,0.84 0.997,1.5 0,0.85 -0.739,1.36 -1.632,1.36 -0.864,0 -1.45,-0.6 -1.45,-1.24 0,-0.36 0.3,-0.4 0.369,-0.4 0.168,0 0.37,0.12 0.37,0.37 0,0.13 -0.049,0.37 -0.411,0.37 0.216,0.5 0.69,0.65 1.018,0.65 0.697,0 1.06,-0.54 1.06,-1.11 0,-0.6 -0.433,-1.09 -0.656,-1.34 l -1.68,-1.66 c -0.07,-0.06 -0.07,-0.07 -0.07,-0.27 h 2.873 z"
   id="path5566"
   style="fill:#000000;stroke-width:0" />
</g>      <g
         style="font-style:normal;font-variant:normal;font-weight:normal;font-stretch:normal;letter-spacing:normal;word-spacing:normal;text-anchor:start;fill:none;stroke:#000000;stroke-width:0.5pt;stroke-linecap:butt;stroke-linejoin:miter;stroke-miterlimit:10.43299961;stroke-opacity:1;stroke-dasharray:none;stroke-dashoffset:0"
         ns0:preamble="/home/jtmerrill/Repositories/compensation-sequences/review-paper/figures/misc/preamble.tex"
         ns0:text="$\\epsilon g_3$"
         word-spacing="normal"
         letter-spacing="normal"
         font-size-adjust="none"
         font-stretch="normal"
         font-weight="normal"
         font-variant="normal"
         font-style="normal"
         fill-rule="even-odd"
         stroke-miterlimit="10.433"
         xml:space="preserve"
         transform="matrix(0.24360974,0,0,-0.24360974,10.370791,138.42675)"
         id="g5872">
<path
   id="path5874"
   d="m 74.969,487.46 0.03,0 0.03,0 0.03,0 0.015,0 0.015,0 0.015,0 0.014,0 0.014,0 0.014,0.01 0.014,0 0.013,0 0.013,0 0.012,0.01 0.012,0 0.011,0.01 0.011,0 0.01,0.01 0.01,0 0.009,0.01 0.008,0.01 0.008,0.01 0.007,0.01 0.003,0 0.003,0.01 0.003,0 0.002,0.01 0.003,0 0.002,0.01 0.001,0.01 0.002,0 0.001,0.01 0.002,0.01 0,0 0.001,0.01 0,0.01 0.001,0.01 c 0,0.14 -0.12,0.14 -0.289,0.14 h -1.614 c 0.239,0.84 0.797,1.42 1.703,1.42 h 0.309 c 0.17,0 0.329,0 0.329,0.17 0,0.14 -0.13,0.14 -0.299,0.14 h -0.349 c -1.295,0 -2.63,-1 -2.63,-2.52 0,-1.1 0.747,-1.88 1.803,-1.88 0.648,0 1.296,0.39 1.296,0.5 0,0.03 -0.01,0.14 -0.1,0.14 -0.02,0 -0.04,0 -0.129,-0.06 -0.309,-0.2 -0.678,-0.36 -1.047,-0.36 -0.577,0 -1.076,0.41 -1.076,1.29 0,0.35 0.08,0.73 0.11,0.85 z"
   style="fill:#000000;stroke-width:0" />
<path
   id="path5876"
   d="m 80.735,488.96 0.002,0.01 0.002,0.01 0.002,0.01 0.003,0.01 0.005,0.03 0.002,0.01 0.003,0.01 0.002,0.01 0.002,0.01 0.002,0.01 0.002,0.01 0.001,0.01 0,0.01 10e-4,0 0,0.01 0.001,0.01 0,0 0,0.01 c 0,0.17 -0.12,0.27 -0.289,0.27 -0.1,0 -0.369,-0.07 -0.409,-0.43 -0.179,0.37 -0.528,0.63 -0.926,0.63 l 0.01,-0.22 c 0.657,0 0.797,-0.81 0.797,-0.86 0,-0.05 -0.02,-0.11 -0.03,-0.15 l -0.478,-1.9 c -0.06,-0.26 -0.289,-0.51 -0.508,-0.7 -0.21,-0.18 -0.518,-0.36 -0.807,-0.36 -0.498,0 -0.648,0.52 -0.648,0.92 0,0.48 0.289,1.65 0.558,2.16 0.269,0.49 0.697,0.89 1.116,0.89 l -0.01,0.22 c -1.136,0 -2.371,-1.4 -2.371,-2.83 0,-0.99 0.608,-1.58 1.325,-1.58 0.588,0 1.056,0.47 1.156,0.58 l 0.009,-0.01 c -0.209,-0.88 -0.328,-1.29 -0.328,-1.31 -0.04,-0.09 -0.379,-1.08 -1.435,-1.08 -0.189,0 -0.518,0.01 -0.797,0.1 0.299,0.09 0.408,0.35 0.408,0.52 0,0.16 -0.109,0.35 -0.378,0.35 -0.219,0 -0.538,-0.18 -0.538,-0.58 0,-0.41 0.369,-0.61 1.325,-0.61 1.245,0 1.963,0.78 2.112,1.38 z"
   style="fill:#000000;stroke-width:0" />
<path
   id="path5878"
   d="m 82.701,486.04 0.051,0 0.05,0 0.048,-0.01 0.048,-0.01 0.046,-0.01 0.046,-0.01 0.044,-0.01 0.043,-0.02 0.042,-0.02 0.04,-0.02 0.039,-0.02 0.038,-0.03 0.036,-0.02 0.035,-0.03 0.034,-0.04 0.032,-0.03 0.03,-0.04 0.028,-0.03 0.027,-0.05 0.026,-0.04 0.023,-0.04 0.022,-0.05 0.019,-0.05 0.018,-0.05 0.016,-0.05 0.014,-0.06 0.012,-0.06 0.01,-0.06 0.008,-0.06 0.005,-0.07 0.004,-0.06 10e-4,-0.07 c 0,-0.87 -0.502,-1.12 -0.907,-1.12 -0.279,0 -0.892,0.07 -1.185,0.48 0.327,0.02 0.404,0.25 0.404,0.39 0,0.23 -0.167,0.39 -0.383,0.39 -0.196,0 -0.391,-0.12 -0.391,-0.41 0,-0.65 0.725,-1.08 1.569,-1.08 0.97,0 1.639,0.65 1.639,1.35 0,0.54 -0.446,1.09 -1.213,1.25 0.732,0.26 0.997,0.78 0.997,1.21 0,0.55 -0.635,0.96 -1.409,0.96 -0.774,0 -1.367,-0.37 -1.367,-0.93 0,-0.24 0.154,-0.37 0.363,-0.37 0.216,0 0.356,0.16 0.356,0.35 0,0.21 -0.14,0.35 -0.356,0.37 0.244,0.3 0.725,0.38 0.983,0.38 0.314,0 0.753,-0.15 0.753,-0.76 0,-0.29 -0.097,-0.61 -0.279,-0.83 -0.23,-0.26 -0.425,-0.28 -0.774,-0.3 -0.174,-0.01 -0.188,-0.01 -0.223,-0.02 -0.014,0 -0.069,-0.01 -0.069,-0.09 0,-0.1 0.062,-0.1 0.181,-0.1 z"
   style="fill:#000000;stroke-width:0" />
</g>      <g
         id="g8810"
         transform="matrix(0.30731682,0,0,0.30731682,20.181798,21.598993)"
         style="text-anchor:middle;fill:none;stroke:#000000;stroke-width:0.49665287;stroke-linejoin:round;stroke-miterlimit:4;stroke-dasharray:none">
        <path
           sodipodi:nodetypes="cc"
           id="path6674"
           d="M 15.407727,-13.703989 8.4806179,-46.094792"
           style="text-anchor:middle;fill:none;stroke:#ff0000;stroke-width:0.49665287;stroke-linejoin:round;stroke-miterlimit:4;stroke-opacity:1;stroke-dasharray:none;marker-end:url(#Arrow1Mend-9q)" />
        <path
           sodipodi:nodetypes="cc"
           id="path6676"
           d="M 8.3308071,-46.581677 47.941135,-6.9448657"
           style="text-anchor:middle;fill:none;stroke:#ff6464;stroke-width:0.49665287;stroke-linejoin:round;stroke-miterlimit:4;stroke-opacity:1;stroke-dasharray:none;marker-end:url(#Arrow1Mend-9C)" />
        <path
           sodipodi:nodetypes="cc"
           id="path6678"
           d="M 48.285415,-6.6270691 15.819707,-13.741442"
           style="text-anchor:middle;fill:none;stroke:#ff6464;stroke-width:0.49665287;stroke-linejoin:round;stroke-miterlimit:4;stroke-opacity:1;stroke-dasharray:none;marker-end:url(#Arrow1Mend-9y)" />
      </g>
    </g>
  </g>
</svg>
